Raw Data/15cm Cavity.csv

Record Length,2500,Points,-509.999983478E-6,328.00000906E-3,,Record Length,2500,Points,-509.999983478E-6,79.999998212E-3,
Sample Interval,1.000000E-6,s,-508.999975864E-6,328.00000906E-3,,Sample Interval,1.000000E-6,s,-508.999975864E-6,79.999998212E-3,
Trigger Point,509.999984766,Samples,-507.999968249E-6,328.00000906E-3,,Trigger Point,509.999984766,Samples,-507.999968249E-6,0.0,
,,,-506.999960635E-6,328.00000906E-3,,,,,-506.999960635E-6,79.999998212E-3,
,,,-506.000011228E-6,328.00000906E-3,,,,,-506.000011228E-6,0.0,
,,,-505.000003614E-6,328.00000906E-3,,,,,-505.000003614E-6,0.0,
Source,CH1,,-503.999995999E-6,328.00000906E-3,,Source,CH2,,-503.999995999E-6,0.0,
Vertical Units,Volts,,-502.999988385E-6,328.00000906E-3,,Vertical Units,Volts,,-502.999988385E-6,0.0,
Vertical Scale,200.00000950E-3,,-501.999980770E-6,328.00000906E-3,,Vertical Scale,2.0000000,,-501.999980770E-6,0.0,
Vertical Offset,0,,-500.999973156E-6,328.00000906E-3,,Vertical Offset,0,,-500.999973156E-6,79.999998212E-3,
Horizontal Units,s,,-499.999965541E-6,328.00000906E-3,,Horizontal Units,s,,-499.999965541E-6,0.0,
Horizontal Scale,249.99999937E-6,,-498.999957927E-6,328.00000906E-3,,Horizontal Scale,249.99999937E-6,,-498.999957927E-6,0.0,
Pt Fmt,Y,,-498.000008520E-6,328.00000906E-3,,Pt Fmt,Y,,-498.000008520E-6,-79.999998212E-3,
Yzero,-880.000000000E-3,,-497.000000905E-6,328.00000906E-3,,Yzero,-1.6800000,,-497.000000905E-6,0.0,
Probe Atten,1.000000,,-495.999993291E-6,336.00002527E-3,,Probe Atten,1.000000,,-495.999993291E-6,0.0,
,,,-494.999985676E-6,328.00000906E-3,,,,,-494.999985676E-6,79.999998212E-3,
Note,TDS 1002B - 12:37:46 PM   2/13/2018,,-493.999978062E-6,328.00000906E-3,,Note,TDS 1002B - 12:37:46 PM   2/13/2018,,-493.999978062E-6,0.0,
,,,-492.999970447E-6,328.00000906E-3,,,,,-492.999970447E-6,0.0,
,,,-491.999962833E-6,328.00000906E-3,,,,,-491.999962833E-6,0.0,
,,,-490.999955218E-6,336.00002527E-3,,,,,-490.999955218E-6,79.999998212E-3,
,,,-490.000005811E-6,336.00002527E-3,,,,,-490.000005811E-6,0.0,
,,,-488.999998197E-6,328.00000906E-3,,,,,-488.999998197E-6,79.999998212E-3,
,,,-487.999990582E-6,336.00002527E-3,,,,,-487.999990582E-6,0.0,
,,,-486.999982968E-6,328.00000906E-3,,,,,-486.999982968E-6,0.0,
,,,-485.999975353E-6,328.00000906E-3,,,,,-485.999975353E-6,0.0,
,,,-484.999996843E-6,336.00002527E-3,,,,,-484.999996843E-6,0.0,
,,,-483.999989228E-6,336.00002527E-3,,,,,-483.999989228E-6,0.0,
,,,-482.999981614E-6,336.00002527E-3,,,,,-482.999981614E-6,0.0,
,,,-481.999973999E-6,328.00000906E-3,,,,,-481.999973999E-6,0.0,
,,,-480.999995489E-6,336.00002527E-3,,,,,-480.999995489E-6,0.0,
,,,-479.999987874E-6,336.00002527E-3,,,,,-479.999987874E-6,0.0,
,,,-478.999980260E-6,336.00002527E-3,,,,,-478.999980260E-6,0.0,
,,,-477.999972645E-6,336.00002527E-3,,,,,-477.999972645E-6,0.0,
,,,-476.999994135E-6,336.00002527E-3,,,,,-476.999994135E-6,0.0,
,,,-475.999986520E-6,336.00002527E-3,,,,,-475.999986520E-6,0.0,
,,,-474.999978906E-6,336.00002527E-3,,,,,-474.999978906E-6,0.0,
,,,-473.999971291E-6,336.00002527E-3,,,,,-473.999971291E-6,0.0,
,,,-472.999992780E-6,336.00002527E-3,,,,,-472.999992780E-6,0.0,
,,,-471.999985166E-6,336.00002527E-3,,,,,-471.999985166E-6,0.0,
,,,-470.999977551E-6,336.00002527E-3,,,,,-470.999977551E-6,0.0,
,,,-469.999969937E-6,336.00002527E-3,,,,,-469.999969937E-6,0.0,
,,,-468.999991426E-6,336.00002527E-3,,,,,-468.999991426E-6,79.999998212E-3,
,,,-467.999983812E-6,336.00002527E-3,,,,,-467.999983812E-6,79.999998212E-3,
,,,-466.999976197E-6,336.00002527E-3,,,,,-466.999976197E-6,79.999998212E-3,
,,,-465.999997687E-6,344.00001168E-3,,,,,-465.999997687E-6,79.999998212E-3,
,,,-464.999990072E-6,344.00001168E-3,,,,,-464.999990072E-6,79.999998212E-3,
,,,-463.999982458E-6,344.00001168E-3,,,,,-463.999982458E-6,79.999998212E-3,
,,,-462.999974843E-6,344.00001168E-3,,,,,-462.999974843E-6,239.99999464E-3,
,,,-461.999996332E-6,344.00001168E-3,,,,,-461.999996332E-6,239.99999464E-3,
,,,-460.999988718E-6,344.00001168E-3,,,,,-460.999988718E-6,239.99999464E-3,
,,,-459.999981103E-6,344.00001168E-3,,,,,-459.999981103E-6,239.99999464E-3,
,,,-458.999973489E-6,344.00001168E-3,,,,,-458.999973489E-6,239.99999464E-3,
,,,-457.999994978E-6,344.00001168E-3,,,,,-457.999994978E-6,239.99999464E-3,
,,,-456.999987364E-6,344.00001168E-3,,,,,-456.999987364E-6,159.99999642E-3,
,,,-455.999979749E-6,344.00001168E-3,,,,,-455.999979749E-6,159.99999642E-3,
,,,-454.999972135E-6,344.00001168E-3,,,,,-454.999972135E-6,79.999998212E-3,
,,,-453.999993624E-6,344.00001168E-3,,,,,-453.999993624E-6,159.99999642E-3,
,,,-452.999986010E-6,344.00001168E-3,,,,,-452.999986010E-6,79.999998212E-3,
,,,-451.999978395E-6,344.00001168E-3,,,,,-451.999978395E-6,79.999998212E-3,
,,,-450.999970781E-6,344.00001168E-3,,,,,-450.999970781E-6,79.999998212E-3,
,,,-449.999992270E-6,344.00001168E-3,,,,,-449.999992270E-6,79.999998212E-3,
,,,-448.999984656E-6,344.00001168E-3,,,,,-448.999984656E-6,79.999998212E-3,
,,,-447.999977041E-6,344.00001168E-3,,,,,-447.999977041E-6,79.999998212E-3,
,,,-446.999969427E-6,344.00001168E-3,,,,,-446.999969427E-6,159.99999642E-3,
,,,-445.999990916E-6,344.00001168E-3,,,,,-445.999990916E-6,159.99999642E-3,
,,,-444.999983301E-6,344.00001168E-3,,,,,-444.999983301E-6,159.99999642E-3,
,,,-443.999975687E-6,352.00002789E-3,,,,,-443.999975687E-6,239.99999464E-3,
,,,-442.999997176E-6,352.00002789E-3,,,,,-442.999997176E-6,319.99999285E-3,
,,,-441.999989562E-6,352.00002789E-3,,,,,-441.999989562E-6,239.99999464E-3,
,,,-440.999981947E-6,352.00002789E-3,,,,,-440.999981947E-6,319.99999285E-3,
,,,-439.999974333E-6,352.00002789E-3,,,,,-439.999974333E-6,239.99999464E-3,
,,,-438.999995822E-6,352.00002789E-3,,,,,-438.999995822E-6,159.99999642E-3,
,,,-437.999988208E-6,352.00002789E-3,,,,,-437.999988208E-6,159.99999642E-3,
,,,-436.999980593E-6,352.00002789E-3,,,,,-436.999980593E-6,79.999998212E-3,
,,,-435.999972979E-6,352.00002789E-3,,,,,-435.999972979E-6,79.999998212E-3,
,,,-434.999994468E-6,352.00002789E-3,,,,,-434.999994468E-6,159.99999642E-3,
,,,-433.999986853E-6,352.00002789E-3,,,,,-433.999986853E-6,79.999998212E-3,
,,,-432.999979239E-6,352.00002789E-3,,,,,-432.999979239E-6,79.999998212E-3,
,,,-431.999971624E-6,352.00002789E-3,,,,,-431.999971624E-6,79.999998212E-3,
,,,-430.999993114E-6,352.00002789E-3,,,,,-430.999993114E-6,79.999998212E-3,
,,,-429.999985499E-6,352.00002789E-3,,,,,-429.999985499E-6,79.999998212E-3,
,,,-428.999977885E-6,352.00002789E-3,,,,,-428.999977885E-6,79.999998212E-3,
,,,-427.999970270E-6,352.00002789E-3,,,,,-427.999970270E-6,79.999998212E-3,
,,,-426.999991760E-6,352.00002789E-3,,,,,-426.999991760E-6,79.999998212E-3,
,,,-425.999984145E-6,352.00002789E-3,,,,,-425.999984145E-6,79.999998212E-3,
,,,-424.999976531E-6,352.00002789E-3,,,,,-424.999976531E-6,79.999998212E-3,
,,,-423.999998020E-6,352.00002789E-3,,,,,-423.999998020E-6,79.999998212E-3,
,,,-422.999990406E-6,360.00001431E-3,,,,,-422.999990406E-6,79.999998212E-3,
,,,-421.999982791E-6,352.00002789E-3,,,,,-421.999982791E-6,79.999998212E-3,
,,,-420.999975177E-6,352.00002789E-3,,,,,-420.999975177E-6,159.99999642E-3,
,,,-419.999996666E-6,352.00002789E-3,,,,,-419.999996666E-6,79.999998212E-3,
,,,-418.999989051E-6,360.00001431E-3,,,,,-418.999989051E-6,159.99999642E-3,
,,,-417.999981437E-6,352.00002789E-3,,,,,-417.999981437E-6,159.99999642E-3,
,,,-416.999973822E-6,352.00002789E-3,,,,,-416.999973822E-6,159.99999642E-3,
,,,-415.999995312E-6,360.00001431E-3,,,,,-415.999995312E-6,239.99999464E-3,
,,,-414.999987697E-6,352.00002789E-3,,,,,-414.999987697E-6,239.99999464E-3,
,,,-413.999980083E-6,360.00001431E-3,,,,,-413.999980083E-6,239.99999464E-3,
,,,-412.999972468E-6,360.00001431E-3,,,,,-412.999972468E-6,319.99999285E-3,
,,,-411.999993958E-6,360.00001431E-3,,,,,-411.999993958E-6,319.99999285E-3,
,,,-410.999986343E-6,360.00001431E-3,,,,,-410.999986343E-6,399.99997616E-3,
,,,-409.999978729E-6,360.00001431E-3,,,,,-409.999978729E-6,479.999989271E-3,
,,,-408.999971114E-6,360.00001431E-3,,,,,-408.999971114E-6,560.000002384E-3,
,,,-407.999992603E-6,360.00001431E-3,,,,,-407.999992603E-6,560.000002384E-3,
,,,-406.999984989E-6,360.00001431E-3,,,,,-406.999984989E-6,479.999989271E-3,
,,,-405.999977374E-6,360.00001431E-3,,,,,-405.999977374E-6,399.99997616E-3,
,,,-404.999969760E-6,360.00001431E-3,,,,,-404.999969760E-6,399.99997616E-3,
,,,-403.999991249E-6,360.00001431E-3,,,,,-403.999991249E-6,319.99999285E-3,
,,,-402.99998363E-6,360.00001431E-3,,,,,-402.99998363E-6,319.99999285E-3,
,,,-401.99997602E-6,360.00001431E-3,,,,,-401.99997602E-6,239.99999464E-3,
,,,-400.99999751E-6,360.00001431E-3,,,,,-400.99999751E-6,239.99999464E-3,
,,,-399.99998990E-6,360.00001431E-3,,,,,-399.99998990E-6,239.99999464E-3,
,,,-398.99998228E-6,360.00001431E-3,,,,,-398.99998228E-6,159.99999642E-3,
,,,-397.99997467E-6,368.00003052E-3,,,,,-397.99997467E-6,79.999998212E-3,
,,,-396.99999616E-6,360.00001431E-3,,,,,-396.99999616E-6,159.99999642E-3,
,,,-395.99998854E-6,360.00001431E-3,,,,,-395.99998854E-6,79.999998212E-3,
,,,-394.99998093E-6,360.00001431E-3,,,,,-394.99998093E-6,79.999998212E-3,
,,,-393.99997331E-6,368.00003052E-3,,,,,-393.99997331E-6,79.999998212E-3,
,,,-392.99999480E-6,368.00003052E-3,,,,,-392.99999480E-6,79.999998212E-3,
,,,-391.99998719E-6,368.00003052E-3,,,,,-391.99998719E-6,79.999998212E-3,
,,,-390.99997957E-6,368.00003052E-3,,,,,-390.99997957E-6,159.99999642E-3,
,,,-389.99997196E-6,368.00003052E-3,,,,,-389.99997196E-6,159.99999642E-3,
,,,-388.99999345E-6,368.00003052E-3,,,,,-388.99999345E-6,159.99999642E-3,
,,,-387.99998583E-6,368.00003052E-3,,,,,-387.99998583E-6,79.999998212E-3,
,,,-386.99997822E-6,368.00003052E-3,,,,,-386.99997822E-6,79.999998212E-3,
,,,-385.99997060E-6,368.00003052E-3,,,,,-385.99997060E-6,159.99999642E-3,
,,,-384.99999209E-6,368.00003052E-3,,,,,-384.99999209E-6,239.99999464E-3,
,,,-383.99998448E-6,368.00003052E-3,,,,,-383.99998448E-6,319.99999285E-3,
,,,-382.99997686E-6,368.00003052E-3,,,,,-382.99997686E-6,319.99999285E-3,
,,,-381.99999835E-6,368.00003052E-3,,,,,-381.99999835E-6,399.99997616E-3,
,,,-380.99999074E-6,368.00003052E-3,,,,,-380.99999074E-6,399.99997616E-3,
,,,-379.99998312E-6,368.00003052E-3,,,,,-379.99998312E-6,319.99999285E-3,
,,,-378.99997551E-6,368.00003052E-3,,,,,-378.99997551E-6,239.99999464E-3,
,,,-377.99999700E-6,368.00003052E-3,,,,,-377.99999700E-6,239.99999464E-3,
,,,-376.99998938E-6,368.00003052E-3,,,,,-376.99998938E-6,159.99999642E-3,
,,,-375.99998177E-6,368.00003052E-3,,,,,-375.99998177E-6,239.99999464E-3,
,,,-374.99997416E-6,368.00003052E-3,,,,,-374.99997416E-6,159.99999642E-3,
,,,-373.99999565E-6,368.00003052E-3,,,,,-373.99999565E-6,159.99999642E-3,
,,,-372.99998803E-6,368.00003052E-3,,,,,-372.99998803E-6,159.99999642E-3,
,,,-371.99998042E-6,376.00001693E-3,,,,,-371.99998042E-6,239.99999464E-3,
,,,-370.99997280E-6,368.00003052E-3,,,,,-370.99997280E-6,239.99999464E-3,
,,,-369.99999429E-6,368.00003052E-3,,,,,-369.99999429E-6,159.99999642E-3,
,,,-368.99998668E-6,376.00001693E-3,,,,,-368.99998668E-6,239.99999464E-3,
,,,-367.99997906E-6,368.00003052E-3,,,,,-367.99997906E-6,239.99999464E-3,
,,,-366.99997145E-6,368.00003052E-3,,,,,-366.99997145E-6,239.99999464E-3,
,,,-365.99999294E-6,376.00001693E-3,,,,,-365.99999294E-6,239.99999464E-3,
,,,-364.99998532E-6,368.00003052E-3,,,,,-364.99998532E-6,319.99999285E-3,
,,,-363.99997771E-6,376.00001693E-3,,,,,-363.99997771E-6,319.99999285E-3,
,,,-362.99997009E-6,376.00001693E-3,,,,,-362.99997009E-6,399.99997616E-3,
,,,-361.99999158E-6,376.00001693E-3,,,,,-361.99999158E-6,479.999989271E-3,
,,,-360.99998397E-6,376.00001693E-3,,,,,-360.99998397E-6,560.000002384E-3,
,,,-359.99997635E-6,376.00001693E-3,,,,,-359.99997635E-6,639.999985695E-3,
,,,-358.99999784E-6,376.00001693E-3,,,,,-358.99999784E-6,799.999952316E-3,
,,,-357.99999023E-6,376.00001693E-3,,,,,-357.99999023E-6,879.999995232E-3,
,,,-356.99998261E-6,376.00001693E-3,,,,,-356.99998261E-6,1.1200000,
,,,-355.99997500E-6,376.00001693E-3,,,,,-355.99997500E-6,1.4399999,
,,,-354.99999649E-6,376.00001693E-3,,,,,-354.99999649E-6,1.8399999,
,,,-353.99998887E-6,376.00001693E-3,,,,,-353.99998887E-6,2.3999999,
,,,-352.99998126E-6,376.00001693E-3,,,,,-352.99998126E-6,3.27999997,
,,,-351.99997365E-6,376.00001693E-3,,,,,-351.99997365E-6,4.40000010,
,,,-350.99999513E-6,376.00001693E-3,,,,,-350.99999513E-6,5.67999983,
,,,-349.99998752E-6,376.00001693E-3,,,,,-349.99998752E-6,6.63999987,
,,,-348.99997991E-6,376.00001693E-3,,,,,-348.99997991E-6,6.48000002,
,,,-347.99997229E-6,384.00000334E-3,,,,,-347.99997229E-6,5.44000006,
,,,-346.99999378E-6,376.00001693E-3,,,,,-346.99999378E-6,4.07999992,
,,,-345.99998617E-6,376.00001693E-3,,,,,-345.99998617E-6,2.96000004,
,,,-344.99997855E-6,384.00000334E-3,,,,,-344.99997855E-6,2.2400000,
,,,-343.99997094E-6,376.00001693E-3,,,,,-343.99997094E-6,1.5999999,
,,,-342.99999243E-6,376.00001693E-3,,,,,-342.99999243E-6,1.2800000,
,,,-341.99998481E-6,376.00001693E-3,,,,,-341.99998481E-6,959.999978542E-3,
,,,-340.99997720E-6,376.00001693E-3,,,,,-340.99997720E-6,719.999969006E-3,
,,,-339.99996958E-6,384.00000334E-3,,,,,-339.99996958E-6,560.000002384E-3,
,,,-338.99999107E-6,384.00000334E-3,,,,,-338.99999107E-6,399.99997616E-3,
,,,-337.99998346E-6,384.00000334E-3,,,,,-337.99998346E-6,319.99999285E-3,
,,,-336.99997584E-6,384.00000334E-3,,,,,-336.99997584E-6,319.99999285E-3,
,,,-335.99999733E-6,384.00000334E-3,,,,,-335.99999733E-6,239.99999464E-3,
,,,-334.99998972E-6,384.00000334E-3,,,,,-334.99998972E-6,159.99999642E-3,
,,,-333.99998210E-6,384.00000334E-3,,,,,-333.99998210E-6,159.99999642E-3,
,,,-332.99997449E-6,384.00000334E-3,,,,,-332.99997449E-6,159.99999642E-3,
,,,-331.99999598E-6,384.00000334E-3,,,,,-331.99999598E-6,159.99999642E-3,
,,,-330.99998836E-6,384.00000334E-3,,,,,-330.99998836E-6,159.99999642E-3,
,,,-329.99998075E-6,384.00000334E-3,,,,,-329.99998075E-6,79.999998212E-3,
,,,-328.99997314E-6,384.00000334E-3,,,,,-328.99997314E-6,79.999998212E-3,
,,,-327.99999462E-6,384.00000334E-3,,,,,-327.99999462E-6,79.999998212E-3,
,,,-326.99998701E-6,392.00001955E-3,,,,,-326.99998701E-6,79.999998212E-3,
,,,-325.99997940E-6,392.00001955E-3,,,,,-325.99997940E-6,79.999998212E-3,
,,,-324.99997178E-6,392.00001955E-3,,,,,-324.99997178E-6,0.0,
,,,-323.99999327E-6,384.00000334E-3,,,,,-323.99999327E-6,79.999998212E-3,
,,,-322.99998566E-6,392.00001955E-3,,,,,-322.99998566E-6,79.999998212E-3,
,,,-321.99997804E-6,384.00000334E-3,,,,,-321.99997804E-6,0.0,
,,,-320.99997043E-6,384.00000334E-3,,,,,-320.99997043E-6,0.0,
,,,-319.99999192E-6,392.00001955E-3,,,,,-319.99999192E-6,0.0,
,,,-318.99998430E-6,392.00001955E-3,,,,,-318.99998430E-6,0.0,
,,,-317.99997669E-6,392.00001955E-3,,,,,-317.99997669E-6,0.0,
,,,-316.99999818E-6,392.00001955E-3,,,,,-316.99999818E-6,0.0,
,,,-315.99999056E-6,392.00001955E-3,,,,,-315.99999056E-6,0.0,
,,,-314.99998295E-6,392.00001955E-3,,,,,-314.99998295E-6,0.0,
,,,-313.99997533E-6,392.00001955E-3,,,,,-313.99997533E-6,0.0,
,,,-312.99999682E-6,392.00001955E-3,,,,,-312.99999682E-6,0.0,
,,,-311.99998921E-6,392.00001955E-3,,,,,-311.99998921E-6,0.0,
,,,-310.99998159E-6,392.00001955E-3,,,,,-310.99998159E-6,0.0,
,,,-309.99997398E-6,392.00001955E-3,,,,,-309.99997398E-6,0.0,
,,,-308.99999547E-6,392.00001955E-3,,,,,-308.99999547E-6,0.0,
,,,-307.99998785E-6,392.00001955E-3,,,,,-307.99998785E-6,0.0,
,,,-306.99998024E-6,392.00001955E-3,,,,,-306.99998024E-6,0.0,
,,,-305.99997262E-6,392.00001955E-3,,,,,-305.99997262E-6,0.0,
,,,-304.99999411E-6,392.00001955E-3,,,,,-304.99999411E-6,0.0,
,,,-303.99998650E-6,392.00001955E-3,,,,,-303.99998650E-6,0.0,
,,,-302.99997889E-6,392.00001955E-3,,,,,-302.99997889E-6,0.0,
,,,-301.99997127E-6,392.00001955E-3,,,,,-301.99997127E-6,0.0,
,,,-300.99999276E-6,392.00001955E-3,,,,,-300.99999276E-6,0.0,
,,,-299.99998515E-6,392.00001955E-3,,,,,-299.99998515E-6,0.0,
,,,-298.99997753E-6,392.00001955E-3,,,,,-298.99997753E-6,79.999998212E-3,
,,,-297.99996992E-6,400.00000596E-3,,,,,-297.99996992E-6,79.999998212E-3,
,,,-296.99999141E-6,400.00000596E-3,,,,,-296.99999141E-6,0.0,
,,,-295.99998379E-6,392.00001955E-3,,,,,-295.99998379E-6,0.0,
,,,-294.99997618E-6,392.00001955E-3,,,,,-294.99997618E-6,79.999998212E-3,
,,,-293.99999767E-6,392.00001955E-3,,,,,-293.99999767E-6,79.999998212E-3,
,,,-292.99999005E-6,392.00001955E-3,,,,,-292.99999005E-6,0.0,
,,,-291.99998244E-6,400.00000596E-3,,,,,-291.99998244E-6,79.999998212E-3,
,,,-290.99997482E-6,400.00000596E-3,,,,,-290.99997482E-6,79.999998212E-3,
,,,-289.99999631E-6,400.00000596E-3,,,,,-289.99999631E-6,79.999998212E-3,
,,,-288.99998870E-6,400.00000596E-3,,,,,-288.99998870E-6,159.99999642E-3,
,,,-287.99998108E-6,400.00000596E-3,,,,,-287.99998108E-6,79.999998212E-3,
,,,-286.99997347E-6,400.00000596E-3,,,,,-286.99997347E-6,79.999998212E-3,
,,,-285.99999496E-6,400.00000596E-3,,,,,-285.99999496E-6,159.99999642E-3,
,,,-284.99998734E-6,400.00000596E-3,,,,,-284.99998734E-6,0.0,
,,,-283.99997973E-6,400.00000596E-3,,,,,-283.99997973E-6,79.999998212E-3,
,,,-282.99997211E-6,400.00000596E-3,,,,,-282.99997211E-6,79.999998212E-3,
,,,-281.99999360E-6,400.00000596E-3,,,,,-281.99999360E-6,0.0,
,,,-280.99998599E-6,400.00000596E-3,,,,,-280.99998599E-6,0.0,
,,,-279.99997837E-6,392.00001955E-3,,,,,-279.99997837E-6,0.0,
,,,-278.99997076E-6,400.00000596E-3,,,,,-278.99997076E-6,0.0,
,,,-277.99999225E-6,400.00000596E-3,,,,,-277.99999225E-6,0.0,
,,,-276.99998464E-6,400.00000596E-3,,,,,-276.99998464E-6,79.999998212E-3,
,,,-275.99997702E-6,400.00000596E-3,,,,,-275.99997702E-6,0.0,
,,,-274.99999851E-6,400.00000596E-3,,,,,-274.99999851E-6,79.999998212E-3,
,,,-273.99999090E-6,400.00000596E-3,,,,,-273.99999090E-6,79.999998212E-3,
,,,-272.99998328E-6,400.00000596E-3,,,,,-272.99998328E-6,79.999998212E-3,
,,,-271.99997567E-6,400.00000596E-3,,,,,-271.99997567E-6,79.999998212E-3,
,,,-270.99999716E-6,400.00000596E-3,,,,,-270.99999716E-6,79.999998212E-3,
,,,-269.99998954E-6,400.00000596E-3,,,,,-269.99998954E-6,159.99999642E-3,
,,,-268.99998193E-6,400.00000596E-3,,,,,-268.99998193E-6,159.99999642E-3,
,,,-267.99997431E-6,400.00000596E-3,,,,,-267.99997431E-6,79.999998212E-3,
,,,-266.99999580E-6,400.00000596E-3,,,,,-266.99999580E-6,159.99999642E-3,
,,,-265.99998819E-6,400.00000596E-3,,,,,-265.99998819E-6,159.99999642E-3,
,,,-264.99998057E-6,400.00000596E-3,,,,,-264.99998057E-6,79.999998212E-3,
,,,-263.99997296E-6,400.00000596E-3,,,,,-263.99997296E-6,159.99999642E-3,
,,,-262.99999445E-6,400.00000596E-3,,,,,-262.99999445E-6,79.999998212E-3,
,,,-261.99998683E-6,400.00000596E-3,,,,,-261.99998683E-6,159.99999642E-3,
,,,-260.99997922E-6,408.000022173E-3,,,,,-260.99997922E-6,159.99999642E-3,
,,,-259.99997160E-6,408.000022173E-3,,,,,-259.99997160E-6,159.99999642E-3,
,,,-258.99999309E-6,408.000022173E-3,,,,,-258.99999309E-6,79.999998212E-3,
,,,-257.99998548E-6,408.000022173E-3,,,,,-257.99998548E-6,79.999998212E-3,
,,,-256.99997786E-6,408.000022173E-3,,,,,-256.99997786E-6,159.99999642E-3,
,,,-255.99997025E-6,408.000022173E-3,,,,,-255.99997025E-6,79.999998212E-3,
,,,-254.99999174E-6,408.000022173E-3,,,,,-254.99999174E-6,79.999998212E-3,
,,,-253.99998412E-6,408.000022173E-3,,,,,-253.99998412E-6,79.999998212E-3,
,,,-252.99997651E-6,408.000022173E-3,,,,,-252.99997651E-6,79.999998212E-3,
,,,-251.99999800E-6,408.000022173E-3,,,,,-251.99999800E-6,79.999998212E-3,
,,,-250.99999039E-6,408.000022173E-3,,,,,-250.99999039E-6,79.999998212E-3,
,,,-249.99998277E-6,408.000022173E-3,,,,,-249.99998277E-6,79.999998212E-3,
,,,-248.99997516E-6,408.000022173E-3,,,,,-248.99997516E-6,79.999998212E-3,
,,,-247.99999665E-6,408.000022173E-3,,,,,-247.99999665E-6,79.999998212E-3,
,,,-246.99998903E-6,408.000022173E-3,,,,,-246.99998903E-6,79.999998212E-3,
,,,-245.99998142E-6,408.000022173E-3,,,,,-245.99998142E-6,79.999998212E-3,
,,,-244.99997380E-6,408.000022173E-3,,,,,-244.99997380E-6,0.0,
,,,-243.99998074E-6,408.000022173E-3,,,,,-243.99998074E-6,79.999998212E-3,
,,,-242.99998768E-6,408.000022173E-3,,,,,-242.99998768E-6,79.999998212E-3,
,,,-241.99998006E-6,408.000022173E-3,,,,,-241.99998006E-6,79.999998212E-3,
,,,-240.99998700E-6,408.000022173E-3,,,,,-240.99998700E-6,0.0,
,,,-239.99997939E-6,408.000022173E-3,,,,,-239.99997939E-6,79.999998212E-3,
