Data Piezo Calibration/20cm/2018-2-13-13.36-1047Hz-48V-OC20cm.csv

Record Length,2500,Points,-704.000005499E-6,912.000060081E-3,,Record Length,2500,Points,-704.000005499E-6,79.999998212E-3,
Sample Interval,400.00000467E-9,s,-703.600002453E-6,904.000043869E-3,,Sample Interval,400.00000467E-9,s,-703.600002453E-6,0.0,
Trigger Point,1.7600001E3,Samples,-703.199999407E-6,912.000060081E-3,,Trigger Point,1.7600001E3,Samples,-703.199999407E-6,79.999998212E-3,
,,,-702.799996361E-6,904.000043869E-3,,,,,-702.799996361E-6,79.999998212E-3,
,,,-702.399993315E-6,912.000060081E-3,,,,,-702.399993315E-6,0.0,
,,,-701.999990270E-6,912.000060081E-3,,,,,-701.999990270E-6,79.999998212E-3,
Source,CH1,,-701.599987224E-6,920.000016689E-3,,Source,CH2,,-701.599987224E-6,-79.999998212E-3,
Vertical Units,Volts,,-701.199984178E-6,912.000060081E-3,,Vertical Units,Volts,,-701.199984178E-6,79.999998212E-3,
Vertical Scale,200.00000950E-3,,-700.799981132E-6,912.000060081E-3,,Vertical Scale,2.0000000,,-700.799981132E-6,0.0,
Vertical Offset,0,,-700.399978086E-6,904.000043869E-3,,Vertical Offset,0,,-700.399978086E-6,0.0,
Horizontal Units,s,,-700.000033248E-6,912.000060081E-3,,Horizontal Units,s,,-700.000033248E-6,79.999998212E-3,
Horizontal Scale,100.0000012E-6,,-699.600030202E-6,912.000060081E-3,,Horizontal Scale,100.0000012E-6,,-699.600030202E-6,79.999998212E-3,
Pt Fmt,Y,,-699.200027157E-6,904.000043869E-3,,Pt Fmt,Y,,-699.200027157E-6,0.0,
Yzero,-2.0000000,,-698.800024111E-6,896.000027657E-3,,Yzero,-1.6800000,,-698.800024111E-6,79.999998212E-3,
Probe Atten,1.000000,,-698.400021065E-6,920.000016689E-3,,Probe Atten,1.000000,,-698.400021065E-6,79.999998212E-3,
,,,-698.000018019E-6,896.000027657E-3,,,,,-698.000018019E-6,79.999998212E-3,
Note,TDS 1002B - 1:37:42 PM   2/13/2018,,-697.600014973E-6,896.000027657E-3,,Note,TDS 1002B - 1:37:42 PM   2/13/2018,,-697.600014973E-6,0.0,
,,,-697.200011928E-6,896.000027657E-3,,,,,-697.200011928E-6,0.0,
,,,-696.800008882E-6,912.000060081E-3,,,,,-696.800008882E-6,0.0,
,,,-696.400005836E-6,896.000027657E-3,,,,,-696.400005836E-6,0.0,
,,,-696.000002790E-6,904.000043869E-3,,,,,-696.000002790E-6,0.0,
,,,-695.599999744E-6,896.000027657E-3,,,,,-695.599999744E-6,79.999998212E-3,
,,,-695.199996699E-6,904.000043869E-3,,,,,-695.199996699E-6,0.0,
,,,-694.799993653E-6,880.000054836E-3,,,,,-694.799993653E-6,79.999998212E-3,
,,,-694.399990607E-6,904.000043869E-3,,,,,-694.399990607E-6,0.0,
,,,-693.999987561E-6,904.000043869E-3,,,,,-693.999987561E-6,79.999998212E-3,
,,,-693.599984515E-6,904.000043869E-3,,,,,-693.599984515E-6,159.99999642E-3,
,,,-693.199981470E-6,888.000071049E-3,,,,,-693.199981470E-6,0.0,
,,,-692.799978424E-6,880.000054836E-3,,,,,-692.799978424E-6,79.999998212E-3,
,,,-692.400033586E-6,896.000027657E-3,,,,,-692.400033586E-6,0.0,
,,,-692.000030540E-6,896.000027657E-3,,,,,-692.000030540E-6,79.999998212E-3,
,,,-691.600027494E-6,888.000071049E-3,,,,,-691.600027494E-6,79.999998212E-3,
,,,-691.200024448E-6,888.000071049E-3,,,,,-691.200024448E-6,0.0,
,,,-690.800021403E-6,888.000071049E-3,,,,,-690.800021403E-6,159.99999642E-3,
,,,-690.400018357E-6,888.000071049E-3,,,,,-690.400018357E-6,0.0,
,,,-690.000015311E-6,888.000071049E-3,,,,,-690.000015311E-6,159.99999642E-3,
,,,-689.600012265E-6,872.000038624E-3,,,,,-689.600012265E-6,79.999998212E-3,
,,,-689.200009219E-6,872.000038624E-3,,,,,-689.200009219E-6,79.999998212E-3,
,,,-688.800006174E-6,888.000071049E-3,,,,,-688.800006174E-6,0.0,
,,,-688.400003128E-6,888.000071049E-3,,,,,-688.400003128E-6,159.99999642E-3,
,,,-688.000000082E-6,880.000054836E-3,,,,,-688.000000082E-6,79.999998212E-3,
,,,-687.599997036E-6,888.000071049E-3,,,,,-687.599997036E-6,79.999998212E-3,
,,,-687.199993990E-6,872.000038624E-3,,,,,-687.199993990E-6,159.99999642E-3,
,,,-686.799990945E-6,888.000071049E-3,,,,,-686.799990945E-6,239.99999464E-3,
,,,-686.399987899E-6,872.000038624E-3,,,,,-686.399987899E-6,239.99999464E-3,
,,,-685.999984853E-6,872.000038624E-3,,,,,-685.999984853E-6,319.99999285E-3,
,,,-685.599981807E-6,872.000038624E-3,,,,,-685.599981807E-6,399.99997616E-3,
,,,-685.199978761E-6,872.000038624E-3,,,,,-685.199978761E-6,560.000002384E-3,
,,,-684.800033923E-6,864.000022411E-3,,,,,-684.800033923E-6,1.0400000,
,,,-684.400030877E-6,880.000054836E-3,,,,,-684.400030877E-6,1.7600000,
,,,-684.000027832E-6,872.000038624E-3,,,,,-684.000027832E-6,2.79999995,
,,,-683.600024786E-6,864.000022411E-3,,,,,-683.600024786E-6,3.03999996,
,,,-683.200021740E-6,856.000065804E-3,,,,,-683.200021740E-6,1.8399999,
,,,-682.800018694E-6,864.000022411E-3,,,,,-682.800018694E-6,1.2800000,
,,,-682.400015648E-6,864.000022411E-3,,,,,-682.400015648E-6,799.999952316E-3,
,,,-682.000012603E-6,864.000022411E-3,,,,,-682.000012603E-6,639.999985695E-3,
,,,-681.600009557E-6,856.000065804E-3,,,,,-681.600009557E-6,560.000002384E-3,
,,,-681.200006511E-6,864.000022411E-3,,,,,-681.200006511E-6,399.99997616E-3,
,,,-680.800003465E-6,864.000022411E-3,,,,,-680.800003465E-6,399.99997616E-3,
,,,-680.400000419E-6,864.000022411E-3,,,,,-680.400000419E-6,319.99999285E-3,
,,,-679.999997374E-6,864.000022411E-3,,,,,-679.999997374E-6,159.99999642E-3,
,,,-679.599994328E-6,864.000022411E-3,,,,,-679.599994328E-6,239.99999464E-3,
,,,-679.199991282E-6,864.000022411E-3,,,,,-679.199991282E-6,319.99999285E-3,
,,,-678.799988236E-6,856.000065804E-3,,,,,-678.799988236E-6,159.99999642E-3,
,,,-678.399985190E-6,864.000022411E-3,,,,,-678.399985190E-6,159.99999642E-3,
,,,-677.999982145E-6,856.000065804E-3,,,,,-677.999982145E-6,159.99999642E-3,
,,,-677.599979099E-6,856.000065804E-3,,,,,-677.599979099E-6,239.99999464E-3,
,,,-677.200034261E-6,856.000065804E-3,,,,,-677.200034261E-6,159.99999642E-3,
,,,-676.800031215E-6,856.000065804E-3,,,,,-676.800031215E-6,159.99999642E-3,
,,,-676.400028169E-6,840.000033379E-3,,,,,-676.400028169E-6,239.99999464E-3,
,,,-676.000025123E-6,856.000065804E-3,,,,,-676.000025123E-6,239.99999464E-3,
,,,-675.600022078E-6,848.000049591E-3,,,,,-675.600022078E-6,399.99997616E-3,
,,,-675.200019032E-6,856.000065804E-3,,,,,-675.200019032E-6,560.000002384E-3,
,,,-674.800015986E-6,848.000049591E-3,,,,,-674.800015986E-6,1.0400000,
,,,-674.400012940E-6,848.000049591E-3,,,,,-674.400012940E-6,1.5200000,
,,,-674.000009894E-6,840.000033379E-3,,,,,-674.000009894E-6,2.4800000,
,,,-673.600006849E-6,848.000049591E-3,,,,,-673.600006849E-6,2.87999988,
,,,-673.200003803E-6,840.000033379E-3,,,,,-673.200003803E-6,1.6799999,
,,,-672.800000757E-6,848.000049591E-3,,,,,-672.800000757E-6,1.1200000,
,,,-672.399997711E-6,848.000049591E-3,,,,,-672.399997711E-6,719.999969006E-3,
,,,-671.999994665E-6,840.000033379E-3,,,,,-671.999994665E-6,560.000002384E-3,
,,,-671.599991620E-6,840.000033379E-3,,,,,-671.599991620E-6,479.999989271E-3,
,,,-671.199988574E-6,848.000049591E-3,,,,,-671.199988574E-6,399.99997616E-3,
,,,-670.799985528E-6,840.000033379E-3,,,,,-670.799985528E-6,399.99997616E-3,
,,,-670.399982482E-6,856.000065804E-3,,,,,-670.399982482E-6,479.999989271E-3,
,,,-669.999979436E-6,832.000017166E-3,,,,,-669.999979436E-6,560.000002384E-3,
,,,-669.599976391E-6,840.000033379E-3,,,,,-669.599976391E-6,639.999985695E-3,
,,,-669.200031552E-6,832.000017166E-3,,,,,-669.200031552E-6,799.999952316E-3,
,,,-668.800028507E-6,832.000017166E-3,,,,,-668.800028507E-6,799.999952316E-3,
,,,-668.400025461E-6,824.000060558E-3,,,,,-668.400025461E-6,560.000002384E-3,
,,,-668.000022415E-6,824.000060558E-3,,,,,-668.000022415E-6,560.000002384E-3,
,,,-667.600019369E-6,832.000017166E-3,,,,,-667.600019369E-6,479.999989271E-3,
,,,-667.200016323E-6,832.000017166E-3,,,,,-667.200016323E-6,479.999989271E-3,
,,,-666.800013278E-6,832.000017166E-3,,,,,-666.800013278E-6,319.99999285E-3,
,,,-666.400010232E-6,840.000033379E-3,,,,,-666.400010232E-6,79.999998212E-3,
,,,-666.000007186E-6,816.000044346E-3,,,,,-666.000007186E-6,159.99999642E-3,
,,,-665.600004140E-6,816.000044346E-3,,,,,-665.600004140E-6,159.99999642E-3,
,,,-665.200001094E-6,824.000060558E-3,,,,,-665.200001094E-6,79.999998212E-3,
,,,-664.799998049E-6,824.000060558E-3,,,,,-664.799998049E-6,159.99999642E-3,
,,,-664.399995003E-6,824.000060558E-3,,,,,-664.399995003E-6,79.999998212E-3,
,,,-663.999991957E-6,824.000060558E-3,,,,,-663.999991957E-6,79.999998212E-3,
,,,-663.599988911E-6,824.000060558E-3,,,,,-663.599988911E-6,0.0,
,,,-663.199985866E-6,816.000044346E-3,,,,,-663.199985866E-6,79.999998212E-3,
,,,-662.799982820E-6,816.000044346E-3,,,,,-662.799982820E-6,0.0,
,,,-662.399979774E-6,816.000044346E-3,,,,,-662.399979774E-6,0.0,
,,,-661.999976728E-6,816.000044346E-3,,,,,-661.999976728E-6,0.0,
,,,-661.600031890E-6,816.000044346E-3,,,,,-661.600031890E-6,0.0,
,,,-661.200028844E-6,824.000060558E-3,,,,,-661.200028844E-6,79.999998212E-3,
,,,-660.800025798E-6,816.000044346E-3,,,,,-660.800025798E-6,79.999998212E-3,
,,,-660.400022753E-6,816.000044346E-3,,,,,-660.400022753E-6,0.0,
,,,-660.000019707E-6,808.000028133E-3,,,,,-660.000019707E-6,79.999998212E-3,
,,,-659.600016661E-6,808.000028133E-3,,,,,-659.600016661E-6,0.0,
,,,-659.200013615E-6,816.000044346E-3,,,,,-659.200013615E-6,0.0,
,,,-658.800010569E-6,808.000028133E-3,,,,,-658.800010569E-6,79.999998212E-3,
,,,-658.400007524E-6,808.000028133E-3,,,,,-658.400007524E-6,159.99999642E-3,
,,,-658.000004478E-6,808.000028133E-3,,,,,-658.000004478E-6,79.999998212E-3,
,,,-657.600001432E-6,808.000028133E-3,,,,,-657.600001432E-6,79.999998212E-3,
,,,-657.199998386E-6,824.000060558E-3,,,,,-657.199998386E-6,159.99999642E-3,
,,,-656.799995340E-6,800.000011921E-3,,,,,-656.799995340E-6,319.99999285E-3,
,,,-656.399992295E-6,808.000028133E-3,,,,,-656.399992295E-6,399.99997616E-3,
,,,-655.999989249E-6,808.000028133E-3,,,,,-655.999989249E-6,399.99997616E-3,
,,,-655.599986203E-6,800.000011921E-3,,,,,-655.599986203E-6,479.999989271E-3,
,,,-655.199983157E-6,800.000011921E-3,,,,,-655.199983157E-6,319.99999285E-3,
,,,-654.799980111E-6,800.000011921E-3,,,,,-654.799980111E-6,159.99999642E-3,
,,,-654.399977066E-6,808.000028133E-3,,,,,-654.399977066E-6,239.99999464E-3,
,,,-654.000032227E-6,800.000011921E-3,,,,,-654.000032227E-6,159.99999642E-3,
,,,-653.600029182E-6,800.000011921E-3,,,,,-653.600029182E-6,159.99999642E-3,
,,,-653.200026136E-6,792.000055313E-3,,,,,-653.200026136E-6,159.99999642E-3,
,,,-652.800023090E-6,792.000055313E-3,,,,,-652.800023090E-6,159.99999642E-3,
,,,-652.400020044E-6,800.000011921E-3,,,,,-652.400020044E-6,159.99999642E-3,
,,,-652.000016998E-6,800.000011921E-3,,,,,-652.000016998E-6,159.99999642E-3,
,,,-651.600013953E-6,784.000039101E-3,,,,,-651.600013953E-6,159.99999642E-3,
,,,-651.200010907E-6,792.000055313E-3,,,,,-651.200010907E-6,159.99999642E-3,
,,,-650.800007861E-6,792.000055313E-3,,,,,-650.800007861E-6,79.999998212E-3,
,,,-650.400004815E-6,800.000011921E-3,,,,,-650.400004815E-6,239.99999464E-3,
,,,-650.000001770E-6,784.000039101E-3,,,,,-650.000001770E-6,159.99999642E-3,
,,,-649.599998724E-6,784.000039101E-3,,,,,-649.599998724E-6,159.99999642E-3,
,,,-649.199995678E-6,792.000055313E-3,,,,,-649.199995678E-6,159.99999642E-3,
,,,-648.799992632E-6,792.000055313E-3,,,,,-648.799992632E-6,159.99999642E-3,
,,,-648.399989586E-6,784.000039101E-3,,,,,-648.399989586E-6,159.99999642E-3,
,,,-647.999986541E-6,784.000039101E-3,,,,,-647.999986541E-6,79.999998212E-3,
,,,-647.599983495E-6,784.000039101E-3,,,,,-647.599983495E-6,79.999998212E-3,
,,,-647.199980449E-6,792.000055313E-3,,,,,-647.199980449E-6,0.0,
,,,-646.799977403E-6,776.000022888E-3,,,,,-646.799977403E-6,-79.999998212E-3,
,,,-646.400032565E-6,776.000022888E-3,,,,,-646.400032565E-6,79.999998212E-3,
,,,-646.000029519E-6,784.000039101E-3,,,,,-646.000029519E-6,79.999998212E-3,
,,,-645.600026473E-6,776.000022888E-3,,,,,-645.600026473E-6,79.999998212E-3,
,,,-645.200023428E-6,768.000006676E-3,,,,,-645.200023428E-6,79.999998212E-3,
,,,-644.800020382E-6,784.000039101E-3,,,,,-644.800020382E-6,0.0,
,,,-644.400017336E-6,776.000022888E-3,,,,,-644.400017336E-6,79.999998212E-3,
,,,-644.000014290E-6,776.000022888E-3,,,,,-644.000014290E-6,0.0,
,,,-643.600011244E-6,760.000050068E-3,,,,,-643.600011244E-6,79.999998212E-3,
,,,-643.200008199E-6,768.000006676E-3,,,,,-643.200008199E-6,159.99999642E-3,
,,,-642.800005153E-6,768.000006676E-3,,,,,-642.800005153E-6,0.0,
,,,-642.400002107E-6,768.000006676E-3,,,,,-642.400002107E-6,0.0,
,,,-641.999999061E-6,768.000006676E-3,,,,,-641.999999061E-6,0.0,
,,,-641.599996015E-6,768.000006676E-3,,,,,-641.599996015E-6,79.999998212E-3,
,,,-641.199992970E-6,768.000006676E-3,,,,,-641.199992970E-6,0.0,
,,,-640.799989924E-6,776.000022888E-3,,,,,-640.799989924E-6,0.0,
,,,-640.399986878E-6,776.000022888E-3,,,,,-640.399986878E-6,-79.999998212E-3,
,,,-639.999983832E-6,760.000050068E-3,,,,,-639.999983832E-6,79.999998212E-3,
,,,-639.599980786E-6,760.000050068E-3,,,,,-639.599980786E-6,0.0,
,,,-639.199977741E-6,768.000006676E-3,,,,,-639.199977741E-6,79.999998212E-3,
,,,-638.800032903E-6,760.000050068E-3,,,,,-638.800032903E-6,-79.999998212E-3,
,,,-638.400029857E-6,760.000050068E-3,,,,,-638.400029857E-6,79.999998212E-3,
,,,-638.000026811E-6,752.000033855E-3,,,,,-638.000026811E-6,79.999998212E-3,
,,,-637.600023765E-6,768.000006676E-3,,,,,-637.600023765E-6,79.999998212E-3,
,,,-637.200020719E-6,760.000050068E-3,,,,,-637.200020719E-6,-79.999998212E-3,
,,,-636.800017674E-6,752.000033855E-3,,,,,-636.800017674E-6,0.0,
,,,-636.400014628E-6,760.000050068E-3,,,,,-636.400014628E-6,79.999998212E-3,
,,,-636.000011582E-6,752.000033855E-3,,,,,-636.000011582E-6,79.999998212E-3,
,,,-635.600008536E-6,760.000050068E-3,,,,,-635.600008536E-6,79.999998212E-3,
,,,-635.200005490E-6,752.000033855E-3,,,,,-635.200005490E-6,79.999998212E-3,
,,,-634.800002445E-6,760.000050068E-3,,,,,-634.800002445E-6,79.999998212E-3,
,,,-634.399999399E-6,752.000033855E-3,,,,,-634.399999399E-6,79.999998212E-3,
,,,-633.999996353E-6,760.000050068E-3,,,,,-633.999996353E-6,239.99999464E-3,
,,,-633.599993307E-6,744.000017643E-3,,,,,-633.599993307E-6,239.99999464E-3,
,,,-633.199990261E-6,752.000033855E-3,,,,,-633.199990261E-6,159.99999642E-3,
,,,-632.799987216E-6,744.000017643E-3,,,,,-632.799987216E-6,159.99999642E-3,
,,,-632.399984170E-6,752.000033855E-3,,,,,-632.399984170E-6,79.999998212E-3,
,,,-631.999981124E-6,744.000017643E-3,,,,,-631.999981124E-6,79.999998212E-3,
,,,-631.599978078E-6,752.000033855E-3,,,,,-631.599978078E-6,79.999998212E-3,
,,,-631.200033240E-6,744.000017643E-3,,,,,-631.200033240E-6,79.999998212E-3,
,,,-630.800030194E-6,760.000050068E-3,,,,,-630.800030194E-6,79.999998212E-3,
,,,-630.400027148E-6,736.000061035E-3,,,,,-630.400027148E-6,79.999998212E-3,
,,,-630.000024103E-6,744.000017643E-3,,,,,-630.000024103E-6,0.0,
,,,-629.600021057E-6,736.000061035E-3,,,,,-629.600021057E-6,79.999998212E-3,
,,,-629.200018011E-6,744.000017643E-3,,,,,-629.200018011E-6,79.999998212E-3,
,,,-628.800014965E-6,736.000061035E-3,,,,,-628.800014965E-6,159.99999642E-3,
,,,-628.400011919E-6,736.000061035E-3,,,,,-628.400011919E-6,79.999998212E-3,
,,,-628.000008874E-6,736.000061035E-3,,,,,-628.000008874E-6,0.0,
,,,-627.600005828E-6,736.000061035E-3,,,,,-627.600005828E-6,79.999998212E-3,
,,,-627.200002782E-6,736.000061035E-3,,,,,-627.200002782E-6,79.999998212E-3,
,,,-626.799999736E-6,728.000044823E-3,,,,,-626.799999736E-6,0.0,
,,,-626.399996690E-6,728.000044823E-3,,,,,-626.399996690E-6,0.0,
,,,-625.999993645E-6,736.000061035E-3,,,,,-625.999993645E-6,79.999998212E-3,
,,,-625.599990599E-6,728.000044823E-3,,,,,-625.599990599E-6,79.999998212E-3,
,,,-625.199987553E-6,728.000044823E-3,,,,,-625.199987553E-6,79.999998212E-3,
,,,-624.799984507E-6,736.000061035E-3,,,,,-624.799984507E-6,0.0,
,,,-624.399981461E-6,728.000044823E-3,,,,,-624.399981461E-6,0.0,
,,,-623.999978416E-6,728.000044823E-3,,,,,-623.999978416E-6,0.0,
,,,-623.600033578E-6,728.000044823E-3,,,,,-623.600033578E-6,79.999998212E-3,
,,,-623.200030532E-6,728.000044823E-3,,,,,-623.200030532E-6,79.999998212E-3,
,,,-622.800027486E-6,728.000044823E-3,,,,,-622.800027486E-6,0.0,
,,,-622.400024440E-6,736.000061035E-3,,,,,-622.400024440E-6,0.0,
,,,-622.000021394E-6,720.000028610E-3,,,,,-622.000021394E-6,79.999998212E-3,
,,,-621.600018349E-6,720.000028610E-3,,,,,-621.600018349E-6,0.0,
,,,-621.200015303E-6,720.000028610E-3,,,,,-621.200015303E-6,79.999998212E-3,
,,,-620.800012257E-6,728.000044823E-3,,,,,-620.800012257E-6,79.999998212E-3,
,,,-620.400009211E-6,704.000055790E-3,,,,,-620.400009211E-6,159.99999642E-3,
,,,-620.000006165E-6,712.000012398E-3,,,,,-620.000006165E-6,0.0,
,,,-619.600003120E-6,720.000028610E-3,,,,,-619.600003120E-6,159.99999642E-3,
,,,-619.200000074E-6,720.000028610E-3,,,,,-619.200000074E-6,159.99999642E-3,
,,,-618.799997028E-6,720.000028610E-3,,,,,-618.799997028E-6,159.99999642E-3,
,,,-618.399993982E-6,720.000028610E-3,,,,,-618.399993982E-6,159.99999642E-3,
,,,-617.999990936E-6,720.000028610E-3,,,,,-617.999990936E-6,79.999998212E-3,
,,,-617.599987891E-6,720.000028610E-3,,,,,-617.599987891E-6,159.99999642E-3,
,,,-617.199984845E-6,712.000012398E-3,,,,,-617.199984845E-6,159.99999642E-3,
,,,-616.799981799E-6,712.000012398E-3,,,,,-616.799981799E-6,159.99999642E-3,
,,,-616.399978753E-6,704.000055790E-3,,,,,-616.399978753E-6,79.999998212E-3,
,,,-615.999975707E-6,720.000028610E-3,,,,,-615.999975707E-6,79.999998212E-3,
,,,-615.600030869E-6,704.000055790E-3,,,,,-615.600030869E-6,159.99999642E-3,
,,,-615.200027823E-6,720.000028610E-3,,,,,-615.200027823E-6,159.99999642E-3,
,,,-614.800024778E-6,704.000055790E-3,,,,,-614.800024778E-6,159.99999642E-3,
,,,-614.400021732E-6,704.000055790E-3,,,,,-614.400021732E-6,159.99999642E-3,
,,,-614.000018686E-6,704.000055790E-3,,,,,-614.000018686E-6,239.99999464E-3,
,,,-613.600015640E-6,712.000012398E-3,,,,,-613.600015640E-6,159.99999642E-3,
,,,-613.200012594E-6,712.000012398E-3,,,,,-613.200012594E-6,79.999998212E-3,
,,,-612.800009549E-6,712.000012398E-3,,,,,-612.800009549E-6,79.999998212E-3,
,,,-612.400006503E-6,696.000039577E-3,,,,,-612.400006503E-6,79.999998212E-3,
,,,-612.000003457E-6,704.000055790E-3,,,,,-612.000003457E-6,79.999998212E-3,
,,,-611.600000411E-6,696.000039577E-3,,,,,-611.600000411E-6,79.999998212E-3,
,,,-611.199997365E-6,704.000055790E-3,,,,,-611.199997365E-6,0.0,
,,,-610.799994320E-6,696.000039577E-3,,,,,-610.799994320E-6,79.999998212E-3,
,,,-610.399991274E-6,688.000023365E-3,,,,,-610.399991274E-6,0.0,
,,,-609.999988228E-6,696.000039577E-3,,,,,-609.999988228E-6,159.99999642E-3,
,,,-609.599985182E-6,688.000023365E-3,,,,,-609.599985182E-6,159.99999642E-3,
,,,-609.199982136E-6,704.000055790E-3,,,,,-609.199982136E-6,79.999998212E-3,
,,,-608.799979091E-6,696.000039577E-3,,,,,-608.799979091E-6,79.999998212E-3,
,,,-608.399976045E-6,696.000039577E-3,,,,,-608.399976045E-6,0.0,
,,,-608.000031207E-6,688.000023365E-3,,,,,-608.000031207E-6,79.999998212E-3,
,,,-607.600028161E-6,696.000039577E-3,,,,,-607.600028161E-6,79.999998212E-3,
,,,-607.200025115E-6,688.000023365E-3,,,,,-607.200025115E-6,79.999998212E-3,
,,,-606.800022069E-6,696.000039577E-3,,,,,-606.800022069E-6,79.999998212E-3,
,,,-606.400019024E-6,688.000023365E-3,,,,,-606.400019024E-6,79.999998212E-3,
,,,-606.000015978E-6,680.000007153E-3,,,,,-606.000015978E-6,79.999998212E-3,
,,,-605.600012932E-6,680.000007153E-3,,,,,-605.600012932E-6,79.999998212E-3,
,,,-605.200009886E-6,688.000023365E-3,,,,,-605.200009886E-6,79.999998212E-3,
,,,-604.800006840E-6,688.000023365E-3,,,,,-604.800006840E-6,79.999998212E-3,
,,,-604.400003795E-6,680.000007153E-3,,,,,-604.400003795E-6,159.99999642E-3,
,,,-604.000000749E-6,680.000007153E-3,,,,,-604.000000749E-6,79.999998212E-3,
,,,-603.599997703E-6,688.000023365E-3,,,,,-603.599997703E-6,79.999998212E-3,
,,,-603.199994657E-6,680.000007153E-3,,,,,-603.199994657E-6,0.0,
,,,-602.799991611E-6,688.000023365E-3,,,,,-602.799991611E-6,159.99999642E-3,
,,,-602.399988566E-6,680.000007153E-3,,,,,-602.399988566E-6,79.999998212E-3,
,,,-601.999985520E-6,680.000007153E-3,,,,,-601.999985520E-6,79.999998212E-3,
,,,-601.599982474E-6,688.000023365E-3,,,,,-601.599982474E-6,159.99999642E-3,
,,,-601.199979428E-6,680.000007153E-3,,,,,-601.199979428E-6,159.99999642E-3,
,,,-600.799976382E-6,680.000007153E-3,,,,,-600.799976382E-6,79.999998212E-3,
,,,-600.400031544E-6,664.000034332E-3,,,,,-600.400031544E-6,79.999998212E-3,
