Data Piezo Calibration/20cm/2018-2-13-13.36-228.8Hz-48V-OC20cm.csv

Record Length,2500,Points,-3.46000027E-3,784.000039101E-3,,Record Length,2500,Points,-3.46000027E-3,79.999998212E-3,
Sample Interval,2.0000000E-6,s,-3.45800025E-3,792.000055313E-3,,Sample Interval,2.0000000E-6,s,-3.45800025E-3,79.999998212E-3,
Trigger Point,1.7300002E3,Samples,-3.45600024E-3,792.000055313E-3,,Trigger Point,1.7300002E3,Samples,-3.45600024E-3,79.999998212E-3,
,,,-3.45400022E-3,792.000055313E-3,,,,,-3.45400022E-3,79.999998212E-3,
,,,-3.45200021E-3,792.000055313E-3,,,,,-3.45200021E-3,79.999998212E-3,
,,,-3.45000019E-3,792.000055313E-3,,,,,-3.45000019E-3,79.999998212E-3,
Source,CH1,,-3.44800018E-3,792.000055313E-3,,Source,CH2,,-3.44800018E-3,0.0,
Vertical Units,Volts,,-3.44600016E-3,792.000055313E-3,,Vertical Units,Volts,,-3.44600016E-3,0.0,
Vertical Scale,200.00000950E-3,,-3.44400038E-3,792.000055313E-3,,Vertical Scale,2.0000000,,-3.44400038E-3,0.0,
Vertical Offset,0,,-3.44200036E-3,800.000011921E-3,,Vertical Offset,0,,-3.44200036E-3,0.0,
Horizontal Units,s,,-3.44000035E-3,800.000011921E-3,,Horizontal Units,s,,-3.44000035E-3,79.999998212E-3,
Horizontal Scale,499.999998738E-6,,-3.43800033E-3,800.000011921E-3,,Horizontal Scale,499.999998738E-6,,-3.43800033E-3,79.999998212E-3,
Pt Fmt,Y,,-3.43600032E-3,800.000011921E-3,,Pt Fmt,Y,,-3.43600032E-3,159.99999642E-3,
Yzero,-2.0000000,,-3.43400030E-3,800.000011921E-3,,Yzero,-1.6800000,,-3.43400030E-3,239.99999464E-3,
Probe Atten,1.000000,,-3.43200029E-3,808.000028133E-3,,Probe Atten,1.000000,,-3.43200029E-3,399.99997616E-3,
,,,-3.43000027E-3,808.000028133E-3,,,,,-3.43000027E-3,1.0400000,
Note,TDS 1002B - 1:36:27 PM   2/13/2018,,-3.42800026E-3,808.000028133E-3,,Note,TDS 1002B - 1:36:27 PM   2/13/2018,,-3.42800026E-3,959.999978542E-3,
,,,-3.42600024E-3,808.000028133E-3,,,,,-3.42600024E-3,719.999969006E-3,
,,,-3.42400023E-3,808.000028133E-3,,,,,-3.42400023E-3,479.999989271E-3,
,,,-3.42200021E-3,808.000028133E-3,,,,,-3.42200021E-3,239.99999464E-3,
,,,-3.42000020E-3,808.000028133E-3,,,,,-3.42000020E-3,239.99999464E-3,
,,,-3.41800018E-3,808.000028133E-3,,,,,-3.41800018E-3,79.999998212E-3,
,,,-3.41600017E-3,808.000028133E-3,,,,,-3.41600017E-3,79.999998212E-3,
,,,-3.41400038E-3,816.000044346E-3,,,,,-3.41400038E-3,79.999998212E-3,
,,,-3.41200037E-3,808.000028133E-3,,,,,-3.41200037E-3,0.0,
,,,-3.41000035E-3,816.000044346E-3,,,,,-3.41000035E-3,79.999998212E-3,
,,,-3.40800034E-3,816.000044346E-3,,,,,-3.40800034E-3,0.0,
,,,-3.40600032E-3,816.000044346E-3,,,,,-3.40600032E-3,0.0,
,,,-3.40400031E-3,816.000044346E-3,,,,,-3.40400031E-3,0.0,
,,,-3.40200029E-3,824.000060558E-3,,,,,-3.40200029E-3,0.0,
,,,-3.40000028E-3,816.000044346E-3,,,,,-3.40000028E-3,0.0,
,,,-3.39800026E-3,824.000060558E-3,,,,,-3.39800026E-3,0.0,
,,,-3.39600025E-3,824.000060558E-3,,,,,-3.39600025E-3,0.0,
,,,-3.39400023E-3,824.000060558E-3,,,,,-3.39400023E-3,79.999998212E-3,
,,,-3.39200022E-3,824.000060558E-3,,,,,-3.39200022E-3,79.999998212E-3,
,,,-3.39000020E-3,824.000060558E-3,,,,,-3.39000020E-3,159.99999642E-3,
,,,-3.38800019E-3,824.000060558E-3,,,,,-3.38800019E-3,239.99999464E-3,
,,,-3.38600017E-3,832.000017166E-3,,,,,-3.38600017E-3,399.99997616E-3,
,,,-3.38400016E-3,832.000017166E-3,,,,,-3.38400016E-3,479.999989271E-3,
,,,-3.38200037E-3,832.000017166E-3,,,,,-3.38200037E-3,479.999989271E-3,
,,,-3.38000036E-3,832.000017166E-3,,,,,-3.38000036E-3,319.99999285E-3,
,,,-3.37800034E-3,832.000017166E-3,,,,,-3.37800034E-3,239.99999464E-3,
,,,-3.37600033E-3,832.000017166E-3,,,,,-3.37600033E-3,159.99999642E-3,
,,,-3.37400031E-3,832.000017166E-3,,,,,-3.37400031E-3,79.999998212E-3,
,,,-3.37200030E-3,832.000017166E-3,,,,,-3.37200030E-3,0.0,
,,,-3.37000028E-3,832.000017166E-3,,,,,-3.37000028E-3,0.0,
,,,-3.36800027E-3,840.000033379E-3,,,,,-3.36800027E-3,0.0,
,,,-3.36600025E-3,840.000033379E-3,,,,,-3.36600025E-3,79.999998212E-3,
,,,-3.36400024E-3,840.000033379E-3,,,,,-3.36400024E-3,0.0,
,,,-3.36200022E-3,840.000033379E-3,,,,,-3.36200022E-3,0.0,
,,,-3.36000021E-3,840.000033379E-3,,,,,-3.36000021E-3,0.0,
,,,-3.35800019E-3,840.000033379E-3,,,,,-3.35800019E-3,0.0,
,,,-3.35600018E-3,840.000033379E-3,,,,,-3.35600018E-3,0.0,
,,,-3.35400016E-3,848.000049591E-3,,,,,-3.35400016E-3,79.999998212E-3,
,,,-3.35200038E-3,848.000049591E-3,,,,,-3.35200038E-3,79.999998212E-3,
,,,-3.35000036E-3,848.000049591E-3,,,,,-3.35000036E-3,159.99999642E-3,
,,,-3.34800035E-3,848.000049591E-3,,,,,-3.34800035E-3,239.99999464E-3,
,,,-3.34600033E-3,848.000049591E-3,,,,,-3.34600033E-3,399.99997616E-3,
,,,-3.34400032E-3,848.000049591E-3,,,,,-3.34400032E-3,239.99999464E-3,
,,,-3.34200030E-3,848.000049591E-3,,,,,-3.34200030E-3,159.99999642E-3,
,,,-3.34000029E-3,848.000049591E-3,,,,,-3.34000029E-3,79.999998212E-3,
,,,-3.33800027E-3,848.000049591E-3,,,,,-3.33800027E-3,79.999998212E-3,
,,,-3.33600026E-3,856.000065804E-3,,,,,-3.33600026E-3,79.999998212E-3,
,,,-3.33400024E-3,856.000065804E-3,,,,,-3.33400024E-3,0.0,
,,,-3.33200023E-3,856.000065804E-3,,,,,-3.33200023E-3,-79.999998212E-3,
,,,-3.33000021E-3,848.000049591E-3,,,,,-3.33000021E-3,0.0,
,,,-3.32800020E-3,856.000065804E-3,,,,,-3.32800020E-3,0.0,
,,,-3.32600018E-3,856.000065804E-3,,,,,-3.32600018E-3,0.0,
,,,-3.32400016E-3,864.000022411E-3,,,,,-3.32400016E-3,0.0,
,,,-3.32200038E-3,864.000022411E-3,,,,,-3.32200038E-3,0.0,
,,,-3.32000037E-3,864.000022411E-3,,,,,-3.32000037E-3,0.0,
,,,-3.31800035E-3,864.000022411E-3,,,,,-3.31800035E-3,0.0,
,,,-3.31600034E-3,864.000022411E-3,,,,,-3.31600034E-3,0.0,
,,,-3.31400032E-3,864.000022411E-3,,,,,-3.31400032E-3,0.0,
,,,-3.31200031E-3,864.000022411E-3,,,,,-3.31200031E-3,0.0,
,,,-3.31000029E-3,864.000022411E-3,,,,,-3.31000029E-3,0.0,
,,,-3.30800028E-3,864.000022411E-3,,,,,-3.30800028E-3,79.999998212E-3,
,,,-3.30600026E-3,864.000022411E-3,,,,,-3.30600026E-3,0.0,
,,,-3.30400025E-3,872.000038624E-3,,,,,-3.30400025E-3,0.0,
,,,-3.30200023E-3,872.000038624E-3,,,,,-3.30200023E-3,0.0,
,,,-3.30000021E-3,872.000038624E-3,,,,,-3.30000021E-3,-79.999998212E-3,
,,,-3.29800020E-3,872.000038624E-3,,,,,-3.29800020E-3,0.0,
,,,-3.29600018E-3,880.000054836E-3,,,,,-3.29600018E-3,0.0,
,,,-3.29400017E-3,872.000038624E-3,,,,,-3.29400017E-3,-79.999998212E-3,
,,,-3.29200015E-3,880.000054836E-3,,,,,-3.29200015E-3,-79.999998212E-3,
,,,-3.29000037E-3,880.000054836E-3,,,,,-3.29000037E-3,0.0,
,,,-3.28800036E-3,880.000054836E-3,,,,,-3.28800036E-3,0.0,
,,,-3.28600034E-3,880.000054836E-3,,,,,-3.28600034E-3,0.0,
,,,-3.28400033E-3,880.000054836E-3,,,,,-3.28400033E-3,0.0,
,,,-3.28200031E-3,880.000054836E-3,,,,,-3.28200031E-3,-79.999998212E-3,
,,,-3.28000030E-3,880.000054836E-3,,,,,-3.28000030E-3,0.0,
,,,-3.27800028E-3,888.000071049E-3,,,,,-3.27800028E-3,0.0,
,,,-3.27600027E-3,888.000071049E-3,,,,,-3.27600027E-3,0.0,
,,,-3.27400025E-3,888.000071049E-3,,,,,-3.27400025E-3,0.0,
,,,-3.27200023E-3,888.000071049E-3,,,,,-3.27200023E-3,79.999998212E-3,
,,,-3.27000022E-3,888.000071049E-3,,,,,-3.27000022E-3,-79.999998212E-3,
,,,-3.26800020E-3,888.000071049E-3,,,,,-3.26800020E-3,-79.999998212E-3,
,,,-3.26600019E-3,888.000071049E-3,,,,,-3.26600019E-3,0.0,
,,,-3.26400017E-3,888.000071049E-3,,,,,-3.26400017E-3,0.0,
,,,-3.26200016E-3,888.000071049E-3,,,,,-3.26200016E-3,0.0,
,,,-3.26000038E-3,888.000071049E-3,,,,,-3.26000038E-3,0.0,
,,,-3.25800036E-3,888.000071049E-3,,,,,-3.25800036E-3,0.0,
,,,-3.25600035E-3,888.000071049E-3,,,,,-3.25600035E-3,-79.999998212E-3,
,,,-3.25400033E-3,896.000027657E-3,,,,,-3.25400033E-3,0.0,
,,,-3.25200032E-3,888.000071049E-3,,,,,-3.25200032E-3,-79.999998212E-3,
,,,-3.25000030E-3,896.000027657E-3,,,,,-3.25000030E-3,0.0,
,,,-3.24800028E-3,896.000027657E-3,,,,,-3.24800028E-3,-79.999998212E-3,
,,,-3.24600027E-3,896.000027657E-3,,,,,-3.24600027E-3,-79.999998212E-3,
,,,-3.24400025E-3,904.000043869E-3,,,,,-3.24400025E-3,0.0,
,,,-3.24200024E-3,904.000043869E-3,,,,,-3.24200024E-3,0.0,
,,,-3.24000022E-3,896.000027657E-3,,,,,-3.24000022E-3,0.0,
,,,-3.23800021E-3,904.000043869E-3,,,,,-3.23800021E-3,0.0,
,,,-3.23600019E-3,904.000043869E-3,,,,,-3.23600019E-3,0.0,
,,,-3.23400018E-3,904.000043869E-3,,,,,-3.23400018E-3,0.0,
,,,-3.23200016E-3,904.000043869E-3,,,,,-3.23200016E-3,79.999998212E-3,
,,,-3.23000038E-3,904.000043869E-3,,,,,-3.23000038E-3,0.0,
,,,-3.22800037E-3,904.000043869E-3,,,,,-3.22800037E-3,0.0,
,,,-3.22600035E-3,904.000043869E-3,,,,,-3.22600035E-3,0.0,
,,,-3.22400033E-3,912.000060081E-3,,,,,-3.22400033E-3,0.0,
,,,-3.22200032E-3,904.000043869E-3,,,,,-3.22200032E-3,0.0,
,,,-3.22000030E-3,904.000043869E-3,,,,,-3.22000030E-3,0.0,
,,,-3.21800029E-3,904.000043869E-3,,,,,-3.21800029E-3,0.0,
,,,-3.21600027E-3,904.000043869E-3,,,,,-3.21600027E-3,0.0,
,,,-3.21400026E-3,904.000043869E-3,,,,,-3.21400026E-3,0.0,
,,,-3.21200024E-3,904.000043869E-3,,,,,-3.21200024E-3,-79.999998212E-3,
,,,-3.21000023E-3,896.000027657E-3,,,,,-3.21000023E-3,0.0,
,,,-3.20800021E-3,904.000043869E-3,,,,,-3.20800021E-3,0.0,
,,,-3.20600020E-3,904.000043869E-3,,,,,-3.20600020E-3,0.0,
,,,-3.20400018E-3,896.000027657E-3,,,,,-3.20400018E-3,0.0,
,,,-3.20200017E-3,904.000043869E-3,,,,,-3.20200017E-3,0.0,
,,,-3.20000038E-3,896.000027657E-3,,,,,-3.20000038E-3,79.999998212E-3,
,,,-3.19800037E-3,896.000027657E-3,,,,,-3.19800037E-3,0.0,
,,,-3.19600035E-3,896.000027657E-3,,,,,-3.19600035E-3,0.0,
,,,-3.19400034E-3,896.000027657E-3,,,,,-3.19400034E-3,0.0,
,,,-3.19200032E-3,896.000027657E-3,,,,,-3.19200032E-3,79.999998212E-3,
,,,-3.19000031E-3,888.000071049E-3,,,,,-3.19000031E-3,79.999998212E-3,
,,,-3.18800029E-3,896.000027657E-3,,,,,-3.18800029E-3,79.999998212E-3,
,,,-3.18600028E-3,888.000071049E-3,,,,,-3.18600028E-3,159.99999642E-3,
,,,-3.18400026E-3,888.000071049E-3,,,,,-3.18400026E-3,159.99999642E-3,
,,,-3.18200025E-3,888.000071049E-3,,,,,-3.18200025E-3,239.99999464E-3,
,,,-3.18000023E-3,888.000071049E-3,,,,,-3.18000023E-3,319.99999285E-3,
,,,-3.17800022E-3,888.000071049E-3,,,,,-3.17800022E-3,479.999989271E-3,
,,,-3.17600020E-3,888.000071049E-3,,,,,-3.17600020E-3,719.999969006E-3,
,,,-3.17400019E-3,888.000071049E-3,,,,,-3.17400019E-3,1.2800000,
,,,-3.17200017E-3,888.000071049E-3,,,,,-3.17200017E-3,2.3199999,
,,,-3.17000016E-3,880.000054836E-3,,,,,-3.17000016E-3,3.75999999,
,,,-3.16800037E-3,880.000054836E-3,,,,,-3.16800037E-3,3.43999982,
,,,-3.16600036E-3,888.000071049E-3,,,,,-3.16600036E-3,2.1599998,
,,,-3.16400034E-3,880.000054836E-3,,,,,-3.16400034E-3,1.5200000,
,,,-3.16200033E-3,880.000054836E-3,,,,,-3.16200033E-3,1.1999999,
,,,-3.16000031E-3,880.000054836E-3,,,,,-3.16000031E-3,1.0400000,
,,,-3.15800030E-3,880.000054836E-3,,,,,-3.15800030E-3,879.999995232E-3,
,,,-3.15600028E-3,880.000054836E-3,,,,,-3.15600028E-3,639.999985695E-3,
,,,-3.15400027E-3,880.000054836E-3,,,,,-3.15400027E-3,479.999989271E-3,
,,,-3.15200025E-3,872.000038624E-3,,,,,-3.15200025E-3,399.99997616E-3,
,,,-3.15000024E-3,872.000038624E-3,,,,,-3.15000024E-3,319.99999285E-3,
,,,-3.14800022E-3,872.000038624E-3,,,,,-3.14800022E-3,319.99999285E-3,
,,,-3.14600021E-3,872.000038624E-3,,,,,-3.14600021E-3,239.99999464E-3,
,,,-3.14400019E-3,872.000038624E-3,,,,,-3.14400019E-3,239.99999464E-3,
,,,-3.14200018E-3,872.000038624E-3,,,,,-3.14200018E-3,239.99999464E-3,
,,,-3.14000016E-3,872.000038624E-3,,,,,-3.14000016E-3,239.99999464E-3,
,,,-3.13800038E-3,864.000022411E-3,,,,,-3.13800038E-3,159.99999642E-3,
,,,-3.13600036E-3,864.000022411E-3,,,,,-3.13600036E-3,239.99999464E-3,
,,,-3.13400035E-3,864.000022411E-3,,,,,-3.13400035E-3,239.99999464E-3,
,,,-3.13200033E-3,864.000022411E-3,,,,,-3.13200033E-3,159.99999642E-3,
,,,-3.13000032E-3,864.000022411E-3,,,,,-3.13000032E-3,159.99999642E-3,
,,,-3.12800030E-3,864.000022411E-3,,,,,-3.12800030E-3,159.99999642E-3,
,,,-3.12600029E-3,864.000022411E-3,,,,,-3.12600029E-3,159.99999642E-3,
,,,-3.12400027E-3,864.000022411E-3,,,,,-3.12400027E-3,239.99999464E-3,
,,,-3.12200026E-3,864.000022411E-3,,,,,-3.12200026E-3,239.99999464E-3,
,,,-3.12000024E-3,856.000065804E-3,,,,,-3.12000024E-3,239.99999464E-3,
,,,-3.11800023E-3,856.000065804E-3,,,,,-3.11800023E-3,239.99999464E-3,
,,,-3.11600021E-3,856.000065804E-3,,,,,-3.11600021E-3,319.99999285E-3,
,,,-3.11400020E-3,856.000065804E-3,,,,,-3.11400020E-3,319.99999285E-3,
,,,-3.11200018E-3,856.000065804E-3,,,,,-3.11200018E-3,399.99997616E-3,
,,,-3.11000017E-3,856.000065804E-3,,,,,-3.11000017E-3,479.999989271E-3,
,,,-3.10800038E-3,848.000049591E-3,,,,,-3.10800038E-3,639.999985695E-3,
,,,-3.10600037E-3,848.000049591E-3,,,,,-3.10600037E-3,879.999995232E-3,
,,,-3.10400035E-3,848.000049591E-3,,,,,-3.10400035E-3,1.0400000,
,,,-3.10200034E-3,848.000049591E-3,,,,,-3.10200034E-3,1.2800000,
,,,-3.10000032E-3,848.000049591E-3,,,,,-3.10000032E-3,1.7600000,
,,,-3.09800031E-3,848.000049591E-3,,,,,-3.09800031E-3,2.6399999,
,,,-3.09600029E-3,848.000049591E-3,,,,,-3.09600029E-3,3.83999991,
,,,-3.09400028E-3,848.000049591E-3,,,,,-3.09400028E-3,3.75999999,
,,,-3.09200026E-3,848.000049591E-3,,,,,-3.09200026E-3,2.1599998,
,,,-3.09000025E-3,840.000033379E-3,,,,,-3.09000025E-3,1.2800000,
,,,-3.08800023E-3,840.000033379E-3,,,,,-3.08800023E-3,719.999969006E-3,
,,,-3.08600022E-3,840.000033379E-3,,,,,-3.08600022E-3,479.999989271E-3,
,,,-3.08400020E-3,840.000033379E-3,,,,,-3.08400020E-3,319.99999285E-3,
,,,-3.08200018E-3,840.000033379E-3,,,,,-3.08200018E-3,239.99999464E-3,
,,,-3.08000017E-3,840.000033379E-3,,,,,-3.08000017E-3,159.99999642E-3,
,,,-3.07800015E-3,832.000017166E-3,,,,,-3.07800015E-3,159.99999642E-3,
,,,-3.07600037E-3,832.000017166E-3,,,,,-3.07600037E-3,79.999998212E-3,
,,,-3.07400036E-3,832.000017166E-3,,,,,-3.07400036E-3,79.999998212E-3,
,,,-3.07200034E-3,832.000017166E-3,,,,,-3.07200034E-3,79.999998212E-3,
,,,-3.07000033E-3,832.000017166E-3,,,,,-3.07000033E-3,0.0,
,,,-3.06800031E-3,832.000017166E-3,,,,,-3.06800031E-3,0.0,
,,,-3.06600030E-3,832.000017166E-3,,,,,-3.06600030E-3,0.0,
,,,-3.06400028E-3,832.000017166E-3,,,,,-3.06400028E-3,0.0,
,,,-3.06200027E-3,832.000017166E-3,,,,,-3.06200027E-3,0.0,
,,,-3.06000025E-3,824.000060558E-3,,,,,-3.06000025E-3,0.0,
,,,-3.05800023E-3,832.000017166E-3,,,,,-3.05800023E-3,0.0,
,,,-3.05600022E-3,824.000060558E-3,,,,,-3.05600022E-3,0.0,
,,,-3.05400020E-3,824.000060558E-3,,,,,-3.05400020E-3,0.0,
,,,-3.05200019E-3,824.000060558E-3,,,,,-3.05200019E-3,0.0,
,,,-3.05000017E-3,824.000060558E-3,,,,,-3.05000017E-3,-79.999998212E-3,
,,,-3.04800016E-3,824.000060558E-3,,,,,-3.04800016E-3,0.0,
,,,-3.04600038E-3,824.000060558E-3,,,,,-3.04600038E-3,0.0,
,,,-3.04400036E-3,824.000060558E-3,,,,,-3.04400036E-3,0.0,
,,,-3.04200035E-3,824.000060558E-3,,,,,-3.04200035E-3,0.0,
,,,-3.04000033E-3,824.000060558E-3,,,,,-3.04000033E-3,0.0,
,,,-3.03800032E-3,816.000044346E-3,,,,,-3.03800032E-3,0.0,
,,,-3.03600030E-3,816.000044346E-3,,,,,-3.03600030E-3,0.0,
,,,-3.03400028E-3,816.000044346E-3,,,,,-3.03400028E-3,79.999998212E-3,
,,,-3.03200027E-3,816.000044346E-3,,,,,-3.03200027E-3,79.999998212E-3,
,,,-3.03000025E-3,816.000044346E-3,,,,,-3.03000025E-3,0.0,
,,,-3.02800024E-3,808.000028133E-3,,,,,-3.02800024E-3,0.0,
,,,-3.02600022E-3,808.000028133E-3,,,,,-3.02600022E-3,0.0,
,,,-3.02400021E-3,808.000028133E-3,,,,,-3.02400021E-3,0.0,
,,,-3.02200019E-3,808.000028133E-3,,,,,-3.02200019E-3,0.0,
,,,-3.02000018E-3,808.000028133E-3,,,,,-3.02000018E-3,0.0,
,,,-3.01800016E-3,800.000011921E-3,,,,,-3.01800016E-3,0.0,
,,,-3.01600038E-3,808.000028133E-3,,,,,-3.01600038E-3,-79.999998212E-3,
,,,-3.01400037E-3,800.000011921E-3,,,,,-3.01400037E-3,-79.999998212E-3,
,,,-3.01200035E-3,808.000028133E-3,,,,,-3.01200035E-3,0.0,
,,,-3.01000034E-3,800.000011921E-3,,,,,-3.01000034E-3,0.0,
,,,-3.00800032E-3,800.000011921E-3,,,,,-3.00800032E-3,0.0,
,,,-3.00600030E-3,800.000011921E-3,,,,,-3.00600030E-3,0.0,
,,,-3.00400029E-3,800.000011921E-3,,,,,-3.00400029E-3,0.0,
,,,-3.00200027E-3,792.000055313E-3,,,,,-3.00200027E-3,0.0,
,,,-3.00000026E-3,800.000011921E-3,,,,,-3.00000026E-3,0.0,
,,,-2.99800024E-3,792.000055313E-3,,,,,-2.99800024E-3,0.0,
,,,-2.99600023E-3,792.000055313E-3,,,,,-2.99600023E-3,0.0,
,,,-2.99400021E-3,792.000055313E-3,,,,,-2.99400021E-3,0.0,
,,,-2.99200020E-3,792.000055313E-3,,,,,-2.99200020E-3,0.0,
,,,-2.99000018E-3,792.000055313E-3,,,,,-2.99000018E-3,0.0,
,,,-2.98800017E-3,792.000055313E-3,,,,,-2.98800017E-3,-79.999998212E-3,
,,,-2.98600039E-3,784.000039101E-3,,,,,-2.98600039E-3,0.0,
,,,-2.98400037E-3,792.000055313E-3,,,,,-2.98400037E-3,0.0,
,,,-2.98200035E-3,784.000039101E-3,,,,,-2.98200035E-3,0.0,
,,,-2.98000034E-3,792.000055313E-3,,,,,-2.98000034E-3,0.0,
,,,-2.97800032E-3,784.000039101E-3,,,,,-2.97800032E-3,0.0,
,,,-2.97600031E-3,784.000039101E-3,,,,,-2.97600031E-3,0.0,
,,,-2.97400029E-3,784.000039101E-3,,,,,-2.97400029E-3,0.0,
,,,-2.97200028E-3,784.000039101E-3,,,,,-2.97200028E-3,-79.999998212E-3,
,,,-2.97000026E-3,784.000039101E-3,,,,,-2.97000026E-3,0.0,
,,,-2.96800025E-3,784.000039101E-3,,,,,-2.96800025E-3,0.0,
,,,-2.96600023E-3,784.000039101E-3,,,,,-2.96600023E-3,0.0,
,,,-2.96400022E-3,776.000022888E-3,,,,,-2.96400022E-3,0.0,
,,,-2.96200020E-3,776.000022888E-3,,,,,-2.96200020E-3,0.0,
,,,-2.96000019E-3,776.000022888E-3,,,,,-2.96000019E-3,0.0,
,,,-2.95800017E-3,776.000022888E-3,,,,,-2.95800017E-3,0.0,
,,,-2.95600016E-3,776.000022888E-3,,,,,-2.95600016E-3,0.0,
,,,-2.95400037E-3,768.000006676E-3,,,,,-2.95400037E-3,-79.999998212E-3,
,,,-2.95200036E-3,768.000006676E-3,,,,,-2.95200036E-3,0.0,
,,,-2.95000034E-3,768.000006676E-3,,,,,-2.95000034E-3,0.0,
,,,-2.94800033E-3,768.000006676E-3,,,,,-2.94800033E-3,0.0,
,,,-2.94600031E-3,768.000006676E-3,,,,,-2.94600031E-3,0.0,
,,,-2.94400030E-3,768.000006676E-3,,,,,-2.94400030E-3,0.0,
,,,-2.94200028E-3,768.000006676E-3,,,,,-2.94200028E-3,0.0,
,,,-2.94000027E-3,768.000006676E-3,,,,,-2.94000027E-3,0.0,
,,,-2.93800025E-3,768.000006676E-3,,,,,-2.93800025E-3,0.0,
,,,-2.93600024E-3,768.000006676E-3,,,,,-2.93600024E-3,0.0,
,,,-2.93400022E-3,760.000050068E-3,,,,,-2.93400022E-3,0.0,
,,,-2.93200021E-3,760.000050068E-3,,,,,-2.93200021E-3,79.999998212E-3,
,,,-2.93000019E-3,760.000050068E-3,,,,,-2.93000019E-3,239.99999464E-3,
,,,-2.92800018E-3,760.000050068E-3,,,,,-2.92800018E-3,399.99997616E-3,
,,,-2.92600016E-3,760.000050068E-3,,,,,-2.92600016E-3,319.99999285E-3,
,,,-2.92400038E-3,760.000050068E-3,,,,,-2.92400038E-3,159.99999642E-3,
,,,-2.92200036E-3,760.000050068E-3,,,,,-2.92200036E-3,79.999998212E-3,
,,,-2.92000035E-3,760.000050068E-3,,,,,-2.92000035E-3,0.0,
,,,-2.91800033E-3,752.000033855E-3,,,,,-2.91800033E-3,0.0,
,,,-2.91600032E-3,752.000033855E-3,,,,,-2.91600032E-3,0.0,
,,,-2.91400030E-3,752.000033855E-3,,,,,-2.91400030E-3,0.0,
,,,-2.91200029E-3,752.000033855E-3,,,,,-2.91200029E-3,0.0,
,,,-2.91000027E-3,752.000033855E-3,,,,,-2.91000027E-3,0.0,
,,,-2.90800026E-3,752.000033855E-3,,,,,-2.90800026E-3,0.0,
,,,-2.90600024E-3,752.000033855E-3,,,,,-2.90600024E-3,0.0,
,,,-2.90400023E-3,752.000033855E-3,,,,,-2.90400023E-3,0.0,
,,,-2.90200021E-3,752.000033855E-3,,,,,-2.90200021E-3,79.999998212E-3,
,,,-2.90000020E-3,744.000017643E-3,,,,,-2.90000020E-3,0.0,
,,,-2.89800018E-3,752.000033855E-3,,,,,-2.89800018E-3,79.999998212E-3,
,,,-2.89600017E-3,752.000033855E-3,,,,,-2.89600017E-3,79.999998212E-3,
,,,-2.89400038E-3,744.000017643E-3,,,,,-2.89400038E-3,79.999998212E-3,
,,,-2.89200037E-3,744.000017643E-3,,,,,-2.89200037E-3,159.99999642E-3,
,,,-2.89000035E-3,744.000017643E-3,,,,,-2.89000035E-3,239.99999464E-3,
,,,-2.88800034E-3,744.000017643E-3,,,,,-2.88800034E-3,319.99999285E-3,
,,,-2.88600032E-3,736.000061035E-3,,,,,-2.88600032E-3,399.99997616E-3,
,,,-2.88400031E-3,736.000061035E-3,,,,,-2.88400031E-3,479.999989271E-3,
,,,-2.88200029E-3,736.000061035E-3,,,,,-2.88200029E-3,479.999989271E-3,
,,,-2.88000028E-3,736.000061035E-3,,,,,-2.88000028E-3,319.99999285E-3,
,,,-2.87800026E-3,736.000061035E-3,,,,,-2.87800026E-3,239.99999464E-3,
,,,-2.87600025E-3,736.000061035E-3,,,,,-2.87600025E-3,159.99999642E-3,
,,,-2.87400023E-3,728.000044823E-3,,,,,-2.87400023E-3,79.999998212E-3,
,,,-2.87200022E-3,728.000044823E-3,,,,,-2.87200022E-3,79.999998212E-3,
,,,-2.87000020E-3,728.000044823E-3,,,,,-2.87000020E-3,79.999998212E-3,
,,,-2.86800019E-3,728.000044823E-3,,,,,-2.86800019E-3,79.999998212E-3,
,,,-2.86600017E-3,728.000044823E-3,,,,,-2.86600017E-3,79.999998212E-3,
,,,-2.86400015E-3,728.000044823E-3,,,,,-2.86400015E-3,79.999998212E-3,
