Raw Data/30cm Cavity/2018-2-13-13.22-9.6+-0.2V-22.43Hz-OC30cm.csv

Record Length,2500,Points,-55.119998753E-3,88.000006974E-3,,Record Length,2500,Points,-55.119998753E-3,0.0,
Sample Interval,39.99999899E-6,s,-55.080000311E-3,88.000006974E-3,,Sample Interval,39.99999899E-6,s,-55.080000311E-3,0.0,
Trigger Point,1.3780001E3,Samples,-55.039998144E-3,88.000006974E-3,,Trigger Point,1.3780001E3,Samples,-55.039998144E-3,0.0,
,,,-54.999999702E-3,96.000000834E-3,,,,,-54.999999702E-3,0.0,
,,,-54.959997535E-3,96.000000834E-3,,,,,-54.959997535E-3,0.0,
,,,-54.919999093E-3,96.000000834E-3,,,,,-54.919999093E-3,0.0,
Source,CH1,,-54.879996926E-3,104.0000021E-3,,Source,CH2,,-54.879996926E-3,0.0,
Vertical Units,Volts,,-54.839998484E-3,96.000000834E-3,,Vertical Units,Volts,,-54.839998484E-3,0.0,
Vertical Scale,200.00000950E-3,,-54.800000042E-3,104.0000021E-3,,Vertical Scale,2.0000000,,-54.800000042E-3,0.0,
Vertical Offset,0,,-54.759997874E-3,104.0000021E-3,,Vertical Offset,0,,-54.759997874E-3,0.0,
Horizontal Units,s,,-54.719999433E-3,104.0000021E-3,,Horizontal Units,s,,-54.719999433E-3,0.0,
Horizontal Scale,9.999999747E-3,,-54.679997265E-3,112.0000035E-3,,Horizontal Scale,9.999999747E-3,,-54.679997265E-3,0.0,
Pt Fmt,Y,,-54.639998823E-3,112.0000035E-3,,Pt Fmt,Y,,-54.639998823E-3,0.0,
Yzero,-2.0000000,,-54.600000381E-3,120.0000048E-3,,Yzero,-1.6800000,,-54.600000381E-3,79.999998212E-3,
Probe Atten,1.000000,,-54.55999821E-3,120.0000048E-3,,Probe Atten,1.000000,,-54.55999821E-3,79.999998212E-3,
,,,-54.51999977E-3,120.0000048E-3,,,,,-54.51999977E-3,0.0,
Note,TDS 1002B - 1:21:42 PM   2/13/2018,,-54.47999761E-3,120.0000048E-3,,Note,TDS 1002B - 1:21:42 PM   2/13/2018,,-54.47999761E-3,0.0,
,,,-54.43999916E-3,120.0000048E-3,,,,,-54.43999916E-3,0.0,
,,,-54.39999700E-3,128.0000061E-3,,,,,-54.39999700E-3,79.999998212E-3,
,,,-54.35999855E-3,128.0000061E-3,,,,,-54.35999855E-3,0.0,
,,,-54.32000011E-3,128.0000061E-3,,,,,-54.32000011E-3,159.99999642E-3,
,,,-54.27999794E-3,128.0000061E-3,,,,,-54.27999794E-3,159.99999642E-3,
,,,-54.23999950E-3,136.0000074E-3,,,,,-54.23999950E-3,0.0,
,,,-54.19999734E-3,136.0000074E-3,,,,,-54.19999734E-3,0.0,
,,,-54.15999889E-3,136.0000074E-3,,,,,-54.15999889E-3,0.0,
,,,-54.12000045E-3,144.0000087E-3,,,,,-54.12000045E-3,0.0,
,,,-54.07999828E-3,144.0000087E-3,,,,,-54.07999828E-3,0.0,
,,,-54.03999984E-3,144.0000087E-3,,,,,-54.03999984E-3,159.99999642E-3,
,,,-53.99999768E-3,144.0000087E-3,,,,,-53.99999768E-3,0.0,
,,,-53.95999923E-3,152.00001001E-3,,,,,-53.95999923E-3,0.0,
,,,-53.91999707E-3,152.00001001E-3,,,,,-53.91999707E-3,0.0,
,,,-53.87999862E-3,152.00001001E-3,,,,,-53.87999862E-3,0.0,
,,,-53.84000018E-3,152.00001001E-3,,,,,-53.84000018E-3,0.0,
,,,-53.79999802E-3,152.00001001E-3,,,,,-53.79999802E-3,79.999998212E-3,
,,,-53.75999957E-3,160.00001132E-3,,,,,-53.75999957E-3,0.0,
,,,-53.71999741E-3,160.00001132E-3,,,,,-53.71999741E-3,0.0,
,,,-53.67999896E-3,160.00001132E-3,,,,,-53.67999896E-3,0.0,
,,,-53.64000052E-3,160.00001132E-3,,,,,-53.64000052E-3,79.999998212E-3,
,,,-53.59999835E-3,168.00001264E-3,,,,,-53.59999835E-3,79.999998212E-3,
,,,-53.55999991E-3,168.00001264E-3,,,,,-53.55999991E-3,79.999998212E-3,
,,,-53.51999775E-3,168.00001264E-3,,,,,-53.51999775E-3,0.0,
,,,-53.47999930E-3,168.00001264E-3,,,,,-53.47999930E-3,0.0,
,,,-53.43999714E-3,168.00001264E-3,,,,,-53.43999714E-3,79.999998212E-3,
,,,-53.39999869E-3,176.00001395E-3,,,,,-53.39999869E-3,79.999998212E-3,
,,,-53.36000025E-3,184.00001526E-3,,,,,-53.36000025E-3,79.999998212E-3,
,,,-53.31999809E-3,184.00001526E-3,,,,,-53.31999809E-3,0.0,
,,,-53.27999964E-3,184.00001526E-3,,,,,-53.27999964E-3,79.999998212E-3,
,,,-53.23999748E-3,184.00001526E-3,,,,,-53.23999748E-3,79.999998212E-3,
,,,-53.19999903E-3,184.00001526E-3,,,,,-53.19999903E-3,79.999998212E-3,
,,,-53.16000059E-3,184.00001526E-3,,,,,-53.16000059E-3,79.999998212E-3,
,,,-53.11999843E-3,192.00000167E-3,,,,,-53.11999843E-3,0.0,
,,,-53.07999998E-3,192.00000167E-3,,,,,-53.07999998E-3,0.0,
,,,-53.03999782E-3,192.00000167E-3,,,,,-53.03999782E-3,79.999998212E-3,
,,,-52.99999937E-3,200.00000298E-3,,,,,-52.99999937E-3,79.999998212E-3,
,,,-52.95999721E-3,200.00000298E-3,,,,,-52.95999721E-3,79.999998212E-3,
,,,-52.91999876E-3,200.00000298E-3,,,,,-52.91999876E-3,79.999998212E-3,
,,,-52.88000032E-3,200.00000298E-3,,,,,-52.88000032E-3,0.0,
,,,-52.83999816E-3,208.00000429E-3,,,,,-52.83999816E-3,0.0,
,,,-52.79999971E-3,208.00000429E-3,,,,,-52.79999971E-3,79.999998212E-3,
,,,-52.75999755E-3,208.00000429E-3,,,,,-52.75999755E-3,0.0,
,,,-52.71999910E-3,208.00000429E-3,,,,,-52.71999910E-3,0.0,
,,,-52.68000066E-3,216.00000560E-3,,,,,-52.68000066E-3,0.0,
,,,-52.63999850E-3,216.00000560E-3,,,,,-52.63999850E-3,0.0,
,,,-52.60000005E-3,216.00000560E-3,,,,,-52.60000005E-3,0.0,
,,,-52.55999789E-3,224.00000691E-3,,,,,-52.55999789E-3,79.999998212E-3,
,,,-52.51999944E-3,224.00000691E-3,,,,,-52.51999944E-3,0.0,
,,,-52.47999728E-3,224.00000691E-3,,,,,-52.47999728E-3,0.0,
,,,-52.43999884E-3,224.00000691E-3,,,,,-52.43999884E-3,0.0,
,,,-52.40000039E-3,224.00000691E-3,,,,,-52.40000039E-3,0.0,
,,,-52.35999823E-3,224.00000691E-3,,,,,-52.35999823E-3,79.999998212E-3,
,,,-52.31999978E-3,224.00000691E-3,,,,,-52.31999978E-3,0.0,
,,,-52.27999762E-3,224.00000691E-3,,,,,-52.27999762E-3,79.999998212E-3,
,,,-52.23999918E-3,232.00000823E-3,,,,,-52.23999918E-3,79.999998212E-3,
,,,-52.19999701E-3,232.00000823E-3,,,,,-52.19999701E-3,0.0,
,,,-52.15999857E-3,240.00000954E-3,,,,,-52.15999857E-3,0.0,
,,,-52.12000012E-3,240.00000954E-3,,,,,-52.12000012E-3,0.0,
,,,-52.07999796E-3,240.00000954E-3,,,,,-52.07999796E-3,0.0,
,,,-52.03999951E-3,248.00001085E-3,,,,,-52.03999951E-3,0.0,
,,,-51.99999735E-3,248.00001085E-3,,,,,-51.99999735E-3,0.0,
,,,-51.95999891E-3,248.00001085E-3,,,,,-51.95999891E-3,0.0,
,,,-51.92000046E-3,248.00001085E-3,,,,,-51.92000046E-3,0.0,
,,,-51.87999830E-3,256.00001216E-3,,,,,-51.87999830E-3,0.0,
,,,-51.83999985E-3,256.00001216E-3,,,,,-51.83999985E-3,0.0,
,,,-51.79999769E-3,256.00001216E-3,,,,,-51.79999769E-3,0.0,
,,,-51.75999925E-3,256.00001216E-3,,,,,-51.75999925E-3,0.0,
,,,-51.71999708E-3,263.99999857E-3,,,,,-51.71999708E-3,0.0,
,,,-51.67999864E-3,263.99999857E-3,,,,,-51.67999864E-3,0.0,
,,,-51.64000019E-3,263.99999857E-3,,,,,-51.64000019E-3,0.0,
,,,-51.59999803E-3,263.99999857E-3,,,,,-51.59999803E-3,0.0,
,,,-51.55999959E-3,263.99999857E-3,,,,,-51.55999959E-3,0.0,
,,,-51.51999742E-3,263.99999857E-3,,,,,-51.51999742E-3,0.0,
,,,-51.47999898E-3,272.00001478E-3,,,,,-51.47999898E-3,0.0,
,,,-51.44000053E-3,272.00001478E-3,,,,,-51.44000053E-3,0.0,
,,,-51.39999837E-3,272.00001478E-3,,,,,-51.39999837E-3,0.0,
,,,-51.35999992E-3,280.00000119E-3,,,,,-51.35999992E-3,0.0,
,,,-51.31999776E-3,280.00000119E-3,,,,,-51.31999776E-3,0.0,
,,,-51.27999932E-3,280.00000119E-3,,,,,-51.27999932E-3,0.0,
,,,-51.23999715E-3,280.00000119E-3,,,,,-51.23999715E-3,0.0,
,,,-51.19999871E-3,280.00000119E-3,,,,,-51.19999871E-3,0.0,
,,,-51.16000026E-3,288.00001740E-3,,,,,-51.16000026E-3,0.0,
,,,-51.11999810E-3,288.00001740E-3,,,,,-51.11999810E-3,0.0,
,,,-51.07999966E-3,288.00001740E-3,,,,,-51.07999966E-3,0.0,
,,,-51.03999749E-3,288.00001740E-3,,,,,-51.03999749E-3,0.0,
,,,-50.99999905E-3,296.00000381E-3,,,,,-50.99999905E-3,79.999998212E-3,
,,,-50.96000060E-3,296.00000381E-3,,,,,-50.96000060E-3,319.99999285E-3,
,,,-50.91999844E-3,304.00002003E-3,,,,,-50.91999844E-3,79.999998212E-3,
,,,-50.88000000E-3,304.00002003E-3,,,,,-50.88000000E-3,159.99999642E-3,
,,,-50.83999783E-3,304.00002003E-3,,,,,-50.83999783E-3,239.99999464E-3,
,,,-50.79999939E-3,304.00002003E-3,,,,,-50.79999939E-3,639.999985695E-3,
,,,-50.75999722E-3,304.00002003E-3,,,,,-50.75999722E-3,2.2400000,
,,,-50.71999878E-3,312.00000644E-3,,,,,-50.71999878E-3,1.1999999,
,,,-50.68000033E-3,312.00000644E-3,,,,,-50.68000033E-3,479.999989271E-3,
,,,-50.63999817E-3,312.00000644E-3,,,,,-50.63999817E-3,239.99999464E-3,
,,,-50.59999973E-3,312.00000644E-3,,,,,-50.59999973E-3,159.99999642E-3,
,,,-50.55999756E-3,320.00002265E-3,,,,,-50.55999756E-3,159.99999642E-3,
,,,-50.51999912E-3,320.00002265E-3,,,,,-50.51999912E-3,479.999989271E-3,
,,,-50.48000067E-3,320.00002265E-3,,,,,-50.48000067E-3,959.999978542E-3,
,,,-50.43999851E-3,320.00002265E-3,,,,,-50.43999851E-3,399.99997616E-3,
,,,-50.40000007E-3,320.00002265E-3,,,,,-50.40000007E-3,159.99999642E-3,
,,,-50.35999790E-3,328.00000906E-3,,,,,-50.35999790E-3,79.999998212E-3,
,,,-50.31999946E-3,328.00000906E-3,,,,,-50.31999946E-3,159.99999642E-3,
,,,-50.27999729E-3,336.00002527E-3,,,,,-50.27999729E-3,239.99999464E-3,
,,,-50.23999885E-3,336.00002527E-3,,,,,-50.23999885E-3,560.000002384E-3,
,,,-50.20000041E-3,336.00002527E-3,,,,,-50.20000041E-3,399.99997616E-3,
,,,-50.15999824E-3,336.00002527E-3,,,,,-50.15999824E-3,159.99999642E-3,
,,,-50.11999980E-3,344.00001168E-3,,,,,-50.11999980E-3,79.999998212E-3,
,,,-50.07999763E-3,344.00001168E-3,,,,,-50.07999763E-3,79.999998212E-3,
,,,-50.03999919E-3,344.00001168E-3,,,,,-50.03999919E-3,159.99999642E-3,
,,,-49.99999702E-3,344.00001168E-3,,,,,-49.99999702E-3,319.99999285E-3,
,,,-49.95999858E-3,352.00002789E-3,,,,,-49.95999858E-3,319.99999285E-3,
,,,-49.92000014E-3,352.00002789E-3,,,,,-49.92000014E-3,159.99999642E-3,
,,,-49.87999797E-3,352.00002789E-3,,,,,-49.87999797E-3,79.999998212E-3,
,,,-49.83999953E-3,352.00002789E-3,,,,,-49.83999953E-3,79.999998212E-3,
,,,-49.79999736E-3,360.00001431E-3,,,,,-49.79999736E-3,159.99999642E-3,
,,,-49.75999892E-3,352.00002789E-3,,,,,-49.75999892E-3,239.99999464E-3,
,,,-49.72000048E-3,360.00001431E-3,,,,,-49.72000048E-3,159.99999642E-3,
,,,-49.67999831E-3,360.00001431E-3,,,,,-49.67999831E-3,79.999998212E-3,
,,,-49.63999987E-3,360.00001431E-3,,,,,-49.63999987E-3,0.0,
,,,-49.59999770E-3,360.00001431E-3,,,,,-49.59999770E-3,79.999998212E-3,
,,,-49.55999926E-3,368.00003052E-3,,,,,-49.55999926E-3,239.99999464E-3,
,,,-49.51999709E-3,368.00003052E-3,,,,,-49.51999709E-3,159.99999642E-3,
,,,-49.47999865E-3,368.00003052E-3,,,,,-49.47999865E-3,79.999998212E-3,
,,,-49.44000021E-3,376.00001693E-3,,,,,-49.44000021E-3,0.0,
,,,-49.39999804E-3,376.00001693E-3,,,,,-49.39999804E-3,79.999998212E-3,
,,,-49.35999960E-3,376.00001693E-3,,,,,-49.35999960E-3,159.99999642E-3,
,,,-49.31999743E-3,376.00001693E-3,,,,,-49.31999743E-3,79.999998212E-3,
,,,-49.27999899E-3,384.00000334E-3,,,,,-49.27999899E-3,79.999998212E-3,
,,,-49.24000055E-3,384.00000334E-3,,,,,-49.24000055E-3,0.0,
,,,-49.19999838E-3,384.00000334E-3,,,,,-49.19999838E-3,79.999998212E-3,
,,,-49.15999994E-3,392.00001955E-3,,,,,-49.15999994E-3,79.999998212E-3,
,,,-49.11999777E-3,392.00001955E-3,,,,,-49.11999777E-3,79.999998212E-3,
,,,-49.07999933E-3,392.00001955E-3,,,,,-49.07999933E-3,0.0,
,,,-49.03999716E-3,400.00000596E-3,,,,,-49.03999716E-3,79.999998212E-3,
,,,-48.99999872E-3,400.00000596E-3,,,,,-48.99999872E-3,0.0,
,,,-48.96000028E-3,400.00000596E-3,,,,,-48.96000028E-3,79.999998212E-3,
,,,-48.91999811E-3,400.00000596E-3,,,,,-48.91999811E-3,79.999998212E-3,
,,,-48.87999967E-3,400.00000596E-3,,,,,-48.87999967E-3,0.0,
,,,-48.83999750E-3,408.000022173E-3,,,,,-48.83999750E-3,0.0,
,,,-48.79999906E-3,408.000022173E-3,,,,,-48.79999906E-3,0.0,
,,,-48.76000062E-3,416.000008583E-3,,,,,-48.76000062E-3,0.0,
,,,-48.71999845E-3,408.000022173E-3,,,,,-48.71999845E-3,0.0,
,,,-48.68000001E-3,416.000008583E-3,,,,,-48.68000001E-3,0.0,
,,,-48.63999784E-3,408.000022173E-3,,,,,-48.63999784E-3,79.999998212E-3,
,,,-48.59999940E-3,416.000008583E-3,,,,,-48.59999940E-3,0.0,
,,,-48.55999723E-3,416.000008583E-3,,,,,-48.55999723E-3,0.0,
,,,-48.51999879E-3,424.000024796E-3,,,,,-48.51999879E-3,0.0,
,,,-48.48000035E-3,416.000008583E-3,,,,,-48.48000035E-3,0.0,
,,,-48.43999818E-3,424.000024796E-3,,,,,-48.43999818E-3,0.0,
,,,-48.39999974E-3,432.000011206E-3,,,,,-48.39999974E-3,0.0,
,,,-48.35999757E-3,424.000024796E-3,,,,,-48.35999757E-3,0.0,
,,,-48.31999913E-3,432.000011206E-3,,,,,-48.31999913E-3,0.0,
,,,-48.28000069E-3,432.000011206E-3,,,,,-48.28000069E-3,0.0,
,,,-48.23999852E-3,432.000011206E-3,,,,,-48.23999852E-3,0.0,
,,,-48.20000008E-3,440.000027418E-3,,,,,-48.20000008E-3,0.0,
,,,-48.15999791E-3,440.000027418E-3,,,,,-48.15999791E-3,0.0,
,,,-48.11999947E-3,440.000027418E-3,,,,,-48.11999947E-3,0.0,
,,,-48.07999730E-3,440.000027418E-3,,,,,-48.07999730E-3,0.0,
,,,-48.03999886E-3,448.000013828E-3,,,,,-48.03999886E-3,0.0,
,,,-48.00000042E-3,448.000013828E-3,,,,,-48.00000042E-3,0.0,
,,,-47.95999825E-3,448.000013828E-3,,,,,-47.95999825E-3,0.0,
,,,-47.91999981E-3,448.000013828E-3,,,,,-47.91999981E-3,0.0,
,,,-47.87999764E-3,456.000030041E-3,,,,,-47.87999764E-3,0.0,
,,,-47.83999920E-3,456.000030041E-3,,,,,-47.83999920E-3,0.0,
,,,-47.80000076E-3,456.000030041E-3,,,,,-47.80000076E-3,0.0,
,,,-47.75999859E-3,456.000030041E-3,,,,,-47.75999859E-3,0.0,
,,,-47.72000015E-3,456.000030041E-3,,,,,-47.72000015E-3,0.0,
,,,-47.67999798E-3,464.000016451E-3,,,,,-47.67999798E-3,0.0,
,,,-47.63999954E-3,464.000016451E-3,,,,,-47.63999954E-3,0.0,
,,,-47.59999737E-3,464.000016451E-3,,,,,-47.59999737E-3,0.0,
,,,-47.55999893E-3,472.000032663E-3,,,,,-47.55999893E-3,0.0,
,,,-47.52000049E-3,472.000032663E-3,,,,,-47.52000049E-3,0.0,
,,,-47.47999832E-3,472.000032663E-3,,,,,-47.47999832E-3,0.0,
,,,-47.43999988E-3,472.000032663E-3,,,,,-47.43999988E-3,0.0,
,,,-47.39999771E-3,480.000019073E-3,,,,,-47.39999771E-3,0.0,
,,,-47.35999927E-3,480.000019073E-3,,,,,-47.35999927E-3,0.0,
,,,-47.31999710E-3,480.000019073E-3,,,,,-47.31999710E-3,0.0,
,,,-47.27999866E-3,480.000019073E-3,,,,,-47.27999866E-3,0.0,
,,,-47.24000022E-3,488.000035286E-3,,,,,-47.24000022E-3,0.0,
,,,-47.19999805E-3,488.000035286E-3,,,,,-47.19999805E-3,0.0,
,,,-47.15999961E-3,488.000035286E-3,,,,,-47.15999961E-3,0.0,
,,,-47.11999744E-3,488.000035286E-3,,,,,-47.11999744E-3,0.0,
,,,-47.07999900E-3,496.000021696E-3,,,,,-47.07999900E-3,0.0,
,,,-47.04000056E-3,496.000021696E-3,,,,,-47.04000056E-3,0.0,
,,,-46.99999839E-3,488.000035286E-3,,,,,-46.99999839E-3,0.0,
,,,-46.95999995E-3,496.000021696E-3,,,,,-46.95999995E-3,0.0,
,,,-46.91999778E-3,496.000021696E-3,,,,,-46.91999778E-3,0.0,
,,,-46.87999934E-3,504.000008106E-3,,,,,-46.87999934E-3,0.0,
,,,-46.83999717E-3,496.000021696E-3,,,,,-46.83999717E-3,0.0,
,,,-46.79999873E-3,496.000021696E-3,,,,,-46.79999873E-3,0.0,
,,,-46.76000029E-3,504.000008106E-3,,,,,-46.76000029E-3,0.0,
,,,-46.71999812E-3,512.000024319E-3,,,,,-46.71999812E-3,239.99999464E-3,
,,,-46.67999968E-3,512.000024319E-3,,,,,-46.67999968E-3,79.999998212E-3,
,,,-46.63999751E-3,512.000024319E-3,,,,,-46.63999751E-3,0.0,
,,,-46.59999907E-3,520.000040531E-3,,,,,-46.59999907E-3,0.0,
,,,-46.56000063E-3,520.000040531E-3,,,,,-46.56000063E-3,0.0,
,,,-46.51999846E-3,520.000040531E-3,,,,,-46.51999846E-3,79.999998212E-3,
,,,-46.48000002E-3,520.000040531E-3,,,,,-46.48000002E-3,159.99999642E-3,
,,,-46.43999785E-3,527.999997139E-3,,,,,-46.43999785E-3,0.0,
,,,-46.39999941E-3,527.999997139E-3,,,,,-46.39999941E-3,-79.999998212E-3,
,,,-46.35999724E-3,527.999997139E-3,,,,,-46.35999724E-3,0.0,
,,,-46.31999880E-3,536.000013351E-3,,,,,-46.31999880E-3,0.0,
,,,-46.28000036E-3,536.000013351E-3,,,,,-46.28000036E-3,79.999998212E-3,
,,,-46.23999819E-3,536.000013351E-3,,,,,-46.23999819E-3,0.0,
,,,-46.19999975E-3,536.000013351E-3,,,,,-46.19999975E-3,79.999998212E-3,
,,,-46.15999758E-3,536.000013351E-3,,,,,-46.15999758E-3,0.0,
,,,-46.11999914E-3,544.000029564E-3,,,,,-46.11999914E-3,79.999998212E-3,
,,,-46.08000070E-3,544.000029564E-3,,,,,-46.08000070E-3,79.999998212E-3,
,,,-46.03999853E-3,544.000029564E-3,,,,,-46.03999853E-3,0.0,
,,,-46.00000009E-3,552.000045776E-3,,,,,-46.00000009E-3,0.0,
,,,-45.95999792E-3,552.000045776E-3,,,,,-45.95999792E-3,0.0,
,,,-45.91999948E-3,552.000045776E-3,,,,,-45.91999948E-3,79.999998212E-3,
,,,-45.87999731E-3,552.000045776E-3,,,,,-45.87999731E-3,79.999998212E-3,
,,,-45.83999887E-3,552.000045776E-3,,,,,-45.83999887E-3,79.999998212E-3,
,,,-45.80000043E-3,552.000045776E-3,,,,,-45.80000043E-3,0.0,
,,,-45.75999826E-3,552.000045776E-3,,,,,-45.75999826E-3,0.0,
,,,-45.71999982E-3,560.000002384E-3,,,,,-45.71999982E-3,0.0,
,,,-45.67999765E-3,560.000002384E-3,,,,,-45.67999765E-3,0.0,
,,,-45.63999921E-3,568.000018597E-3,,,,,-45.63999921E-3,0.0,
,,,-45.60000077E-3,568.000018597E-3,,,,,-45.60000077E-3,0.0,
,,,-45.55999860E-3,568.000018597E-3,,,,,-45.55999860E-3,0.0,
,,,-45.52000016E-3,568.000018597E-3,,,,,-45.52000016E-3,0.0,
,,,-45.47999799E-3,568.000018597E-3,,,,,-45.47999799E-3,79.999998212E-3,
,,,-45.43999955E-3,576.000034809E-3,,,,,-45.43999955E-3,0.0,
,,,-45.39999738E-3,576.000034809E-3,,,,,-45.39999738E-3,79.999998212E-3,
,,,-45.35999894E-3,576.000034809E-3,,,,,-45.35999894E-3,79.999998212E-3,
,,,-45.32000050E-3,576.000034809E-3,,,,,-45.32000050E-3,79.999998212E-3,
,,,-45.27999833E-3,584.000051022E-3,,,,,-45.27999833E-3,0.0,
,,,-45.23999989E-3,584.000051022E-3,,,,,-45.23999989E-3,79.999998212E-3,
,,,-45.19999772E-3,584.000051022E-3,,,,,-45.19999772E-3,0.0,
,,,-45.15999928E-3,584.000051022E-3,,,,,-45.15999928E-3,0.0,
,,,-45.12000084E-3,592.000007629E-3,,,,,-45.12000084E-3,79.999998212E-3,
,,,-45.07999867E-3,592.000007629E-3,,,,,-45.07999867E-3,0.0,
,,,-45.04000023E-3,592.000007629E-3,,,,,-45.04000023E-3,0.0,
,,,-44.99999806E-3,592.000007629E-3,,,,,-44.99999806E-3,79.999998212E-3,
,,,-44.95999962E-3,600.000023842E-3,,,,,-44.95999962E-3,0.0,
,,,-44.91999745E-3,600.000023842E-3,,,,,-44.91999745E-3,79.999998212E-3,
,,,-44.87999901E-3,608.000040054E-3,,,,,-44.87999901E-3,0.0,
,,,-44.84000057E-3,600.000023842E-3,,,,,-44.84000057E-3,0.0,
,,,-44.79999840E-3,608.000040054E-3,,,,,-44.79999840E-3,0.0,
,,,-44.75999996E-3,608.000040054E-3,,,,,-44.75999996E-3,79.999998212E-3,
,,,-44.71999779E-3,616.000056267E-3,,,,,-44.71999779E-3,0.0,
,,,-44.67999935E-3,616.000056267E-3,,,,,-44.67999935E-3,0.0,
,,,-44.63999718E-3,616.000056267E-3,,,,,-44.63999718E-3,0.0,
,,,-44.59999874E-3,616.000056267E-3,,,,,-44.59999874E-3,0.0,
,,,-44.56000030E-3,616.000056267E-3,,,,,-44.56000030E-3,0.0,
,,,-44.51999813E-3,624.000012875E-3,,,,,-44.51999813E-3,0.0,
,,,-44.47999969E-3,624.000012875E-3,,,,,-44.47999969E-3,0.0,
,,,-44.43999752E-3,624.000012875E-3,,,,,-44.43999752E-3,0.0,
,,,-44.39999908E-3,624.000012875E-3,,,,,-44.39999908E-3,0.0,
,,,-44.36000064E-3,624.000012875E-3,,,,,-44.36000064E-3,0.0,
,,,-44.31999847E-3,632.000029087E-3,,,,,-44.31999847E-3,0.0,
,,,-44.28000003E-3,632.000029087E-3,,,,,-44.28000003E-3,0.0,
,,,-44.23999786E-3,632.000029087E-3,,,,,-44.23999786E-3,0.0,
,,,-44.19999942E-3,632.000029087E-3,,,,,-44.19999942E-3,0.0,
,,,-44.15999725E-3,632.000029087E-3,,,,,-44.15999725E-3,0.0,
,,,-44.11999881E-3,640.000045300E-3,,,,,-44.11999881E-3,0.0,
,,,-44.08000037E-3,640.000045300E-3,,,,,-44.08000037E-3,0.0,
,,,-44.03999820E-3,640.000045300E-3,,,,,-44.03999820E-3,0.0,
,,,-43.99999976E-3,648.000001907E-3,,,,,-43.99999976E-3,0.0,
,,,-43.95999759E-3,648.000001907E-3,,,,,-43.95999759E-3,0.0,
,,,-43.91999915E-3,648.000001907E-3,,,,,-43.91999915E-3,0.0,
,,,-43.88000071E-3,656.000018120E-3,,,,,-43.88000071E-3,-79.999998212E-3,
,,,-43.83999854E-3,656.000018120E-3,,,,,-43.83999854E-3,0.0,
,,,-43.80000010E-3,656.000018120E-3,,,,,-43.80000010E-3,0.0,
,,,-43.75999793E-3,656.000018120E-3,,,,,-43.75999793E-3,0.0,
,,,-43.71999949E-3,664.000034332E-3,,,,,-43.71999949E-3,0.0,
,,,-43.67999732E-3,656.000018120E-3,,,,,-43.67999732E-3,0.0,
,,,-43.63999888E-3,664.000034332E-3,,,,,-43.63999888E-3,0.0,
,,,-43.60000044E-3,672.000050545E-3,,,,,-43.60000044E-3,79.999998212E-3,
,,,-43.55999827E-3,672.000050545E-3,,,,,-43.55999827E-3,0.0,
,,,-43.51999983E-3,672.000050545E-3,,,,,-43.51999983E-3,0.0,
,,,-43.47999766E-3,672.000050545E-3,,,,,-43.47999766E-3,79.999998212E-3,
,,,-43.43999922E-3,680.000007153E-3,,,,,-43.43999922E-3,79.999998212E-3,
,,,-43.40000078E-3,680.000007153E-3,,,,,-43.40000078E-3,0.0,
,,,-43.35999861E-3,672.000050545E-3,,,,,-43.35999861E-3,79.999998212E-3,
,,,-43.32000017E-3,680.000007153E-3,,,,,-43.32000017E-3,79.999998212E-3,
,,,-43.27999800E-3,680.000007153E-3,,,,,-43.27999800E-3,159.99999642E-3,
,,,-43.23999956E-3,688.000023365E-3,,,,,-43.23999956E-3,239.99999464E-3,
,,,-43.19999740E-3,688.000023365E-3,,,,,-43.19999740E-3,639.999985695E-3,
,,,-43.15999895E-3,688.000023365E-3,,,,,-43.15999895E-3,3.11999989,
