Raw Data/30cm Cavity/2018-2-13-13.12-1867Hz-48V-OC30cm.csv

Record Length,2500,Points,-541.999994311E-6,792.000055313E-3,,Record Length,2500,Points,-541.999994311E-6,79.999998212E-3,
Sample Interval,400.00000467E-9,s,-541.599991266E-6,784.000039101E-3,,Sample Interval,400.00000467E-9,s,-541.599991266E-6,79.999998212E-3,
Trigger Point,1.3550000E3,Samples,-541.199988220E-6,808.000028133E-3,,Trigger Point,1.3550000E3,Samples,-541.199988220E-6,0.0,
,,,-540.799985174E-6,784.000039101E-3,,,,,-540.799985174E-6,79.999998212E-3,
,,,-540.399982128E-6,792.000055313E-3,,,,,-540.399982128E-6,79.999998212E-3,
,,,-539.999979082E-6,792.000055313E-3,,,,,-539.999979082E-6,0.0,
Source,CH1,,-539.599976037E-6,808.000028133E-3,,Source,CH2,,-539.599976037E-6,159.99999642E-3,
Vertical Units,Volts,,-539.199972991E-6,792.000055313E-3,,Vertical Units,Volts,,-539.199972991E-6,79.999998212E-3,
Vertical Scale,200.00000950E-3,,-538.799969945E-6,808.000028133E-3,,Vertical Scale,2.0000000,,-538.799969945E-6,79.999998212E-3,
Vertical Offset,0,,-538.399966899E-6,808.000028133E-3,,Vertical Offset,0,,-538.399966899E-6,0.0,
Horizontal Units,s,,-538.000022061E-6,808.000028133E-3,,Horizontal Units,s,,-538.000022061E-6,159.99999642E-3,
Horizontal Scale,100.0000012E-6,,-537.600019015E-6,800.000011921E-3,,Horizontal Scale,100.0000012E-6,,-537.600019015E-6,79.999998212E-3,
Pt Fmt,Y,,-537.200015970E-6,800.000011921E-3,,Pt Fmt,Y,,-537.200015970E-6,79.999998212E-3,
Yzero,-880.000000000E-3,,-536.800012924E-6,816.000044346E-3,,Yzero,-1.6800000,,-536.800012924E-6,0.0,
Probe Atten,1.000000,,-536.400009878E-6,816.000044346E-3,,Probe Atten,1.000000,,-536.400009878E-6,0.0,
,,,-536.000006832E-6,808.000028133E-3,,,,,-536.000006832E-6,79.999998212E-3,
Note,TDS 1002B - 1:12:14 PM   2/13/2018,,-535.600003786E-6,808.000028133E-3,,Note,TDS 1002B - 1:12:14 PM   2/13/2018,,-535.600003786E-6,79.999998212E-3,
,,,-535.200000741E-6,824.000060558E-3,,,,,-535.200000741E-6,79.999998212E-3,
,,,-534.799997695E-6,824.000060558E-3,,,,,-534.799997695E-6,0.0,
,,,-534.399994649E-6,824.000060558E-3,,,,,-534.399994649E-6,79.999998212E-3,
,,,-533.999991603E-6,808.000028133E-3,,,,,-533.999991603E-6,159.99999642E-3,
,,,-533.599988557E-6,824.000060558E-3,,,,,-533.599988557E-6,0.0,
,,,-533.199985512E-6,824.000060558E-3,,,,,-533.199985512E-6,0.0,
,,,-532.799982466E-6,832.000017166E-3,,,,,-532.799982466E-6,79.999998212E-3,
,,,-532.399979420E-6,832.000017166E-3,,,,,-532.399979420E-6,79.999998212E-3,
,,,-531.999976374E-6,840.000033379E-3,,,,,-531.999976374E-6,0.0,
,,,-531.599973328E-6,832.000017166E-3,,,,,-531.599973328E-6,79.999998212E-3,
,,,-531.199970283E-6,840.000033379E-3,,,,,-531.199970283E-6,79.999998212E-3,
,,,-530.799967237E-6,824.000060558E-3,,,,,-530.799967237E-6,79.999998212E-3,
,,,-530.400022399E-6,840.000033379E-3,,,,,-530.400022399E-6,79.999998212E-3,
,,,-530.000019353E-6,840.000033379E-3,,,,,-530.000019353E-6,0.0,
,,,-529.600016307E-6,840.000033379E-3,,,,,-529.600016307E-6,159.99999642E-3,
,,,-529.200013261E-6,832.000017166E-3,,,,,-529.200013261E-6,0.0,
,,,-528.800010215E-6,840.000033379E-3,,,,,-528.800010215E-6,159.99999642E-3,
,,,-528.400007170E-6,848.000049591E-3,,,,,-528.400007170E-6,79.999998212E-3,
,,,-528.000004124E-6,856.000065804E-3,,,,,-528.000004124E-6,159.99999642E-3,
,,,-527.600001078E-6,840.000033379E-3,,,,,-527.600001078E-6,79.999998212E-3,
,,,-527.199998032E-6,848.000049591E-3,,,,,-527.199998032E-6,79.999998212E-3,
,,,-526.799994987E-6,856.000065804E-3,,,,,-526.799994987E-6,0.0,
,,,-526.399991941E-6,856.000065804E-3,,,,,-526.399991941E-6,0.0,
,,,-525.999988895E-6,848.000049591E-3,,,,,-525.999988895E-6,0.0,
,,,-525.599985849E-6,856.000065804E-3,,,,,-525.599985849E-6,0.0,
,,,-525.199982803E-6,848.000049591E-3,,,,,-525.199982803E-6,0.0,
,,,-524.799979758E-6,864.000022411E-3,,,,,-524.799979758E-6,79.999998212E-3,
,,,-524.399976712E-6,856.000065804E-3,,,,,-524.399976712E-6,79.999998212E-3,
,,,-523.999973666E-6,864.000022411E-3,,,,,-523.999973666E-6,-79.999998212E-3,
,,,-523.599970620E-6,864.000022411E-3,,,,,-523.599970620E-6,79.999998212E-3,
,,,-523.199967574E-6,864.000022411E-3,,,,,-523.199967574E-6,79.999998212E-3,
,,,-522.800022736E-6,872.000038624E-3,,,,,-522.800022736E-6,79.999998212E-3,
,,,-522.400019690E-6,872.000038624E-3,,,,,-522.400019690E-6,0.0,
,,,-522.000016645E-6,872.000038624E-3,,,,,-522.000016645E-6,79.999998212E-3,
,,,-521.600013599E-6,864.000022411E-3,,,,,-521.600013599E-6,79.999998212E-3,
,,,-521.200010553E-6,864.000022411E-3,,,,,-521.200010553E-6,-79.999998212E-3,
,,,-520.800007507E-6,872.000038624E-3,,,,,-520.800007507E-6,0.0,
,,,-520.400004461E-6,872.000038624E-3,,,,,-520.400004461E-6,79.999998212E-3,
,,,-520.000001416E-6,880.000054836E-3,,,,,-520.000001416E-6,0.0,
,,,-519.599998370E-6,880.000054836E-3,,,,,-519.599998370E-6,79.999998212E-3,
,,,-519.199995324E-6,880.000054836E-3,,,,,-519.199995324E-6,79.999998212E-3,
,,,-518.799992278E-6,896.000027657E-3,,,,,-518.799992278E-6,79.999998212E-3,
,,,-518.399989232E-6,880.000054836E-3,,,,,-518.399989232E-6,79.999998212E-3,
,,,-517.999986187E-6,896.000027657E-3,,,,,-517.999986187E-6,79.999998212E-3,
,,,-517.599983141E-6,888.000071049E-3,,,,,-517.599983141E-6,-79.999998212E-3,
,,,-517.199980095E-6,896.000027657E-3,,,,,-517.199980095E-6,79.999998212E-3,
,,,-516.799977049E-6,888.000071049E-3,,,,,-516.799977049E-6,0.0,
,,,-516.399974003E-6,904.000043869E-3,,,,,-516.399974003E-6,0.0,
,,,-515.999970958E-6,896.000027657E-3,,,,,-515.999970958E-6,159.99999642E-3,
,,,-515.599967912E-6,912.000060081E-3,,,,,-515.599967912E-6,79.999998212E-3,
,,,-515.200023074E-6,904.000043869E-3,,,,,-515.200023074E-6,159.99999642E-3,
,,,-514.800020028E-6,904.000043869E-3,,,,,-514.800020028E-6,79.999998212E-3,
,,,-514.400016982E-6,888.000071049E-3,,,,,-514.400016982E-6,0.0,
,,,-514.000013936E-6,896.000027657E-3,,,,,-514.000013936E-6,159.99999642E-3,
,,,-513.600010891E-6,896.000027657E-3,,,,,-513.600010891E-6,79.999998212E-3,
,,,-513.200007845E-6,912.000060081E-3,,,,,-513.200007845E-6,239.99999464E-3,
,,,-512.800004799E-6,896.000027657E-3,,,,,-512.800004799E-6,159.99999642E-3,
,,,-512.400001753E-6,912.000060081E-3,,,,,-512.400001753E-6,0.0,
,,,-511.999998707E-6,896.000027657E-3,,,,,-511.999998707E-6,0.0,
,,,-511.599995662E-6,920.000016689E-3,,,,,-511.599995662E-6,79.999998212E-3,
,,,-511.199992616E-6,912.000060081E-3,,,,,-511.199992616E-6,0.0,
,,,-510.799989570E-6,920.000016689E-3,,,,,-510.799989570E-6,159.99999642E-3,
,,,-510.399986524E-6,912.000060081E-3,,,,,-510.399986524E-6,159.99999642E-3,
,,,-509.999983478E-6,912.000060081E-3,,,,,-509.999983478E-6,239.99999464E-3,
,,,-509.599980433E-6,904.000043869E-3,,,,,-509.599980433E-6,79.999998212E-3,
,,,-509.199977387E-6,904.000043869E-3,,,,,-509.199977387E-6,0.0,
,,,-508.799974341E-6,912.000060081E-3,,,,,-508.799974341E-6,79.999998212E-3,
,,,-508.399971295E-6,912.000060081E-3,,,,,-508.399971295E-6,159.99999642E-3,
,,,-507.999968249E-6,896.000027657E-3,,,,,-507.999968249E-6,79.999998212E-3,
,,,-507.599965204E-6,904.000043869E-3,,,,,-507.599965204E-6,0.0,
,,,-507.200020365E-6,912.000060081E-3,,,,,-507.200020365E-6,159.99999642E-3,
,,,-506.800017320E-6,896.000027657E-3,,,,,-506.800017320E-6,79.999998212E-3,
,,,-506.400014274E-6,904.000043869E-3,,,,,-506.400014274E-6,159.99999642E-3,
,,,-506.000011228E-6,888.000071049E-3,,,,,-506.000011228E-6,79.999998212E-3,
,,,-505.600008182E-6,896.000027657E-3,,,,,-505.600008182E-6,159.99999642E-3,
,,,-505.200005136E-6,896.000027657E-3,,,,,-505.200005136E-6,159.99999642E-3,
,,,-504.800002091E-6,888.000071049E-3,,,,,-504.800002091E-6,239.99999464E-3,
,,,-504.399999045E-6,888.000071049E-3,,,,,-504.399999045E-6,319.99999285E-3,
,,,-503.999995999E-6,896.000027657E-3,,,,,-503.999995999E-6,319.99999285E-3,
,,,-503.599992953E-6,888.000071049E-3,,,,,-503.599992953E-6,399.99997616E-3,
,,,-503.199989907E-6,888.000071049E-3,,,,,-503.199989907E-6,560.000002384E-3,
,,,-502.799986862E-6,880.000054836E-3,,,,,-502.799986862E-6,879.999995232E-3,
,,,-502.399983816E-6,888.000071049E-3,,,,,-502.399983816E-6,1.8399999,
,,,-501.999980770E-6,880.000054836E-3,,,,,-501.999980770E-6,4.48000002,
,,,-501.599977724E-6,888.000071049E-3,,,,,-501.599977724E-6,5.75999975,
,,,-501.199974678E-6,880.000054836E-3,,,,,-501.199974678E-6,1.1200000,
,,,-500.799971633E-6,872.000038624E-3,,,,,-500.799971633E-6,719.999969006E-3,
,,,-500.399968587E-6,872.000038624E-3,,,,,-500.399968587E-6,399.99997616E-3,
,,,-499.999965541E-6,872.000038624E-3,,,,,-499.999965541E-6,399.99997616E-3,
,,,-499.600020703E-6,856.000065804E-3,,,,,-499.600020703E-6,399.99997616E-3,
,,,-499.200017657E-6,872.000038624E-3,,,,,-499.200017657E-6,479.999989271E-3,
,,,-498.800014611E-6,864.000022411E-3,,,,,-498.800014611E-6,1.0400000,
,,,-498.400011566E-6,864.000022411E-3,,,,,-498.400011566E-6,1.6799999,
,,,-498.000008520E-6,856.000065804E-3,,,,,-498.000008520E-6,1.9200000,
,,,-497.600005474E-6,856.000065804E-3,,,,,-497.600005474E-6,1.7600000,
,,,-497.200002428E-6,864.000022411E-3,,,,,-497.200002428E-6,719.999969006E-3,
,,,-496.799999382E-6,864.000022411E-3,,,,,-496.799999382E-6,560.000002384E-3,
,,,-496.399996337E-6,856.000065804E-3,,,,,-496.399996337E-6,239.99999464E-3,
,,,-495.999993291E-6,848.000049591E-3,,,,,-495.999993291E-6,239.99999464E-3,
,,,-495.599990245E-6,856.000065804E-3,,,,,-495.599990245E-6,319.99999285E-3,
,,,-495.199987199E-6,848.000049591E-3,,,,,-495.199987199E-6,159.99999642E-3,
,,,-494.799984153E-6,848.000049591E-3,,,,,-494.799984153E-6,399.99997616E-3,
,,,-494.399981108E-6,840.000033379E-3,,,,,-494.399981108E-6,639.999985695E-3,
,,,-493.999978062E-6,848.000049591E-3,,,,,-493.999978062E-6,959.999978542E-3,
,,,-493.599975016E-6,840.000033379E-3,,,,,-493.599975016E-6,1.0400000,
,,,-493.199971970E-6,848.000049591E-3,,,,,-493.199971970E-6,719.999969006E-3,
,,,-492.799968924E-6,840.000033379E-3,,,,,-492.799968924E-6,319.99999285E-3,
,,,-492.399965879E-6,840.000033379E-3,,,,,-492.399965879E-6,239.99999464E-3,
,,,-492.000021040E-6,840.000033379E-3,,,,,-492.000021040E-6,239.99999464E-3,
,,,-491.600017995E-6,840.000033379E-3,,,,,-491.600017995E-6,159.99999642E-3,
,,,-491.200014949E-6,824.000060558E-3,,,,,-491.200014949E-6,79.999998212E-3,
,,,-490.800011903E-6,840.000033379E-3,,,,,-490.800011903E-6,239.99999464E-3,
,,,-490.400008857E-6,832.000017166E-3,,,,,-490.400008857E-6,159.99999642E-3,
,,,-490.000005811E-6,832.000017166E-3,,,,,-490.000005811E-6,479.999989271E-3,
,,,-489.600002766E-6,824.000060558E-3,,,,,-489.600002766E-6,560.000002384E-3,
,,,-489.199999720E-6,832.000017166E-3,,,,,-489.199999720E-6,639.999985695E-3,
,,,-488.799996674E-6,824.000060558E-3,,,,,-488.799996674E-6,479.999989271E-3,
,,,-488.399993628E-6,824.000060558E-3,,,,,-488.399993628E-6,399.99997616E-3,
,,,-487.999990582E-6,808.000028133E-3,,,,,-487.999990582E-6,239.99999464E-3,
,,,-487.599987537E-6,824.000060558E-3,,,,,-487.599987537E-6,79.999998212E-3,
,,,-487.199984491E-6,816.000044346E-3,,,,,-487.199984491E-6,159.99999642E-3,
,,,-486.799981445E-6,816.000044346E-3,,,,,-486.799981445E-6,79.999998212E-3,
,,,-486.400007503E-6,808.000028133E-3,,,,,-486.400007503E-6,79.999998212E-3,
,,,-486.000004457E-6,816.000044346E-3,,,,,-486.000004457E-6,79.999998212E-3,
,,,-485.600001412E-6,808.000028133E-3,,,,,-485.600001412E-6,79.999998212E-3,
,,,-485.199998366E-6,816.000044346E-3,,,,,-485.199998366E-6,239.99999464E-3,
,,,-484.799995320E-6,800.000011921E-3,,,,,-484.799995320E-6,319.99999285E-3,
,,,-484.399992274E-6,800.000011921E-3,,,,,-484.399992274E-6,399.99997616E-3,
,,,-483.999989228E-6,800.000011921E-3,,,,,-483.999989228E-6,399.99997616E-3,
,,,-483.599986183E-6,800.000011921E-3,,,,,-483.599986183E-6,319.99999285E-3,
,,,-483.199983137E-6,800.000011921E-3,,,,,-483.199983137E-6,239.99999464E-3,
,,,-482.799980091E-6,792.000055313E-3,,,,,-482.799980091E-6,159.99999642E-3,
,,,-482.400006149E-6,800.000011921E-3,,,,,-482.400006149E-6,159.99999642E-3,
,,,-482.000003103E-6,800.000011921E-3,,,,,-482.000003103E-6,159.99999642E-3,
,,,-481.600000057E-6,792.000055313E-3,,,,,-481.600000057E-6,79.999998212E-3,
,,,-481.199997012E-6,792.000055313E-3,,,,,-481.199997012E-6,79.999998212E-3,
,,,-480.799993966E-6,792.000055313E-3,,,,,-480.799993966E-6,79.999998212E-3,
,,,-480.399990920E-6,792.000055313E-3,,,,,-480.399990920E-6,0.0,
,,,-479.999987874E-6,792.000055313E-3,,,,,-479.999987874E-6,239.99999464E-3,
,,,-479.599984828E-6,776.000022888E-3,,,,,-479.599984828E-6,79.999998212E-3,
,,,-479.199981783E-6,792.000055313E-3,,,,,-479.199981783E-6,239.99999464E-3,
,,,-478.800007841E-6,784.000039101E-3,,,,,-478.800007841E-6,239.99999464E-3,
,,,-478.400004795E-6,784.000039101E-3,,,,,-478.400004795E-6,239.99999464E-3,
,,,-478.000001749E-6,768.000006676E-3,,,,,-478.000001749E-6,159.99999642E-3,
,,,-477.599998703E-6,776.000022888E-3,,,,,-477.599998703E-6,159.99999642E-3,
,,,-477.199995657E-6,768.000006676E-3,,,,,-477.199995657E-6,159.99999642E-3,
,,,-476.799992612E-6,776.000022888E-3,,,,,-476.799992612E-6,79.999998212E-3,
,,,-476.399989566E-6,776.000022888E-3,,,,,-476.399989566E-6,79.999998212E-3,
,,,-475.999986520E-6,768.000006676E-3,,,,,-475.999986520E-6,159.99999642E-3,
,,,-475.599983474E-6,768.000006676E-3,,,,,-475.599983474E-6,79.999998212E-3,
,,,-475.199980428E-6,776.000022888E-3,,,,,-475.199980428E-6,79.999998212E-3,
,,,-474.800006486E-6,760.000050068E-3,,,,,-474.800006486E-6,79.999998212E-3,
,,,-474.400003441E-6,760.000050068E-3,,,,,-474.400003441E-6,79.999998212E-3,
,,,-474.000000395E-6,760.000050068E-3,,,,,-474.000000395E-6,159.99999642E-3,
,,,-473.599997349E-6,768.000006676E-3,,,,,-473.599997349E-6,159.99999642E-3,
,,,-473.199994303E-6,752.000033855E-3,,,,,-473.199994303E-6,159.99999642E-3,
,,,-472.799991257E-6,760.000050068E-3,,,,,-472.799991257E-6,159.99999642E-3,
,,,-472.399988212E-6,752.000033855E-3,,,,,-472.399988212E-6,239.99999464E-3,
,,,-471.999985166E-6,760.000050068E-3,,,,,-471.999985166E-6,239.99999464E-3,
,,,-471.599982120E-6,760.000050068E-3,,,,,-471.599982120E-6,159.99999642E-3,
,,,-471.199979074E-6,752.000033855E-3,,,,,-471.199979074E-6,239.99999464E-3,
,,,-470.800005132E-6,744.000017643E-3,,,,,-470.800005132E-6,159.99999642E-3,
,,,-470.400002087E-6,752.000033855E-3,,,,,-470.400002087E-6,159.99999642E-3,
,,,-469.999999041E-6,752.000033855E-3,,,,,-469.999999041E-6,159.99999642E-3,
,,,-469.599995995E-6,736.000061035E-3,,,,,-469.599995995E-6,79.999998212E-3,
,,,-469.199992949E-6,752.000033855E-3,,,,,-469.199992949E-6,79.999998212E-3,
,,,-468.799989903E-6,744.000017643E-3,,,,,-468.799989903E-6,159.99999642E-3,
,,,-468.399986858E-6,744.000017643E-3,,,,,-468.399986858E-6,0.0,
,,,-467.999983812E-6,728.000044823E-3,,,,,-467.999983812E-6,79.999998212E-3,
,,,-467.599980766E-6,744.000017643E-3,,,,,-467.599980766E-6,79.999998212E-3,
,,,-467.200006824E-6,744.000017643E-3,,,,,-467.200006824E-6,79.999998212E-3,
,,,-466.800003778E-6,744.000017643E-3,,,,,-466.800003778E-6,159.99999642E-3,
,,,-466.400000732E-6,728.000044823E-3,,,,,-466.400000732E-6,79.999998212E-3,
,,,-465.999997687E-6,736.000061035E-3,,,,,-465.999997687E-6,79.999998212E-3,
,,,-465.599994641E-6,728.000044823E-3,,,,,-465.599994641E-6,159.99999642E-3,
,,,-465.199991595E-6,736.000061035E-3,,,,,-465.199991595E-6,159.99999642E-3,
,,,-464.799988549E-6,720.000028610E-3,,,,,-464.799988549E-6,239.99999464E-3,
,,,-464.399985503E-6,728.000044823E-3,,,,,-464.399985503E-6,159.99999642E-3,
,,,-463.999982458E-6,728.000044823E-3,,,,,-463.999982458E-6,159.99999642E-3,
,,,-463.599979412E-6,728.000044823E-3,,,,,-463.599979412E-6,159.99999642E-3,
,,,-463.200005470E-6,720.000028610E-3,,,,,-463.200005470E-6,159.99999642E-3,
,,,-462.800002424E-6,720.000028610E-3,,,,,-462.800002424E-6,79.999998212E-3,
,,,-462.399999378E-6,720.000028610E-3,,,,,-462.399999378E-6,79.999998212E-3,
,,,-461.999996332E-6,728.000044823E-3,,,,,-461.999996332E-6,79.999998212E-3,
,,,-461.599993287E-6,712.000012398E-3,,,,,-461.599993287E-6,79.999998212E-3,
,,,-461.199990241E-6,712.000012398E-3,,,,,-461.199990241E-6,0.0,
,,,-460.799987195E-6,712.000012398E-3,,,,,-460.799987195E-6,79.999998212E-3,
,,,-460.399984149E-6,712.000012398E-3,,,,,-460.399984149E-6,79.999998212E-3,
,,,-459.999981103E-6,696.000039577E-3,,,,,-459.999981103E-6,0.0,
,,,-459.600007161E-6,704.000055790E-3,,,,,-459.600007161E-6,79.999998212E-3,
,,,-459.200004116E-6,712.000012398E-3,,,,,-459.200004116E-6,0.0,
,,,-458.800001070E-6,696.000039577E-3,,,,,-458.800001070E-6,79.999998212E-3,
,,,-458.399998024E-6,696.000039577E-3,,,,,-458.399998024E-6,79.999998212E-3,
,,,-457.999994978E-6,704.000055790E-3,,,,,-457.999994978E-6,79.999998212E-3,
,,,-457.599991933E-6,696.000039577E-3,,,,,-457.599991933E-6,159.99999642E-3,
,,,-457.199988887E-6,696.000039577E-3,,,,,-457.199988887E-6,159.99999642E-3,
,,,-456.799985841E-6,688.000023365E-3,,,,,-456.799985841E-6,159.99999642E-3,
,,,-456.399982795E-6,688.000023365E-3,,,,,-456.399982795E-6,159.99999642E-3,
,,,-455.999979749E-6,696.000039577E-3,,,,,-455.999979749E-6,159.99999642E-3,
,,,-455.600005807E-6,696.000039577E-3,,,,,-455.600005807E-6,159.99999642E-3,
,,,-455.200002762E-6,688.000023365E-3,,,,,-455.200002762E-6,79.999998212E-3,
,,,-454.799999716E-6,672.000050545E-3,,,,,-454.799999716E-6,79.999998212E-3,
,,,-454.399996670E-6,680.000007153E-3,,,,,-454.399996670E-6,159.99999642E-3,
,,,-453.999993624E-6,688.000023365E-3,,,,,-453.999993624E-6,79.999998212E-3,
,,,-453.599990578E-6,680.000007153E-3,,,,,-453.599990578E-6,79.999998212E-3,
,,,-453.199987533E-6,672.000050545E-3,,,,,-453.199987533E-6,159.99999642E-3,
,,,-452.799984487E-6,680.000007153E-3,,,,,-452.799984487E-6,79.999998212E-3,
,,,-452.399981441E-6,672.000050545E-3,,,,,-452.399981441E-6,79.999998212E-3,
,,,-452.000007499E-6,680.000007153E-3,,,,,-452.000007499E-6,159.99999642E-3,
,,,-451.600004453E-6,664.000034332E-3,,,,,-451.600004453E-6,79.999998212E-3,
,,,-451.200001407E-6,680.000007153E-3,,,,,-451.200001407E-6,159.99999642E-3,
,,,-450.799998362E-6,664.000034332E-3,,,,,-450.799998362E-6,79.999998212E-3,
,,,-450.399995316E-6,664.000034332E-3,,,,,-450.399995316E-6,79.999998212E-3,
,,,-449.999992270E-6,656.000018120E-3,,,,,-449.999992270E-6,79.999998212E-3,
,,,-449.599989224E-6,672.000050545E-3,,,,,-449.599989224E-6,79.999998212E-3,
,,,-449.199986178E-6,664.000034332E-3,,,,,-449.199986178E-6,159.99999642E-3,
,,,-448.799983133E-6,664.000034332E-3,,,,,-448.799983133E-6,159.99999642E-3,
,,,-448.399980087E-6,656.000018120E-3,,,,,-448.399980087E-6,79.999998212E-3,
,,,-448.000006145E-6,656.000018120E-3,,,,,-448.000006145E-6,79.999998212E-3,
,,,-447.600003099E-6,648.000001907E-3,,,,,-447.600003099E-6,79.999998212E-3,
,,,-447.200000053E-6,648.000001907E-3,,,,,-447.200000053E-6,79.999998212E-3,
,,,-446.799997007E-6,648.000001907E-3,,,,,-446.799997007E-6,79.999998212E-3,
,,,-446.399993962E-6,648.000001907E-3,,,,,-446.399993962E-6,0.0,
,,,-445.999990916E-6,648.000001907E-3,,,,,-445.999990916E-6,0.0,
,,,-445.599987870E-6,648.000001907E-3,,,,,-445.599987870E-6,159.99999642E-3,
,,,-445.199984824E-6,648.000001907E-3,,,,,-445.199984824E-6,79.999998212E-3,
,,,-444.799981778E-6,640.000045300E-3,,,,,-444.799981778E-6,79.999998212E-3,
,,,-444.399978733E-6,640.000045300E-3,,,,,-444.399978733E-6,79.999998212E-3,
,,,-444.000004791E-6,648.000001907E-3,,,,,-444.000004791E-6,79.999998212E-3,
,,,-443.600001745E-6,640.000045300E-3,,,,,-443.600001745E-6,79.999998212E-3,
,,,-443.199998699E-6,632.000029087E-3,,,,,-443.199998699E-6,79.999998212E-3,
,,,-442.799995653E-6,632.000029087E-3,,,,,-442.799995653E-6,79.999998212E-3,
,,,-442.399992608E-6,632.000029087E-3,,,,,-442.399992608E-6,159.99999642E-3,
,,,-441.999989562E-6,632.000029087E-3,,,,,-441.999989562E-6,79.999998212E-3,
,,,-441.599986516E-6,632.000029087E-3,,,,,-441.599986516E-6,159.99999642E-3,
,,,-441.199983470E-6,632.000029087E-3,,,,,-441.199983470E-6,159.99999642E-3,
,,,-440.799980424E-6,632.000029087E-3,,,,,-440.799980424E-6,79.999998212E-3,
,,,-440.400006482E-6,632.000029087E-3,,,,,-440.400006482E-6,159.99999642E-3,
,,,-440.000003437E-6,616.000056267E-3,,,,,-440.000003437E-6,79.999998212E-3,
,,,-439.600000391E-6,624.000012875E-3,,,,,-439.600000391E-6,79.999998212E-3,
,,,-439.199997345E-6,616.000056267E-3,,,,,-439.199997345E-6,159.99999642E-3,
