Raw Data/20cm/2018-2-13-13.40-9.7+-0.2V-22.7Hz-OC20cm.csv

Record Length,2500,Points,-37.00000048E-3,672.000050545E-3,,Record Length,2500,Points,-37.00000048E-3,0.0,
Sample Interval,19.9999995E-6,s,-36.97999939E-3,672.000050545E-3,,Sample Interval,19.9999995E-6,s,-36.97999939E-3,-79.999998212E-3,
Trigger Point,1.8500002E3,Samples,-36.96000203E-3,680.000007153E-3,,Trigger Point,1.8500002E3,Samples,-36.96000203E-3,0.0,
,,,-36.94000095E-3,672.000050545E-3,,,,,-36.94000095E-3,0.0,
,,,-36.91999987E-3,680.000007153E-3,,,,,-36.91999987E-3,0.0,
,,,-36.89999878E-3,680.000007153E-3,,,,,-36.89999878E-3,0.0,
Source,CH1,,-36.88000143E-3,680.000007153E-3,,Source,CH2,,-36.88000143E-3,0.0,
Vertical Units,Volts,,-36.86000034E-3,680.000007153E-3,,Vertical Units,Volts,,-36.86000034E-3,79.999998212E-3,
Vertical Scale,200.00000950E-3,,-36.83999926E-3,680.000007153E-3,,Vertical Scale,2.0000000,,-36.83999926E-3,159.99999642E-3,
Vertical Offset,0,,-36.82000190E-3,688.000023365E-3,,Vertical Offset,0,,-36.82000190E-3,159.99999642E-3,
Horizontal Units,s,,-36.80000082E-3,688.000023365E-3,,Horizontal Units,s,,-36.80000082E-3,159.99999642E-3,
Horizontal Scale,4.99999987E-3,,-36.77999973E-3,688.000023365E-3,,Horizontal Scale,4.99999987E-3,,-36.77999973E-3,0.0,
Pt Fmt,Y,,-36.75999865E-3,688.000023365E-3,,Pt Fmt,Y,,-36.75999865E-3,0.0,
Yzero,-2.0000000,,-36.74000129E-3,688.000023365E-3,,Yzero,-1.6800000,,-36.74000129E-3,0.0,
Probe Atten,1.000000,,-36.72000021E-3,688.000023365E-3,,Probe Atten,1.000000,,-36.72000021E-3,0.0,
,,,-36.69999912E-3,688.000023365E-3,,,,,-36.69999912E-3,0.0,
Note,TDS 1002B - 1:39:58 PM   2/13/2018,,-36.68000177E-3,688.000023365E-3,,Note,TDS 1002B - 1:39:58 PM   2/13/2018,,-36.68000177E-3,0.0,
,,,-36.66000068E-3,688.000023365E-3,,,,,-36.66000068E-3,0.0,
,,,-36.63999960E-3,696.000039577E-3,,,,,-36.63999960E-3,0.0,
,,,-36.62000224E-3,696.000039577E-3,,,,,-36.62000224E-3,0.0,
,,,-36.60000116E-3,696.000039577E-3,,,,,-36.60000116E-3,0.0,
,,,-36.58000007E-3,696.000039577E-3,,,,,-36.58000007E-3,0.0,
,,,-36.55999899E-3,696.000039577E-3,,,,,-36.55999899E-3,0.0,
,,,-36.54000163E-3,696.000039577E-3,,,,,-36.54000163E-3,0.0,
,,,-36.52000055E-3,696.000039577E-3,,,,,-36.52000055E-3,0.0,
,,,-36.49999946E-3,696.000039577E-3,,,,,-36.49999946E-3,0.0,
,,,-36.48000211E-3,696.000039577E-3,,,,,-36.48000211E-3,0.0,
,,,-36.46000102E-3,704.000055790E-3,,,,,-36.46000102E-3,0.0,
,,,-36.43999994E-3,704.000055790E-3,,,,,-36.43999994E-3,0.0,
,,,-36.41999885E-3,704.000055790E-3,,,,,-36.41999885E-3,0.0,
,,,-36.40000150E-3,704.000055790E-3,,,,,-36.40000150E-3,0.0,
,,,-36.38000041E-3,704.000055790E-3,,,,,-36.38000041E-3,79.999998212E-3,
,,,-36.35999933E-3,704.000055790E-3,,,,,-36.35999933E-3,0.0,
,,,-36.34000197E-3,704.000055790E-3,,,,,-36.34000197E-3,0.0,
,,,-36.32000089E-3,704.000055790E-3,,,,,-36.32000089E-3,0.0,
,,,-36.29999980E-3,712.000012398E-3,,,,,-36.29999980E-3,0.0,
,,,-36.27999872E-3,712.000012398E-3,,,,,-36.27999872E-3,0.0,
,,,-36.26000136E-3,712.000012398E-3,,,,,-36.26000136E-3,0.0,
,,,-36.24000028E-3,712.000012398E-3,,,,,-36.24000028E-3,0.0,
,,,-36.21999919E-3,712.000012398E-3,,,,,-36.21999919E-3,0.0,
,,,-36.20000184E-3,720.000028610E-3,,,,,-36.20000184E-3,0.0,
,,,-36.18000075E-3,712.000012398E-3,,,,,-36.18000075E-3,0.0,
,,,-36.15999967E-3,712.000012398E-3,,,,,-36.15999967E-3,0.0,
,,,-36.14000231E-3,720.000028610E-3,,,,,-36.14000231E-3,0.0,
,,,-36.12000123E-3,720.000028610E-3,,,,,-36.12000123E-3,0.0,
,,,-36.10000014E-3,728.000044823E-3,,,,,-36.10000014E-3,0.0,
,,,-36.07999906E-3,720.000028610E-3,,,,,-36.07999906E-3,-79.999998212E-3,
,,,-36.06000170E-3,720.000028610E-3,,,,,-36.06000170E-3,0.0,
,,,-36.04000062E-3,728.000044823E-3,,,,,-36.04000062E-3,0.0,
,,,-36.01999953E-3,720.000028610E-3,,,,,-36.01999953E-3,0.0,
,,,-36.00000218E-3,728.000044823E-3,,,,,-36.00000218E-3,0.0,
,,,-35.98000109E-3,728.000044823E-3,,,,,-35.98000109E-3,0.0,
,,,-35.96000001E-3,728.000044823E-3,,,,,-35.96000001E-3,0.0,
,,,-35.93999892E-3,728.000044823E-3,,,,,-35.93999892E-3,0.0,
,,,-35.92000157E-3,728.000044823E-3,,,,,-35.92000157E-3,0.0,
,,,-35.90000048E-3,736.000061035E-3,,,,,-35.90000048E-3,0.0,
,,,-35.87999940E-3,728.000044823E-3,,,,,-35.87999940E-3,0.0,
,,,-35.86000204E-3,728.000044823E-3,,,,,-35.86000204E-3,0.0,
,,,-35.84000096E-3,736.000061035E-3,,,,,-35.84000096E-3,0.0,
,,,-35.81999987E-3,736.000061035E-3,,,,,-35.81999987E-3,79.999998212E-3,
,,,-35.79999879E-3,736.000061035E-3,,,,,-35.79999879E-3,79.999998212E-3,
,,,-35.78000143E-3,736.000061035E-3,,,,,-35.78000143E-3,79.999998212E-3,
,,,-35.76000035E-3,736.000061035E-3,,,,,-35.76000035E-3,0.0,
,,,-35.73999926E-3,736.000061035E-3,,,,,-35.73999926E-3,0.0,
,,,-35.72000191E-3,744.000017643E-3,,,,,-35.72000191E-3,79.999998212E-3,
,,,-35.70000082E-3,744.000017643E-3,,,,,-35.70000082E-3,79.999998212E-3,
,,,-35.67999974E-3,744.000017643E-3,,,,,-35.67999974E-3,79.999998212E-3,
,,,-35.65999866E-3,744.000017643E-3,,,,,-35.65999866E-3,79.999998212E-3,
,,,-35.64000130E-3,744.000017643E-3,,,,,-35.64000130E-3,159.99999642E-3,
,,,-35.62000021E-3,744.000017643E-3,,,,,-35.62000021E-3,239.99999464E-3,
,,,-35.59999913E-3,744.000017643E-3,,,,,-35.59999913E-3,479.999989271E-3,
,,,-35.58000177E-3,752.000033855E-3,,,,,-35.58000177E-3,1.2800000,
,,,-35.56000069E-3,752.000033855E-3,,,,,-35.56000069E-3,4.00000000,
,,,-35.53999960E-3,752.000033855E-3,,,,,-35.53999960E-3,319.99999285E-3,
,,,-35.52000225E-3,752.000033855E-3,,,,,-35.52000225E-3,0.0,
,,,-35.50000116E-3,752.000033855E-3,,,,,-35.50000116E-3,79.999998212E-3,
,,,-35.48000008E-3,752.000033855E-3,,,,,-35.48000008E-3,319.99999285E-3,
,,,-35.45999900E-3,760.000050068E-3,,,,,-35.45999900E-3,319.99999285E-3,
,,,-35.44000164E-3,760.000050068E-3,,,,,-35.44000164E-3,159.99999642E-3,
,,,-35.42000055E-3,760.000050068E-3,,,,,-35.42000055E-3,159.99999642E-3,
,,,-35.39999947E-3,760.000050068E-3,,,,,-35.39999947E-3,79.999998212E-3,
,,,-35.38000211E-3,760.000050068E-3,,,,,-35.38000211E-3,79.999998212E-3,
,,,-35.36000103E-3,760.000050068E-3,,,,,-35.36000103E-3,79.999998212E-3,
,,,-35.33999994E-3,760.000050068E-3,,,,,-35.33999994E-3,79.999998212E-3,
,,,-35.31999886E-3,760.000050068E-3,,,,,-35.31999886E-3,79.999998212E-3,
,,,-35.30000150E-3,760.000050068E-3,,,,,-35.30000150E-3,79.999998212E-3,
,,,-35.28000042E-3,760.000050068E-3,,,,,-35.28000042E-3,159.99999642E-3,
,,,-35.25999933E-3,760.000050068E-3,,,,,-35.25999933E-3,479.999989271E-3,
,,,-35.24000198E-3,760.000050068E-3,,,,,-35.24000198E-3,1.1999999,
,,,-35.22000089E-3,768.000006676E-3,,,,,-35.22000089E-3,719.999969006E-3,
,,,-35.19999981E-3,768.000006676E-3,,,,,-35.19999981E-3,319.99999285E-3,
,,,-35.17999873E-3,768.000006676E-3,,,,,-35.17999873E-3,159.99999642E-3,
,,,-35.16000137E-3,768.000006676E-3,,,,,-35.16000137E-3,79.999998212E-3,
,,,-35.14000028E-3,768.000006676E-3,,,,,-35.14000028E-3,0.0,
,,,-35.11999920E-3,768.000006676E-3,,,,,-35.11999920E-3,0.0,
,,,-35.10000184E-3,768.000006676E-3,,,,,-35.10000184E-3,0.0,
,,,-35.08000076E-3,768.000006676E-3,,,,,-35.08000076E-3,0.0,
,,,-35.05999967E-3,768.000006676E-3,,,,,-35.05999967E-3,79.999998212E-3,
,,,-35.04000232E-3,776.000022888E-3,,,,,-35.04000232E-3,0.0,
,,,-35.02000123E-3,776.000022888E-3,,,,,-35.02000123E-3,0.0,
,,,-35.00000015E-3,776.000022888E-3,,,,,-35.00000015E-3,0.0,
,,,-34.97999907E-3,776.000022888E-3,,,,,-34.97999907E-3,0.0,
,,,-34.96000171E-3,776.000022888E-3,,,,,-34.96000171E-3,0.0,
,,,-34.94000062E-3,776.000022888E-3,,,,,-34.94000062E-3,79.999998212E-3,
,,,-34.91999954E-3,784.000039101E-3,,,,,-34.91999954E-3,319.99999285E-3,
,,,-34.90000218E-3,784.000039101E-3,,,,,-34.90000218E-3,319.99999285E-3,
,,,-34.88000110E-3,776.000022888E-3,,,,,-34.88000110E-3,319.99999285E-3,
,,,-34.86000001E-3,776.000022888E-3,,,,,-34.86000001E-3,159.99999642E-3,
,,,-34.83999893E-3,784.000039101E-3,,,,,-34.83999893E-3,0.0,
,,,-34.82000157E-3,784.000039101E-3,,,,,-34.82000157E-3,0.0,
,,,-34.80000049E-3,784.000039101E-3,,,,,-34.80000049E-3,0.0,
,,,-34.77999941E-3,792.000055313E-3,,,,,-34.77999941E-3,0.0,
,,,-34.76000205E-3,792.000055313E-3,,,,,-34.76000205E-3,0.0,
,,,-34.74000096E-3,792.000055313E-3,,,,,-34.74000096E-3,0.0,
,,,-34.71999988E-3,792.000055313E-3,,,,,-34.71999988E-3,0.0,
,,,-34.69999880E-3,792.000055313E-3,,,,,-34.69999880E-3,0.0,
,,,-34.68000144E-3,792.000055313E-3,,,,,-34.68000144E-3,0.0,
,,,-34.66000035E-3,792.000055313E-3,,,,,-34.66000035E-3,0.0,
,,,-34.63999927E-3,792.000055313E-3,,,,,-34.63999927E-3,0.0,
,,,-34.62000191E-3,800.000011921E-3,,,,,-34.62000191E-3,-79.999998212E-3,
,,,-34.60000083E-3,800.000011921E-3,,,,,-34.60000083E-3,79.999998212E-3,
,,,-34.57999974E-3,800.000011921E-3,,,,,-34.57999974E-3,159.99999642E-3,
,,,-34.56000239E-3,792.000055313E-3,,,,,-34.56000239E-3,159.99999642E-3,
,,,-34.54000130E-3,792.000055313E-3,,,,,-34.54000130E-3,159.99999642E-3,
,,,-34.52000022E-3,800.000011921E-3,,,,,-34.52000022E-3,79.999998212E-3,
,,,-34.49999914E-3,800.000011921E-3,,,,,-34.49999914E-3,79.999998212E-3,
,,,-34.48000178E-3,800.000011921E-3,,,,,-34.48000178E-3,0.0,
,,,-34.46000069E-3,808.000028133E-3,,,,,-34.46000069E-3,0.0,
,,,-34.43999961E-3,808.000028133E-3,,,,,-34.43999961E-3,0.0,
,,,-34.42000225E-3,808.000028133E-3,,,,,-34.42000225E-3,0.0,
,,,-34.40000117E-3,808.000028133E-3,,,,,-34.40000117E-3,0.0,
,,,-34.38000008E-3,808.000028133E-3,,,,,-34.38000008E-3,0.0,
,,,-34.35999900E-3,808.000028133E-3,,,,,-34.35999900E-3,0.0,
,,,-34.34000164E-3,808.000028133E-3,,,,,-34.34000164E-3,0.0,
,,,-34.32000056E-3,808.000028133E-3,,,,,-34.32000056E-3,0.0,
,,,-34.29999948E-3,808.000028133E-3,,,,,-34.29999948E-3,0.0,
,,,-34.28000212E-3,816.000044346E-3,,,,,-34.28000212E-3,0.0,
,,,-34.26000103E-3,816.000044346E-3,,,,,-34.26000103E-3,0.0,
,,,-34.23999995E-3,816.000044346E-3,,,,,-34.23999995E-3,0.0,
,,,-34.21999887E-3,816.000044346E-3,,,,,-34.21999887E-3,0.0,
,,,-34.20000151E-3,816.000044346E-3,,,,,-34.20000151E-3,0.0,
,,,-34.18000042E-3,824.000060558E-3,,,,,-34.18000042E-3,79.999998212E-3,
,,,-34.15999934E-3,816.000044346E-3,,,,,-34.15999934E-3,0.0,
,,,-34.14000198E-3,824.000060558E-3,,,,,-34.14000198E-3,0.0,
,,,-34.12000090E-3,824.000060558E-3,,,,,-34.12000090E-3,0.0,
,,,-34.09999982E-3,824.000060558E-3,,,,,-34.09999982E-3,0.0,
,,,-34.07999873E-3,824.000060558E-3,,,,,-34.07999873E-3,0.0,
,,,-34.06000137E-3,824.000060558E-3,,,,,-34.06000137E-3,0.0,
,,,-34.04000029E-3,824.000060558E-3,,,,,-34.04000029E-3,0.0,
,,,-34.01999921E-3,824.000060558E-3,,,,,-34.01999921E-3,0.0,
,,,-34.00000185E-3,832.000017166E-3,,,,,-34.00000185E-3,-79.999998212E-3,
,,,-33.98000076E-3,832.000017166E-3,,,,,-33.98000076E-3,0.0,
,,,-33.95999968E-3,832.000017166E-3,,,,,-33.95999968E-3,0.0,
,,,-33.94000232E-3,832.000017166E-3,,,,,-33.94000232E-3,0.0,
,,,-33.92000124E-3,832.000017166E-3,,,,,-33.92000124E-3,0.0,
,,,-33.90000015E-3,832.000017166E-3,,,,,-33.90000015E-3,0.0,
,,,-33.87999907E-3,832.000017166E-3,,,,,-33.87999907E-3,0.0,
,,,-33.86000171E-3,832.000017166E-3,,,,,-33.86000171E-3,0.0,
,,,-33.84000063E-3,832.000017166E-3,,,,,-33.84000063E-3,0.0,
,,,-33.81999955E-3,840.000033379E-3,,,,,-33.81999955E-3,0.0,
,,,-33.80000219E-3,840.000033379E-3,,,,,-33.80000219E-3,0.0,
,,,-33.78000110E-3,840.000033379E-3,,,,,-33.78000110E-3,0.0,
,,,-33.76000002E-3,840.000033379E-3,,,,,-33.76000002E-3,0.0,
,,,-33.73999894E-3,840.000033379E-3,,,,,-33.73999894E-3,0.0,
,,,-33.72000158E-3,840.000033379E-3,,,,,-33.72000158E-3,0.0,
,,,-33.70000049E-3,840.000033379E-3,,,,,-33.70000049E-3,0.0,
,,,-33.67999941E-3,840.000033379E-3,,,,,-33.67999941E-3,0.0,
,,,-33.66000205E-3,848.000049591E-3,,,,,-33.66000205E-3,0.0,
,,,-33.64000097E-3,848.000049591E-3,,,,,-33.64000097E-3,0.0,
,,,-33.61999989E-3,848.000049591E-3,,,,,-33.61999989E-3,0.0,
,,,-33.59999880E-3,848.000049591E-3,,,,,-33.59999880E-3,0.0,
,,,-33.58000144E-3,848.000049591E-3,,,,,-33.58000144E-3,0.0,
,,,-33.56000036E-3,848.000049591E-3,,,,,-33.56000036E-3,0.0,
,,,-33.53999928E-3,856.000065804E-3,,,,,-33.53999928E-3,0.0,
,,,-33.52000192E-3,856.000065804E-3,,,,,-33.52000192E-3,0.0,
,,,-33.50000083E-3,856.000065804E-3,,,,,-33.50000083E-3,0.0,
,,,-33.47999975E-3,856.000065804E-3,,,,,-33.47999975E-3,79.999998212E-3,
,,,-33.46000239E-3,856.000065804E-3,,,,,-33.46000239E-3,79.999998212E-3,
,,,-33.44000131E-3,856.000065804E-3,,,,,-33.44000131E-3,159.99999642E-3,
,,,-33.42000023E-3,856.000065804E-3,,,,,-33.42000023E-3,159.99999642E-3,
,,,-33.39999914E-3,856.000065804E-3,,,,,-33.39999914E-3,239.99999464E-3,
,,,-33.38000178E-3,856.000065804E-3,,,,,-33.38000178E-3,479.999989271E-3,
,,,-33.36000070E-3,864.000022411E-3,,,,,-33.36000070E-3,1.4399999,
,,,-33.33999962E-3,856.000065804E-3,,,,,-33.33999962E-3,2.5599999,
,,,-33.32000226E-3,864.000022411E-3,,,,,-33.32000226E-3,5.35999966,
,,,-33.30000117E-3,864.000022411E-3,,,,,-33.30000117E-3,399.99997616E-3,
,,,-33.28000009E-3,864.000022411E-3,,,,,-33.28000009E-3,1.0400000,
,,,-33.25999901E-3,864.000022411E-3,,,,,-33.25999901E-3,479.999989271E-3,
,,,-33.24000165E-3,864.000022411E-3,,,,,-33.24000165E-3,319.99999285E-3,
,,,-33.22000057E-3,864.000022411E-3,,,,,-33.22000057E-3,159.99999642E-3,
,,,-33.19999948E-3,864.000022411E-3,,,,,-33.19999948E-3,159.99999642E-3,
,,,-33.18000212E-3,872.000038624E-3,,,,,-33.18000212E-3,159.99999642E-3,
,,,-33.16000104E-3,872.000038624E-3,,,,,-33.16000104E-3,79.999998212E-3,
,,,-33.13999996E-3,872.000038624E-3,,,,,-33.13999996E-3,79.999998212E-3,
,,,-33.11999887E-3,872.000038624E-3,,,,,-33.11999887E-3,79.999998212E-3,
,,,-33.10000151E-3,872.000038624E-3,,,,,-33.10000151E-3,79.999998212E-3,
,,,-33.08000043E-3,872.000038624E-3,,,,,-33.08000043E-3,79.999998212E-3,
,,,-33.05999935E-3,872.000038624E-3,,,,,-33.05999935E-3,0.0,
,,,-33.04000199E-3,872.000038624E-3,,,,,-33.04000199E-3,0.0,
,,,-33.02000090E-3,880.000054836E-3,,,,,-33.02000090E-3,79.999998212E-3,
,,,-32.99999982E-3,880.000054836E-3,,,,,-32.99999982E-3,79.999998212E-3,
,,,-32.97999874E-3,880.000054836E-3,,,,,-32.97999874E-3,239.99999464E-3,
,,,-32.96000138E-3,880.000054836E-3,,,,,-32.96000138E-3,959.999978542E-3,
,,,-32.94000030E-3,880.000054836E-3,,,,,-32.94000030E-3,1.1999999,
,,,-32.91999921E-3,880.000054836E-3,,,,,-32.91999921E-3,879.999995232E-3,
,,,-32.90000185E-3,888.000071049E-3,,,,,-32.90000185E-3,319.99999285E-3,
,,,-32.88000077E-3,888.000071049E-3,,,,,-32.88000077E-3,159.99999642E-3,
,,,-32.85999969E-3,888.000071049E-3,,,,,-32.85999969E-3,79.999998212E-3,
,,,-32.84000233E-3,888.000071049E-3,,,,,-32.84000233E-3,0.0,
,,,-32.82000124E-3,888.000071049E-3,,,,,-32.82000124E-3,79.999998212E-3,
,,,-32.80000016E-3,888.000071049E-3,,,,,-32.80000016E-3,79.999998212E-3,
,,,-32.77999908E-3,888.000071049E-3,,,,,-32.77999908E-3,0.0,
,,,-32.76000172E-3,888.000071049E-3,,,,,-32.76000172E-3,0.0,
,,,-32.74000064E-3,888.000071049E-3,,,,,-32.74000064E-3,0.0,
,,,-32.71999955E-3,888.000071049E-3,,,,,-32.71999955E-3,0.0,
,,,-32.70000219E-3,888.000071049E-3,,,,,-32.70000219E-3,0.0,
,,,-32.68000111E-3,888.000071049E-3,,,,,-32.68000111E-3,79.999998212E-3,
,,,-32.66000003E-3,888.000071049E-3,,,,,-32.66000003E-3,79.999998212E-3,
,,,-32.63999894E-3,896.000027657E-3,,,,,-32.63999894E-3,239.99999464E-3,
,,,-32.62000158E-3,896.000027657E-3,,,,,-32.62000158E-3,479.999989271E-3,
,,,-32.60000050E-3,896.000027657E-3,,,,,-32.60000050E-3,560.000002384E-3,
,,,-32.57999942E-3,896.000027657E-3,,,,,-32.57999942E-3,399.99997616E-3,
,,,-32.56000206E-3,896.000027657E-3,,,,,-32.56000206E-3,159.99999642E-3,
,,,-32.54000098E-3,896.000027657E-3,,,,,-32.54000098E-3,79.999998212E-3,
,,,-32.51999989E-3,904.000043869E-3,,,,,-32.51999989E-3,79.999998212E-3,
,,,-32.49999881E-3,904.000043869E-3,,,,,-32.49999881E-3,0.0,
,,,-32.48000145E-3,904.000043869E-3,,,,,-32.48000145E-3,0.0,
,,,-32.46000037E-3,904.000043869E-3,,,,,-32.46000037E-3,0.0,
,,,-32.43999928E-3,904.000043869E-3,,,,,-32.43999928E-3,0.0,
,,,-32.42000192E-3,904.000043869E-3,,,,,-32.42000192E-3,0.0,
,,,-32.40000084E-3,904.000043869E-3,,,,,-32.40000084E-3,0.0,
,,,-32.37999976E-3,904.000043869E-3,,,,,-32.37999976E-3,0.0,
,,,-32.36000240E-3,912.000060081E-3,,,,,-32.36000240E-3,0.0,
,,,-32.34000131E-3,912.000060081E-3,,,,,-32.34000131E-3,0.0,
,,,-32.32000023E-3,904.000043869E-3,,,,,-32.32000023E-3,0.0,
,,,-32.29999915E-3,904.000043869E-3,,,,,-32.29999915E-3,0.0,
,,,-32.28000179E-3,904.000043869E-3,,,,,-32.28000179E-3,0.0,
,,,-32.26000071E-3,904.000043869E-3,,,,,-32.26000071E-3,0.0,
,,,-32.23999962E-3,904.000043869E-3,,,,,-32.23999962E-3,0.0,
,,,-32.22000226E-3,904.000043869E-3,,,,,-32.22000226E-3,0.0,
,,,-32.20000118E-3,896.000027657E-3,,,,,-32.20000118E-3,0.0,
,,,-32.18000010E-3,896.000027657E-3,,,,,-32.18000010E-3,0.0,
,,,-32.15999901E-3,896.000027657E-3,,,,,-32.15999901E-3,0.0,
,,,-32.14000165E-3,896.000027657E-3,,,,,-32.14000165E-3,0.0,
,,,-32.12000057E-3,896.000027657E-3,,,,,-32.12000057E-3,-79.999998212E-3,
,,,-32.09999949E-3,904.000043869E-3,,,,,-32.09999949E-3,0.0,
,,,-32.08000213E-3,896.000027657E-3,,,,,-32.08000213E-3,0.0,
,,,-32.06000105E-3,896.000027657E-3,,,,,-32.06000105E-3,0.0,
,,,-32.03999996E-3,896.000027657E-3,,,,,-32.03999996E-3,0.0,
,,,-32.01999888E-3,896.000027657E-3,,,,,-32.01999888E-3,0.0,
,,,-32.00000152E-3,888.000071049E-3,,,,,-32.00000152E-3,0.0,
,,,-31.98000044E-3,888.000071049E-3,,,,,-31.98000044E-3,0.0,
,,,-31.95999935E-3,888.000071049E-3,,,,,-31.95999935E-3,-79.999998212E-3,
,,,-31.94000199E-3,888.000071049E-3,,,,,-31.94000199E-3,0.0,
,,,-31.92000091E-3,888.000071049E-3,,,,,-31.92000091E-3,0.0,
,,,-31.89999983E-3,888.000071049E-3,,,,,-31.89999983E-3,0.0,
,,,-31.87999874E-3,888.000071049E-3,,,,,-31.87999874E-3,79.999998212E-3,
,,,-31.86000139E-3,888.000071049E-3,,,,,-31.86000139E-3,79.999998212E-3,
,,,-31.84000030E-3,888.000071049E-3,,,,,-31.84000030E-3,79.999998212E-3,
,,,-31.81999922E-3,888.000071049E-3,,,,,-31.81999922E-3,159.99999642E-3,
,,,-31.80000186E-3,888.000071049E-3,,,,,-31.80000186E-3,319.99999285E-3,
,,,-31.78000078E-3,880.000054836E-3,,,,,-31.78000078E-3,319.99999285E-3,
,,,-31.75999969E-3,888.000071049E-3,,,,,-31.75999969E-3,239.99999464E-3,
,,,-31.74000233E-3,880.000054836E-3,,,,,-31.74000233E-3,239.99999464E-3,
,,,-31.72000125E-3,880.000054836E-3,,,,,-31.72000125E-3,159.99999642E-3,
,,,-31.70000017E-3,880.000054836E-3,,,,,-31.70000017E-3,79.999998212E-3,
,,,-31.67999908E-3,872.000038624E-3,,,,,-31.67999908E-3,0.0,
,,,-31.66000172E-3,880.000054836E-3,,,,,-31.66000172E-3,0.0,
,,,-31.64000064E-3,872.000038624E-3,,,,,-31.64000064E-3,79.999998212E-3,
,,,-31.61999956E-3,872.000038624E-3,,,,,-31.61999956E-3,79.999998212E-3,
,,,-31.60000220E-3,872.000038624E-3,,,,,-31.60000220E-3,0.0,
,,,-31.58000112E-3,872.000038624E-3,,,,,-31.58000112E-3,0.0,
,,,-31.56000003E-3,872.000038624E-3,,,,,-31.56000003E-3,0.0,
,,,-31.53999895E-3,864.000022411E-3,,,,,-31.53999895E-3,0.0,
,,,-31.52000159E-3,864.000022411E-3,,,,,-31.52000159E-3,0.0,
,,,-31.50000051E-3,872.000038624E-3,,,,,-31.50000051E-3,0.0,
,,,-31.47999942E-3,864.000022411E-3,,,,,-31.47999942E-3,0.0,
,,,-31.46000206E-3,864.000022411E-3,,,,,-31.46000206E-3,0.0,
,,,-31.44000098E-3,864.000022411E-3,,,,,-31.44000098E-3,79.999998212E-3,
,,,-31.41999990E-3,864.000022411E-3,,,,,-31.41999990E-3,79.999998212E-3,
,,,-31.39999881E-3,864.000022411E-3,,,,,-31.39999881E-3,79.999998212E-3,
,,,-31.38000146E-3,864.000022411E-3,,,,,-31.38000146E-3,239.99999464E-3,
,,,-31.36000037E-3,864.000022411E-3,,,,,-31.36000037E-3,399.99997616E-3,
,,,-31.33999929E-3,864.000022411E-3,,,,,-31.33999929E-3,959.999978542E-3,
,,,-31.32000193E-3,864.000022411E-3,,,,,-31.32000193E-3,1.5999999,
,,,-31.30000085E-3,856.000065804E-3,,,,,-31.30000085E-3,959.999978542E-3,
,,,-31.27999976E-3,856.000065804E-3,,,,,-31.27999976E-3,399.99997616E-3,
,,,-31.26000240E-3,856.000065804E-3,,,,,-31.26000240E-3,239.99999464E-3,
,,,-31.24000132E-3,856.000065804E-3,,,,,-31.24000132E-3,159.99999642E-3,
,,,-31.22000024E-3,856.000065804E-3,,,,,-31.22000024E-3,159.99999642E-3,
,,,-31.20000102E-3,848.000049591E-3,,,,,-31.20000102E-3,79.999998212E-3,
,,,-31.17999993E-3,848.000049591E-3,,,,,-31.17999993E-3,79.999998212E-3,
,,,-31.16000071E-3,848.000049591E-3,,,,,-31.16000071E-3,79.999998212E-3,
,,,-31.14000149E-3,848.000049591E-3,,,,,-31.14000149E-3,79.999998212E-3,
