Data Finesse Measurement Files/2018-2-27-12.26-73.4Hz-50.6V-OC29.5cmZoomedIn.csv

Record Length,2500,Points,-2.5400002E-3,4.83999968,,Record Length,2500,Points,-2.5400002E-3,39.99999911E-3,
Sample Interval,2.0000000E-6,s,-2.5380002E-3,4.83999968,,Sample Interval,2.0000000E-6,s,-2.5380002E-3,39.99999911E-3,
Trigger Point,1.2700002E3,Samples,-2.5360002E-3,4.83999968,,Trigger Point,1.2700002E3,Samples,-2.5360002E-3,39.99999911E-3,
,,,-2.5340002E-3,4.83999968,,,,,-2.5340002E-3,39.99999911E-3,
,,,-2.5320002E-3,4.83999968,,,,,-2.5320002E-3,79.999998212E-3,
,,,-2.5300002E-3,4.83999968,,,,,-2.5300002E-3,79.999998212E-3,
Source,CH1,,-2.5280002E-3,4.83999968,,Source,CH2,,-2.5280002E-3,39.99999911E-3,
Vertical Units,Volts,,-2.5260001E-3,4.83999968,,Vertical Units,Volts,,-2.5260001E-3,39.99999911E-3,
Vertical Scale,1.000000,,-2.5240004E-3,4.83999968,,Vertical Scale,1.000000,,-2.5240004E-3,39.99999911E-3,
Vertical Offset,0,,-2.5220003E-3,4.83999968,,Vertical Offset,0,,-2.5220003E-3,0.0,
Horizontal Units,s,,-2.5200003E-3,4.83999968,,Horizontal Units,s,,-2.5200003E-3,0.0,
Horizontal Scale,499.999998738E-6,,-2.5180003E-3,4.83999968,,Horizontal Scale,499.999998738E-6,,-2.5180003E-3,0.0,
Pt Fmt,Y,,-2.5160003E-3,4.83999968,,Pt Fmt,Y,,-2.5160003E-3,0.0,
Yzero,-4.32000000,,-2.5140003E-3,4.83999968,,Yzero,-1.2400000,,-2.5140003E-3,39.99999911E-3,
Probe Atten,1.000000,,-2.5120003E-3,4.83999968,,Probe Atten,1.000000,,-2.5120003E-3,39.99999911E-3,
,,,-2.5100003E-3,4.83999968,,,,,-2.5100003E-3,39.99999911E-3,
Note,TDS 1002B - 12:26:49 PM   2/27/2018,,-2.5080002E-3,4.83999968,,Note,TDS 1002B - 12:26:49 PM   2/27/2018,,-2.5080002E-3,39.99999911E-3,
,,,-2.5060002E-3,4.88000011,,,,,-2.5060002E-3,39.99999911E-3,
,,,-2.5040002E-3,4.83999968,,,,,-2.5040002E-3,79.999998212E-3,
,,,-2.5020002E-3,4.83999968,,,,,-2.5020002E-3,79.999998212E-3,
,,,-2.5000002E-3,4.83999968,,,,,-2.5000002E-3,119.9999973E-3,
,,,-2.4980002E-3,4.83999968,,,,,-2.4980002E-3,79.999998212E-3,
,,,-2.4960001E-3,4.88000011,,,,,-2.4960001E-3,39.99999911E-3,
,,,-2.4940004E-3,4.83999968,,,,,-2.4940004E-3,39.99999911E-3,
,,,-2.4920003E-3,4.83999968,,,,,-2.4920003E-3,39.99999911E-3,
,,,-2.4900003E-3,4.83999968,,,,,-2.4900003E-3,39.99999911E-3,
,,,-2.4880003E-3,4.83999968,,,,,-2.4880003E-3,39.99999911E-3,
,,,-2.4860003E-3,4.88000011,,,,,-2.4860003E-3,39.99999911E-3,
,,,-2.4840003E-3,4.83999968,,,,,-2.4840003E-3,39.99999911E-3,
,,,-2.4820003E-3,4.83999968,,,,,-2.4820003E-3,39.99999911E-3,
,,,-2.4800003E-3,4.83999968,,,,,-2.4800003E-3,39.99999911E-3,
,,,-2.4780002E-3,4.88000011,,,,,-2.4780002E-3,39.99999911E-3,
,,,-2.4760002E-3,4.88000011,,,,,-2.4760002E-3,39.99999911E-3,
,,,-2.4740002E-3,4.83999968,,,,,-2.4740002E-3,79.999998212E-3,
,,,-2.4720002E-3,4.88000011,,,,,-2.4720002E-3,79.999998212E-3,
,,,-2.4700002E-3,4.83999968,,,,,-2.4700002E-3,119.9999973E-3,
,,,-2.4680002E-3,4.88000011,,,,,-2.4680002E-3,199.99998808E-3,
,,,-2.4660002E-3,4.83999968,,,,,-2.4660002E-3,280.00000119E-3,
,,,-2.4640001E-3,4.83999968,,,,,-2.4640001E-3,439.999997616E-3,
,,,-2.4620004E-3,4.88000011,,,,,-2.4620004E-3,680.000007153E-3,
,,,-2.4600003E-3,4.83999968,,,,,-2.4600003E-3,959.999978542E-3,
,,,-2.4580003E-3,4.88000011,,,,,-2.4580003E-3,1.0799999,
,,,-2.4560003E-3,4.88000011,,,,,-2.4560003E-3,759.999990463E-3,
,,,-2.4540003E-3,4.83999968,,,,,-2.4540003E-3,479.999989271E-3,
,,,-2.4520003E-3,4.83999968,,,,,-2.4520003E-3,319.99999285E-3,
,,,-2.4500003E-3,4.88000011,,,,,-2.4500003E-3,239.99999464E-3,
,,,-2.4480002E-3,4.88000011,,,,,-2.4480002E-3,159.99999642E-3,
,,,-2.4460002E-3,4.83999968,,,,,-2.4460002E-3,119.9999973E-3,
,,,-2.4440002E-3,4.88000011,,,,,-2.4440002E-3,79.999998212E-3,
,,,-2.4420002E-3,4.88000011,,,,,-2.4420002E-3,79.999998212E-3,
,,,-2.4400002E-3,4.83999968,,,,,-2.4400002E-3,39.99999911E-3,
,,,-2.4380002E-3,4.88000011,,,,,-2.4380002E-3,39.99999911E-3,
,,,-2.4360002E-3,4.88000011,,,,,-2.4360002E-3,39.99999911E-3,
,,,-2.4340001E-3,4.88000011,,,,,-2.4340001E-3,39.99999911E-3,
,,,-2.4320004E-3,4.88000011,,,,,-2.4320004E-3,39.99999911E-3,
,,,-2.4300003E-3,4.88000011,,,,,-2.4300003E-3,39.99999911E-3,
,,,-2.4280003E-3,4.83999968,,,,,-2.4280003E-3,39.99999911E-3,
,,,-2.4260003E-3,4.88000011,,,,,-2.4260003E-3,0.0,
,,,-2.4240003E-3,4.88000011,,,,,-2.4240003E-3,39.99999911E-3,
,,,-2.4220003E-3,4.88000011,,,,,-2.4220003E-3,0.0,
,,,-2.4200003E-3,4.83999968,,,,,-2.4200003E-3,39.99999911E-3,
,,,-2.4180003E-3,4.88000011,,,,,-2.4180003E-3,0.0,
,,,-2.4160002E-3,4.88000011,,,,,-2.4160002E-3,39.99999911E-3,
,,,-2.4140002E-3,4.88000011,,,,,-2.4140002E-3,39.99999911E-3,
,,,-2.4120002E-3,4.88000011,,,,,-2.4120002E-3,39.99999911E-3,
,,,-2.4100002E-3,4.88000011,,,,,-2.4100002E-3,39.99999911E-3,
,,,-2.4080002E-3,4.88000011,,,,,-2.4080002E-3,39.99999911E-3,
,,,-2.4060002E-3,4.88000011,,,,,-2.4060002E-3,39.99999911E-3,
,,,-2.4040001E-3,4.88000011,,,,,-2.4040001E-3,39.99999911E-3,
,,,-2.4020004E-3,4.88000011,,,,,-2.4020004E-3,39.99999911E-3,
,,,-2.4000003E-3,4.88000011,,,,,-2.4000003E-3,39.99999911E-3,
,,,-2.3980003E-3,4.88000011,,,,,-2.3980003E-3,39.99999911E-3,
,,,-2.3960003E-3,4.88000011,,,,,-2.3960003E-3,0.0,
,,,-2.3940003E-3,4.88000011,,,,,-2.3940003E-3,39.99999911E-3,
,,,-2.3920003E-3,4.88000011,,,,,-2.3920003E-3,39.99999911E-3,
,,,-2.3900003E-3,4.88000011,,,,,-2.3900003E-3,0.0,
,,,-2.3880003E-3,4.88000011,,,,,-2.3880003E-3,0.0,
,,,-2.3860002E-3,4.88000011,,,,,-2.3860002E-3,0.0,
,,,-2.3840002E-3,4.88000011,,,,,-2.3840002E-3,0.0,
,,,-2.3820002E-3,4.88000011,,,,,-2.3820002E-3,0.0,
,,,-2.3800002E-3,4.88000011,,,,,-2.3800002E-3,0.0,
,,,-2.3780002E-3,4.88000011,,,,,-2.3780002E-3,0.0,
,,,-2.3760002E-3,4.88000011,,,,,-2.3760002E-3,0.0,
,,,-2.3740001E-3,4.88000011,,,,,-2.3740001E-3,0.0,
,,,-2.3720001E-3,4.88000011,,,,,-2.3720001E-3,0.0,
,,,-2.3700004E-3,4.88000011,,,,,-2.3700004E-3,39.99999911E-3,
,,,-2.3680003E-3,4.88000011,,,,,-2.3680003E-3,39.99999911E-3,
,,,-2.3660003E-3,4.88000011,,,,,-2.3660003E-3,0.0,
,,,-2.3640003E-3,4.92000008,,,,,-2.3640003E-3,0.0,
,,,-2.3620003E-3,4.88000011,,,,,-2.3620003E-3,0.0,
,,,-2.3600003E-3,4.88000011,,,,,-2.3600003E-3,0.0,
,,,-2.3580003E-3,4.88000011,,,,,-2.3580003E-3,0.0,
,,,-2.3560002E-3,4.88000011,,,,,-2.3560002E-3,0.0,
,,,-2.3540002E-3,4.92000008,,,,,-2.3540002E-3,0.0,
,,,-2.3520002E-3,4.92000008,,,,,-2.3520002E-3,0.0,
,,,-2.3500002E-3,4.88000011,,,,,-2.3500002E-3,39.99999911E-3,
,,,-2.3480002E-3,4.88000011,,,,,-2.3480002E-3,39.99999911E-3,
,,,-2.3460002E-3,4.88000011,,,,,-2.3460002E-3,39.99999911E-3,
,,,-2.3440002E-3,4.88000011,,,,,-2.3440002E-3,0.0,
,,,-2.3420001E-3,4.88000011,,,,,-2.3420001E-3,39.99999911E-3,
,,,-2.3400004E-3,4.88000011,,,,,-2.3400004E-3,39.99999911E-3,
,,,-2.3380003E-3,4.88000011,,,,,-2.3380003E-3,39.99999911E-3,
,,,-2.3360003E-3,4.88000011,,,,,-2.3360003E-3,39.99999911E-3,
,,,-2.3340003E-3,4.88000011,,,,,-2.3340003E-3,39.99999911E-3,
,,,-2.3320003E-3,4.88000011,,,,,-2.3320003E-3,79.999998212E-3,
,,,-2.3300003E-3,4.92000008,,,,,-2.3300003E-3,79.999998212E-3,
,,,-2.3280003E-3,4.92000008,,,,,-2.3280003E-3,159.99999642E-3,
,,,-2.3260002E-3,4.88000011,,,,,-2.3260002E-3,239.99999464E-3,
,,,-2.3240002E-3,4.88000011,,,,,-2.3240002E-3,319.99999285E-3,
,,,-2.3220002E-3,4.88000011,,,,,-2.3220002E-3,399.99997616E-3,
,,,-2.3200002E-3,4.92000008,,,,,-2.3200002E-3,439.999997616E-3,
,,,-2.3180002E-3,4.88000011,,,,,-2.3180002E-3,359.99998450E-3,
,,,-2.3160002E-3,4.92000008,,,,,-2.3160002E-3,280.00000119E-3,
,,,-2.3140002E-3,4.92000008,,,,,-2.3140002E-3,199.99998808E-3,
,,,-2.3120001E-3,4.92000008,,,,,-2.3120001E-3,159.99999642E-3,
,,,-2.3100004E-3,4.88000011,,,,,-2.3100004E-3,119.9999973E-3,
,,,-2.3080003E-3,4.92000008,,,,,-2.3080003E-3,79.999998212E-3,
,,,-2.3060003E-3,4.88000011,,,,,-2.3060003E-3,39.99999911E-3,
,,,-2.3040003E-3,4.88000011,,,,,-2.3040003E-3,39.99999911E-3,
,,,-2.3020003E-3,4.92000008,,,,,-2.3020003E-3,39.99999911E-3,
,,,-2.3000003E-3,4.88000011,,,,,-2.3000003E-3,39.99999911E-3,
,,,-2.2980003E-3,4.88000011,,,,,-2.2980003E-3,39.99999911E-3,
,,,-2.2960003E-3,4.88000011,,,,,-2.2960003E-3,39.99999911E-3,
,,,-2.2940002E-3,4.88000011,,,,,-2.2940002E-3,39.99999911E-3,
,,,-2.2920002E-3,4.88000011,,,,,-2.2920002E-3,0.0,
,,,-2.2900002E-3,4.88000011,,,,,-2.2900002E-3,0.0,
,,,-2.2880002E-3,4.88000011,,,,,-2.2880002E-3,0.0,
,,,-2.2860002E-3,4.88000011,,,,,-2.2860002E-3,39.99999911E-3,
,,,-2.2840002E-3,4.92000008,,,,,-2.2840002E-3,0.0,
,,,-2.2820001E-3,4.92000008,,,,,-2.2820001E-3,0.0,
,,,-2.2800004E-3,4.88000011,,,,,-2.2800004E-3,0.0,
,,,-2.2780003E-3,4.88000011,,,,,-2.2780003E-3,0.0,
,,,-2.2760003E-3,4.92000008,,,,,-2.2760003E-3,39.99999911E-3,
,,,-2.2740003E-3,4.92000008,,,,,-2.2740003E-3,0.0,
,,,-2.2720003E-3,4.92000008,,,,,-2.2720003E-3,39.99999911E-3,
,,,-2.2700003E-3,4.92000008,,,,,-2.2700003E-3,39.99999911E-3,
,,,-2.2680003E-3,4.92000008,,,,,-2.2680003E-3,39.99999911E-3,
,,,-2.2660003E-3,4.92000008,,,,,-2.2660003E-3,39.99999911E-3,
,,,-2.2640002E-3,4.92000008,,,,,-2.2640002E-3,0.0,
,,,-2.2620002E-3,4.92000008,,,,,-2.2620002E-3,0.0,
,,,-2.2600002E-3,4.88000011,,,,,-2.2600002E-3,0.0,
,,,-2.2580002E-3,4.92000008,,,,,-2.2580002E-3,0.0,
,,,-2.2560002E-3,4.92000008,,,,,-2.2560002E-3,0.0,
,,,-2.2540002E-3,4.92000008,,,,,-2.2540002E-3,0.0,
,,,-2.2520002E-3,4.92000008,,,,,-2.2520002E-3,0.0,
,,,-2.2500001E-3,4.92000008,,,,,-2.2500001E-3,0.0,
,,,-2.2480004E-3,4.92000008,,,,,-2.2480004E-3,-39.99999911E-3,
,,,-2.2460003E-3,4.92000008,,,,,-2.2460003E-3,0.0,
,,,-2.2440003E-3,4.96000004,,,,,-2.2440003E-3,0.0,
,,,-2.2420003E-3,4.92000008,,,,,-2.2420003E-3,39.99999911E-3,
,,,-2.2400003E-3,4.92000008,,,,,-2.2400003E-3,39.99999911E-3,
,,,-2.2380003E-3,4.92000008,,,,,-2.2380003E-3,0.0,
,,,-2.2360003E-3,4.88000011,,,,,-2.2360003E-3,0.0,
,,,-2.2340002E-3,4.92000008,,,,,-2.2340002E-3,39.99999911E-3,
,,,-2.2320002E-3,4.92000008,,,,,-2.2320002E-3,39.99999911E-3,
,,,-2.2300002E-3,4.92000008,,,,,-2.2300002E-3,39.99999911E-3,
,,,-2.2280002E-3,4.92000008,,,,,-2.2280002E-3,39.99999911E-3,
,,,-2.2260002E-3,4.92000008,,,,,-2.2260002E-3,39.99999911E-3,
,,,-2.2240002E-3,4.92000008,,,,,-2.2240002E-3,39.99999911E-3,
,,,-2.2220002E-3,4.92000008,,,,,-2.2220002E-3,39.99999911E-3,
,,,-2.2200001E-3,4.92000008,,,,,-2.2200001E-3,39.99999911E-3,
,,,-2.2180004E-3,4.92000008,,,,,-2.2180004E-3,39.99999911E-3,
,,,-2.2160003E-3,4.92000008,,,,,-2.2160003E-3,39.99999911E-3,
,,,-2.2140003E-3,4.92000008,,,,,-2.2140003E-3,39.99999911E-3,
,,,-2.2120003E-3,4.92000008,,,,,-2.2120003E-3,39.99999911E-3,
,,,-2.2100003E-3,4.92000008,,,,,-2.2100003E-3,79.999998212E-3,
,,,-2.2080003E-3,4.92000008,,,,,-2.2080003E-3,79.999998212E-3,
,,,-2.2060003E-3,4.92000008,,,,,-2.2060003E-3,159.99999642E-3,
,,,-2.2040003E-3,4.92000008,,,,,-2.2040003E-3,199.99998808E-3,
,,,-2.2020002E-3,4.92000008,,,,,-2.2020002E-3,280.00000119E-3,
,,,-2.2000002E-3,4.92000008,,,,,-2.2000002E-3,280.00000119E-3,
,,,-2.1980002E-3,4.92000008,,,,,-2.1980002E-3,280.00000119E-3,
,,,-2.1960002E-3,4.92000008,,,,,-2.1960002E-3,239.99999464E-3,
,,,-2.1940002E-3,4.92000008,,,,,-2.1940002E-3,159.99999642E-3,
,,,-2.1920002E-3,4.92000008,,,,,-2.1920002E-3,119.9999973E-3,
,,,-2.1900001E-3,4.92000008,,,,,-2.1900001E-3,79.999998212E-3,
,,,-2.1880004E-3,4.96000004,,,,,-2.1880004E-3,79.999998212E-3,
,,,-2.1860003E-3,4.92000008,,,,,-2.1860003E-3,39.99999911E-3,
,,,-2.1840003E-3,4.92000008,,,,,-2.1840003E-3,39.99999911E-3,
,,,-2.1820003E-3,4.92000008,,,,,-2.1820003E-3,39.99999911E-3,
,,,-2.1800003E-3,4.92000008,,,,,-2.1800003E-3,39.99999911E-3,
,,,-2.1780003E-3,4.92000008,,,,,-2.1780003E-3,0.0,
,,,-2.1760003E-3,4.92000008,,,,,-2.1760003E-3,39.99999911E-3,
,,,-2.1740003E-3,4.96000004,,,,,-2.1740003E-3,39.99999911E-3,
,,,-2.1720002E-3,4.92000008,,,,,-2.1720002E-3,39.99999911E-3,
,,,-2.1700002E-3,4.96000004,,,,,-2.1700002E-3,0.0,
,,,-2.1680002E-3,4.92000008,,,,,-2.1680002E-3,0.0,
,,,-2.1660002E-3,4.92000008,,,,,-2.1660002E-3,0.0,
,,,-2.1640002E-3,4.92000008,,,,,-2.1640002E-3,0.0,
,,,-2.1620002E-3,4.92000008,,,,,-2.1620002E-3,39.99999911E-3,
,,,-2.1600001E-3,4.92000008,,,,,-2.1600001E-3,0.0,
,,,-2.1580001E-3,4.92000008,,,,,-2.1580001E-3,0.0,
,,,-2.1560004E-3,4.96000004,,,,,-2.1560004E-3,39.99999911E-3,
,,,-2.1540003E-3,4.92000008,,,,,-2.1540003E-3,0.0,
,,,-2.1520003E-3,4.92000008,,,,,-2.1520003E-3,0.0,
,,,-2.1500003E-3,4.92000008,,,,,-2.1500003E-3,0.0,
,,,-2.1480003E-3,4.96000004,,,,,-2.1480003E-3,39.99999911E-3,
,,,-2.1460003E-3,4.92000008,,,,,-2.1460003E-3,0.0,
,,,-2.1440003E-3,4.96000004,,,,,-2.1440003E-3,0.0,
,,,-2.1420002E-3,4.92000008,,,,,-2.1420002E-3,0.0,
,,,-2.1400002E-3,4.92000008,,,,,-2.1400002E-3,0.0,
,,,-2.1380002E-3,4.92000008,,,,,-2.1380002E-3,0.0,
,,,-2.1360002E-3,4.96000004,,,,,-2.1360002E-3,0.0,
,,,-2.1340002E-3,4.92000008,,,,,-2.1340002E-3,0.0,
,,,-2.1320002E-3,4.96000004,,,,,-2.1320002E-3,0.0,
,,,-2.1300002E-3,4.96000004,,,,,-2.1300002E-3,0.0,
,,,-2.1280001E-3,4.92000008,,,,,-2.1280001E-3,0.0,
,,,-2.1260004E-3,4.92000008,,,,,-2.1260004E-3,0.0,
,,,-2.1240003E-3,4.96000004,,,,,-2.1240003E-3,0.0,
,,,-2.1220003E-3,4.96000004,,,,,-2.1220003E-3,0.0,
,,,-2.1200003E-3,4.96000004,,,,,-2.1200003E-3,39.99999911E-3,
,,,-2.1180003E-3,4.96000004,,,,,-2.1180003E-3,39.99999911E-3,
,,,-2.1160003E-3,4.96000004,,,,,-2.1160003E-3,79.999998212E-3,
,,,-2.1140003E-3,4.96000004,,,,,-2.1140003E-3,39.99999911E-3,
,,,-2.1120002E-3,4.96000004,,,,,-2.1120002E-3,39.99999911E-3,
,,,-2.1100002E-3,4.92000008,,,,,-2.1100002E-3,39.99999911E-3,
,,,-2.1080002E-3,4.96000004,,,,,-2.1080002E-3,39.99999911E-3,
,,,-2.1060002E-3,4.96000004,,,,,-2.1060002E-3,39.99999911E-3,
,,,-2.1040002E-3,4.96000004,,,,,-2.1040002E-3,0.0,
,,,-2.1020002E-3,4.96000004,,,,,-2.1020002E-3,0.0,
,,,-2.1000002E-3,4.96000004,,,,,-2.1000002E-3,39.99999911E-3,
,,,-2.0980001E-3,4.96000004,,,,,-2.0980001E-3,39.99999911E-3,
,,,-2.0960004E-3,4.96000004,,,,,-2.0960004E-3,0.0,
,,,-2.0940003E-3,4.96000004,,,,,-2.0940003E-3,39.99999911E-3,
,,,-2.0920003E-3,4.96000004,,,,,-2.0920003E-3,39.99999911E-3,
,,,-2.0900003E-3,4.96000004,,,,,-2.0900003E-3,39.99999911E-3,
,,,-2.0880003E-3,4.96000004,,,,,-2.0880003E-3,79.999998212E-3,
,,,-2.0860003E-3,4.96000004,,,,,-2.0860003E-3,119.9999973E-3,
,,,-2.0840003E-3,4.96000004,,,,,-2.0840003E-3,159.99999642E-3,
,,,-2.0820003E-3,4.96000004,,,,,-2.0820003E-3,159.99999642E-3,
,,,-2.0800002E-3,4.96000004,,,,,-2.0800002E-3,159.99999642E-3,
,,,-2.0780002E-3,4.96000004,,,,,-2.0780002E-3,119.9999973E-3,
,,,-2.0760002E-3,4.96000004,,,,,-2.0760002E-3,79.999998212E-3,
,,,-2.0740002E-3,4.96000004,,,,,-2.0740002E-3,79.999998212E-3,
,,,-2.0720002E-3,4.96000004,,,,,-2.0720002E-3,39.99999911E-3,
,,,-2.0700002E-3,4.96000004,,,,,-2.0700002E-3,39.99999911E-3,
,,,-2.0680001E-3,4.96000004,,,,,-2.0680001E-3,39.99999911E-3,
,,,-2.0660004E-3,4.96000004,,,,,-2.0660004E-3,39.99999911E-3,
,,,-2.0640003E-3,4.96000004,,,,,-2.0640003E-3,0.0,
,,,-2.0620003E-3,4.96000004,,,,,-2.0620003E-3,0.0,
,,,-2.0600003E-3,4.96000004,,,,,-2.0600003E-3,0.0,
,,,-2.0580003E-3,4.96000004,,,,,-2.0580003E-3,0.0,
,,,-2.0560003E-3,4.96000004,,,,,-2.0560003E-3,0.0,
,,,-2.0540003E-3,4.96000004,,,,,-2.0540003E-3,0.0,
,,,-2.0520003E-3,4.96000004,,,,,-2.0520003E-3,0.0,
,,,-2.0500002E-3,4.96000004,,,,,-2.0500002E-3,0.0,
,,,-2.0480002E-3,4.96000004,,,,,-2.0480002E-3,0.0,
,,,-2.0460002E-3,4.96000004,,,,,-2.0460002E-3,0.0,
,,,-2.0440002E-3,4.96000004,,,,,-2.0440002E-3,0.0,
,,,-2.0420002E-3,4.96000004,,,,,-2.0420002E-3,0.0,
,,,-2.0400002E-3,4.96000004,,,,,-2.0400002E-3,0.0,
,,,-2.0380002E-3,4.96000004,,,,,-2.0380002E-3,0.0,
,,,-2.0360001E-3,4.96000004,,,,,-2.0360001E-3,0.0,
,,,-2.0340004E-3,4.96000004,,,,,-2.0340004E-3,0.0,
,,,-2.0320003E-3,4.96000004,,,,,-2.0320003E-3,0.0,
,,,-2.0300003E-3,4.96000004,,,,,-2.0300003E-3,0.0,
,,,-2.0280003E-3,4.96000004,,,,,-2.0280003E-3,0.0,
,,,-2.0260003E-3,4.96000004,,,,,-2.0260003E-3,0.0,
,,,-2.0240003E-3,4.96000004,,,,,-2.0240003E-3,0.0,
,,,-2.0220003E-3,4.96000004,,,,,-2.0220003E-3,0.0,
,,,-2.0200002E-3,4.96000004,,,,,-2.0200002E-3,0.0,
,,,-2.0180002E-3,4.96000004,,,,,-2.0180002E-3,0.0,
,,,-2.0160002E-3,4.96000004,,,,,-2.0160002E-3,0.0,
,,,-2.0140002E-3,4.96000004,,,,,-2.0140002E-3,0.0,
,,,-2.0120002E-3,4.96000004,,,,,-2.0120002E-3,0.0,
,,,-2.0100002E-3,4.96000004,,,,,-2.0100002E-3,0.0,
,,,-2.0080002E-3,4.96000004,,,,,-2.0080002E-3,0.0,
,,,-2.0060001E-3,4.96000004,,,,,-2.0060001E-3,0.0,
,,,-2.0040004E-3,4.96000004,,,,,-2.0040004E-3,0.0,
,,,-2.0020003E-3,4.96000004,,,,,-2.0020003E-3,39.99999911E-3,
,,,-2.0000003E-3,4.96000004,,,,,-2.0000003E-3,39.99999911E-3,
,,,-1.9980003E-3,5.00000000,,,,,-1.9980003E-3,39.99999911E-3,
,,,-1.9960003E-3,4.96000004,,,,,-1.9960003E-3,39.99999911E-3,
,,,-1.9940003E-3,4.96000004,,,,,-1.9940003E-3,39.99999911E-3,
,,,-1.9920003E-3,4.96000004,,,,,-1.9920003E-3,39.99999911E-3,
,,,-1.9900003E-3,4.96000004,,,,,-1.9900003E-3,0.0,
,,,-1.9880002E-3,4.96000004,,,,,-1.9880002E-3,0.0,
,,,-1.9860002E-3,5.00000000,,,,,-1.9860002E-3,39.99999911E-3,
,,,-1.9840002E-3,4.96000004,,,,,-1.9840002E-3,39.99999911E-3,
,,,-1.9820002E-3,5.00000000,,,,,-1.9820002E-3,0.0,
,,,-1.9800002E-3,4.96000004,,,,,-1.9800002E-3,0.0,
,,,-1.9780002E-3,4.96000004,,,,,-1.9780002E-3,0.0,
,,,-1.9760001E-3,5.00000000,,,,,-1.9760001E-3,0.0,
,,,-1.9740004E-3,4.96000004,,,,,-1.9740004E-3,0.0,
,,,-1.9720003E-3,5.00000000,,,,,-1.9720003E-3,39.99999911E-3,
,,,-1.9700003E-3,4.96000004,,,,,-1.9700003E-3,39.99999911E-3,
,,,-1.9680003E-3,4.96000004,,,,,-1.9680003E-3,79.999998212E-3,
,,,-1.9660003E-3,5.00000000,,,,,-1.9660003E-3,79.999998212E-3,
,,,-1.9640003E-3,4.96000004,,,,,-1.9640003E-3,79.999998212E-3,
,,,-1.9620003E-3,5.00000000,,,,,-1.9620003E-3,79.999998212E-3,
,,,-1.9600003E-3,4.96000004,,,,,-1.9600003E-3,39.99999911E-3,
,,,-1.9580002E-3,4.96000004,,,,,-1.9580002E-3,39.99999911E-3,
,,,-1.9560002E-3,5.00000000,,,,,-1.9560002E-3,39.99999911E-3,
,,,-1.9540002E-3,4.96000004,,,,,-1.9540002E-3,39.99999911E-3,
,,,-1.9520002E-3,5.00000000,,,,,-1.9520002E-3,0.0,
,,,-1.9500003E-3,4.96000004,,,,,-1.9500003E-3,39.99999911E-3,
,,,-1.9480003E-3,4.96000004,,,,,-1.9480003E-3,0.0,
,,,-1.9460003E-3,5.00000000,,,,,-1.9460003E-3,39.99999911E-3,
,,,-1.9440003E-3,5.00000000,,,,,-1.9440003E-3,0.0,
,,,-1.9420002E-3,4.96000004,,,,,-1.9420002E-3,0.0,
,,,-1.9400002E-3,5.00000000,,,,,-1.9400002E-3,39.99999911E-3,
,,,-1.9380002E-3,5.00000000,,,,,-1.9380002E-3,0.0,
,,,-1.9360003E-3,5.00000000,,,,,-1.9360003E-3,0.0,
,,,-1.9340003E-3,4.96000004,,,,,-1.9340003E-3,0.0,
,,,-1.9320003E-3,4.96000004,,,,,-1.9320003E-3,0.0,
,,,-1.9300003E-3,5.00000000,,,,,-1.9300003E-3,-39.99999911E-3,
,,,-1.9280002E-3,4.96000004,,,,,-1.9280002E-3,0.0,
,,,-1.9260002E-3,5.00000000,,,,,-1.9260002E-3,0.0,
,,,-1.9240002E-3,5.00000000,,,,,-1.9240002E-3,0.0,
,,,-1.9220002E-3,5.00000000,,,,,-1.9220002E-3,0.0,
,,,-1.9200003E-3,4.96000004,,,,,-1.9200003E-3,0.0,
,,,-1.9180003E-3,4.96000004,,,,,-1.9180003E-3,0.0,
,,,-1.9160003E-3,5.00000000,,,,,-1.9160003E-3,0.0,
,,,-1.9140003E-3,5.00000000,,,,,-1.9140003E-3,0.0,
,,,-1.9120002E-3,4.96000004,,,,,-1.9120002E-3,0.0,
,,,-1.9100002E-3,4.96000004,,,,,-1.9100002E-3,0.0,
,,,-1.9080002E-3,5.00000000,,,,,-1.9080002E-3,0.0,
,,,-1.9060002E-3,5.00000000,,,,,-1.9060002E-3,0.0,
,,,-1.9040003E-3,5.00000000,,,,,-1.9040003E-3,-39.99999911E-3,
,,,-1.9020003E-3,4.96000004,,,,,-1.9020003E-3,0.0,
,,,-1.9000003E-3,5.00000000,,,,,-1.9000003E-3,0.0,
,,,-1.8980002E-3,5.00000000,,,,,-1.8980002E-3,0.0,
,,,-1.8960002E-3,5.00000000,,,,,-1.8960002E-3,0.0,
,,,-1.8940002E-3,5.00000000,,,,,-1.8940002E-3,0.0,
,,,-1.8920002E-3,5.00000000,,,,,-1.8920002E-3,39.99999911E-3,
,,,-1.8900003E-3,5.00000000,,,,,-1.8900003E-3,39.99999911E-3,
,,,-1.8880003E-3,5.00000000,,,,,-1.8880003E-3,39.99999911E-3,
,,,-1.8860003E-3,5.00000000,,,,,-1.8860003E-3,0.0,
,,,-1.8840003E-3,4.96000004,,,,,-1.8840003E-3,0.0,
,,,-1.8820002E-3,5.00000000,,,,,-1.8820002E-3,0.0,
,,,-1.8800002E-3,5.00000000,,,,,-1.8800002E-3,0.0,
,,,-1.8780002E-3,5.00000000,,,,,-1.8780002E-3,0.0,
,,,-1.8760002E-3,5.00000000,,,,,-1.8760002E-3,0.0,
,,,-1.8740003E-3,5.00000000,,,,,-1.8740003E-3,0.0,
,,,-1.8720003E-3,5.00000000,,,,,-1.8720003E-3,0.0,
,,,-1.8700003E-3,5.00000000,,,,,-1.8700003E-3,0.0,
,,,-1.8680003E-3,5.00000000,,,,,-1.8680003E-3,0.0,
,,,-1.8660002E-3,5.00000000,,,,,-1.8660002E-3,0.0,
