Data Finesse Measurement Files/2018-2-27-12.25-73.4Hz-50.6V-OC29.5cm.csv

Record Length,2500,Points,-12.5399996E-3,5.63999987,,Record Length,2500,Points,-12.5399996E-3,39.99999911E-3,
Sample Interval,9.999999747E-6,s,-12.5299999E-3,5.63999987,,Sample Interval,9.999999747E-6,s,-12.5299999E-3,39.99999911E-3,
Trigger Point,1.2540000E3,Samples,-12.5199994E-3,5.63999987,,Trigger Point,1.2540000E3,Samples,-12.5199994E-3,79.999998212E-3,
,,,-12.5099998E-3,5.67999983,,,,,-12.5099998E-3,39.99999911E-3,
,,,-12.4999993E-3,5.63999987,,,,,-12.4999993E-3,39.99999911E-3,
,,,-12.4899996E-3,5.63999987,,,,,-12.4899996E-3,0.0,
Source,CH1,,-12.4799991E-3,5.63999987,,Source,CH2,,-12.4799991E-3,0.0,
Vertical Units,Volts,,-12.4699995E-3,5.63999987,,Vertical Units,Volts,,-12.4699995E-3,0.0,
Vertical Scale,1.000000,,-12.4599999E-3,5.67999983,,Vertical Scale,1.000000,,-12.4599999E-3,39.99999911E-3,
Vertical Offset,0,,-12.4499993E-3,5.63999987,,Vertical Offset,0,,-12.4499993E-3,39.99999911E-3,
Horizontal Units,s,,-12.4399997E-3,5.67999983,,Horizontal Units,s,,-12.4399997E-3,39.99999911E-3,
Horizontal Scale,2.4999999E-3,,-12.4299992E-3,5.63999987,,Horizontal Scale,2.4999999E-3,,-12.4299992E-3,119.9999973E-3,
Pt Fmt,Y,,-12.4199996E-3,5.67999983,,Pt Fmt,Y,,-12.4199996E-3,1.0799999,
Yzero,-4.32000000,,-12.4100000E-3,5.63999987,,Yzero,-1.2400000,,-12.4100000E-3,359.99998450E-3,
Probe Atten,1.000000,,-12.3999994E-3,5.67999983,,Probe Atten,1.000000,,-12.3999994E-3,79.999998212E-3,
,,,-12.3899998E-3,5.67999983,,,,,-12.3899998E-3,39.99999911E-3,
Note,TDS 1002B - 12:25:23 PM   2/27/2018,,-12.3799993E-3,5.67999983,,Note,TDS 1002B - 12:25:23 PM   2/27/2018,,-12.3799993E-3,39.99999911E-3,
,,,-12.3699997E-3,5.67999983,,,,,-12.3699997E-3,0.0,
,,,-12.3599991E-3,5.71999979,,,,,-12.3599991E-3,0.0,
,,,-12.3499995E-3,5.67999983,,,,,-12.3499995E-3,0.0,
,,,-12.3399999E-3,5.67999983,,,,,-12.3399999E-3,39.99999911E-3,
,,,-12.3299994E-3,5.67999983,,,,,-12.3299994E-3,79.999998212E-3,
,,,-12.3199997E-3,5.67999983,,,,,-12.3199997E-3,359.99998450E-3,
,,,-12.3099992E-3,5.67999983,,,,,-12.3099992E-3,1.7600000,
,,,-12.2999996E-3,5.67999983,,,,,-12.2999996E-3,199.99998808E-3,
,,,-12.2900000E-3,5.67999983,,,,,-12.2900000E-3,39.99999911E-3,
,,,-12.2799994E-3,5.71999979,,,,,-12.2799994E-3,39.99999911E-3,
,,,-12.2699998E-3,5.71999979,,,,,-12.2699998E-3,0.0,
,,,-12.2599993E-3,5.71999979,,,,,-12.2599993E-3,0.0,
,,,-12.2499997E-3,5.71999979,,,,,-12.2499997E-3,-39.99999911E-3,
,,,-12.2399991E-3,5.71999979,,,,,-12.2399991E-3,0.0,
,,,-12.2299995E-3,5.71999979,,,,,-12.2299995E-3,0.0,
,,,-12.2199999E-3,5.71999979,,,,,-12.2199999E-3,39.99999911E-3,
,,,-12.2099994E-3,5.71999979,,,,,-12.2099994E-3,199.99998808E-3,
,,,-12.1999998E-3,5.71999979,,,,,-12.1999998E-3,239.99999464E-3,
,,,-12.1899992E-3,5.71999979,,,,,-12.1899992E-3,39.99999911E-3,
,,,-12.1799996E-3,5.71999979,,,,,-12.1799996E-3,0.0,
,,,-12.1700000E-3,5.71999979,,,,,-12.1700000E-3,0.0,
,,,-12.1599995E-3,5.71999979,,,,,-12.1599995E-3,-39.99999911E-3,
,,,-12.1499998E-3,5.71999979,,,,,-12.1499998E-3,0.0,
,,,-12.1399993E-3,5.75999975,,,,,-12.1399993E-3,0.0,
,,,-12.1299997E-3,5.75999975,,,,,-12.1299997E-3,0.0,
,,,-12.1199992E-3,5.75999975,,,,,-12.1199992E-3,0.0,
,,,-12.1099995E-3,5.75999975,,,,,-12.1099995E-3,79.999998212E-3,
,,,-12.0999999E-3,5.75999975,,,,,-12.0999999E-3,319.99999285E-3,
,,,-12.0899994E-3,5.75999975,,,,,-12.0899994E-3,79.999998212E-3,
,,,-12.0799998E-3,5.75999975,,,,,-12.0799998E-3,39.99999911E-3,
,,,-12.0699992E-3,5.75999975,,,,,-12.0699992E-3,0.0,
,,,-12.0599996E-3,5.75999975,,,,,-12.0599996E-3,0.0,
,,,-12.0500000E-3,5.75999975,,,,,-12.0500000E-3,0.0,
,,,-12.0399995E-3,5.75999975,,,,,-12.0399995E-3,0.0,
,,,-12.0299999E-3,5.75999975,,,,,-12.0299999E-3,0.0,
,,,-12.0199993E-3,5.75999975,,,,,-12.0199993E-3,0.0,
,,,-12.0099997E-3,5.75999975,,,,,-12.0099997E-3,39.99999911E-3,
,,,-11.9999992E-3,5.75999975,,,,,-11.9999992E-3,79.999998212E-3,
,,,-11.9899996E-3,5.75999975,,,,,-11.9899996E-3,239.99999464E-3,
,,,-11.9800000E-3,5.75999975,,,,,-11.9800000E-3,39.99999911E-3,
,,,-11.9699994E-3,5.79999971,,,,,-11.9699994E-3,0.0,
,,,-11.9599998E-3,5.75999975,,,,,-11.9599998E-3,0.0,
,,,-11.9499993E-3,5.75999975,,,,,-11.9499993E-3,0.0,
,,,-11.9399996E-3,5.79999971,,,,,-11.9399996E-3,0.0,
,,,-11.9300000E-3,5.75999975,,,,,-11.9300000E-3,0.0,
,,,-11.9199995E-3,5.79999971,,,,,-11.9199995E-3,0.0,
,,,-11.9099999E-3,5.79999971,,,,,-11.9099999E-3,0.0,
,,,-11.8999993E-3,5.75999975,,,,,-11.8999993E-3,0.0,
,,,-11.8899997E-3,5.79999971,,,,,-11.8899997E-3,39.99999911E-3,
,,,-11.8799992E-3,5.79999971,,,,,-11.8799992E-3,79.999998212E-3,
,,,-11.8699996E-3,5.79999971,,,,,-11.8699996E-3,119.9999973E-3,
,,,-11.8600000E-3,5.79999971,,,,,-11.8600000E-3,39.99999911E-3,
,,,-11.8499994E-3,5.79999971,,,,,-11.8499994E-3,39.99999911E-3,
,,,-11.8399998E-3,5.79999971,,,,,-11.8399998E-3,39.99999911E-3,
,,,-11.8299993E-3,5.83999968,,,,,-11.8299993E-3,0.0,
,,,-11.8199997E-3,5.79999971,,,,,-11.8199997E-3,0.0,
,,,-11.8099991E-3,5.79999971,,,,,-11.8099991E-3,0.0,
,,,-11.7999995E-3,5.83999968,,,,,-11.7999995E-3,0.0,
,,,-11.7899999E-3,5.83999968,,,,,-11.7899999E-3,0.0,
,,,-11.7799994E-3,5.79999971,,,,,-11.7799994E-3,0.0,
,,,-11.7699997E-3,5.79999971,,,,,-11.7699997E-3,0.0,
,,,-11.7599992E-3,5.79999971,,,,,-11.7599992E-3,39.99999911E-3,
,,,-11.7499996E-3,5.83999968,,,,,-11.7499996E-3,0.0,
,,,-11.7400000E-3,5.83999968,,,,,-11.7400000E-3,0.0,
,,,-11.7299994E-3,5.83999968,,,,,-11.7299994E-3,39.99999911E-3,
,,,-11.7199998E-3,5.83999968,,,,,-11.7199998E-3,39.99999911E-3,
,,,-11.7099993E-3,5.83999968,,,,,-11.7099993E-3,0.0,
,,,-11.6999997E-3,5.83999968,,,,,-11.6999997E-3,0.0,
,,,-11.6899991E-3,5.83999968,,,,,-11.6899991E-3,39.99999911E-3,
,,,-11.6799995E-3,5.83999968,,,,,-11.6799995E-3,0.0,
,,,-11.6699999E-3,5.83999968,,,,,-11.6699999E-3,0.0,
,,,-11.6599994E-3,5.83999968,,,,,-11.6599994E-3,0.0,
,,,-11.6499998E-3,5.87999964,,,,,-11.6499998E-3,39.99999911E-3,
,,,-11.6399992E-3,5.83999968,,,,,-11.6399992E-3,39.99999911E-3,
,,,-11.6299996E-3,5.83999968,,,,,-11.6299996E-3,0.0,
,,,-11.6200000E-3,5.83999968,,,,,-11.6200000E-3,0.0,
,,,-11.6099995E-3,5.83999968,,,,,-11.6099995E-3,39.99999911E-3,
,,,-11.5999999E-3,5.83999968,,,,,-11.5999999E-3,39.99999911E-3,
,,,-11.5899993E-3,5.83999968,,,,,-11.5899993E-3,0.0,
,,,-11.5799997E-3,5.87999964,,,,,-11.5799997E-3,0.0,
,,,-11.5699992E-3,5.83999968,,,,,-11.5699992E-3,0.0,
,,,-11.5599995E-3,5.87999964,,,,,-11.5599995E-3,0.0,
,,,-11.5499999E-3,5.83999968,,,,,-11.5499999E-3,39.99999911E-3,
,,,-11.5399994E-3,5.83999968,,,,,-11.5399994E-3,39.99999911E-3,
,,,-11.5299998E-3,5.87999964,,,,,-11.5299998E-3,39.99999911E-3,
,,,-11.5199992E-3,5.87999964,,,,,-11.5199992E-3,0.0,
,,,-11.5099996E-3,5.83999968,,,,,-11.5099996E-3,0.0,
,,,-11.5000000E-3,5.87999964,,,,,-11.5000000E-3,0.0,
,,,-11.4899995E-3,5.83999968,,,,,-11.4899995E-3,39.99999911E-3,
,,,-11.4799999E-3,5.83999968,,,,,-11.4799999E-3,39.99999911E-3,
,,,-11.4699993E-3,5.83999968,,,,,-11.4699993E-3,39.99999911E-3,
,,,-11.4599997E-3,5.83999968,,,,,-11.4599997E-3,39.99999911E-3,
,,,-11.4499992E-3,5.83999968,,,,,-11.4499992E-3,0.0,
,,,-11.4399996E-3,5.83999968,,,,,-11.4399996E-3,0.0,
,,,-11.4300000E-3,5.83999968,,,,,-11.4300000E-3,0.0,
,,,-11.4199994E-3,5.83999968,,,,,-11.4199994E-3,0.0,
,,,-11.4099998E-3,5.83999968,,,,,-11.4099998E-3,0.0,
,,,-11.3999993E-3,5.83999968,,,,,-11.3999993E-3,39.99999911E-3,
,,,-11.3899997E-3,5.83999968,,,,,-11.3899997E-3,39.99999911E-3,
,,,-11.3800000E-3,5.83999968,,,,,-11.3800000E-3,39.99999911E-3,
,,,-11.3699995E-3,5.83999968,,,,,-11.3699995E-3,0.0,
,,,-11.3599999E-3,5.83999968,,,,,-11.3599999E-3,0.0,
,,,-11.3499993E-3,5.83999968,,,,,-11.3499993E-3,39.99999911E-3,
,,,-11.3399997E-3,5.83999968,,,,,-11.3399997E-3,39.99999911E-3,
,,,-11.3299992E-3,5.83999968,,,,,-11.3299992E-3,39.99999911E-3,
,,,-11.3199996E-3,5.79999971,,,,,-11.3199996E-3,0.0,
,,,-11.3100000E-3,5.83999968,,,,,-11.3100000E-3,0.0,
,,,-11.2999994E-3,5.83999968,,,,,-11.2999994E-3,0.0,
,,,-11.2899998E-3,5.79999971,,,,,-11.2899998E-3,0.0,
,,,-11.2799993E-3,5.79999971,,,,,-11.2799993E-3,0.0,
,,,-11.2699997E-3,5.79999971,,,,,-11.2699997E-3,0.0,
,,,-11.2599991E-3,5.83999968,,,,,-11.2599991E-3,39.99999911E-3,
,,,-11.2499995E-3,5.83999968,,,,,-11.2499995E-3,0.0,
,,,-11.2399999E-3,5.79999971,,,,,-11.2399999E-3,39.99999911E-3,
,,,-11.2299994E-3,5.79999971,,,,,-11.2299994E-3,79.999998212E-3,
,,,-11.2199998E-3,5.83999968,,,,,-11.2199998E-3,39.99999911E-3,
,,,-11.2099992E-3,5.79999971,,,,,-11.2099992E-3,0.0,
,,,-11.1999996E-3,5.79999971,,,,,-11.1999996E-3,0.0,
,,,-11.1900000E-3,5.79999971,,,,,-11.1900000E-3,0.0,
,,,-11.1799994E-3,5.79999971,,,,,-11.1799994E-3,0.0,
,,,-11.1699998E-3,5.79999971,,,,,-11.1699998E-3,0.0,
,,,-11.1599993E-3,5.75999975,,,,,-11.1599993E-3,0.0,
,,,-11.1499997E-3,5.79999971,,,,,-11.1499997E-3,-39.99999911E-3,
,,,-11.1399991E-3,5.79999971,,,,,-11.1399991E-3,0.0,
,,,-11.1299995E-3,5.79999971,,,,,-11.1299995E-3,0.0,
,,,-11.1199999E-3,5.75999975,,,,,-11.1199999E-3,0.0,
,,,-11.1099994E-3,5.75999975,,,,,-11.1099994E-3,0.0,
,,,-11.0999998E-3,5.79999971,,,,,-11.0999998E-3,0.0,
,,,-11.0899992E-3,5.75999975,,,,,-11.0899992E-3,39.99999911E-3,
,,,-11.0799996E-3,5.75999975,,,,,-11.0799996E-3,159.99999642E-3,
,,,-11.0700000E-3,5.75999975,,,,,-11.0700000E-3,39.99999911E-3,
,,,-11.0599995E-3,5.75999975,,,,,-11.0599995E-3,0.0,
,,,-11.0499999E-3,5.75999975,,,,,-11.0499999E-3,0.0,
,,,-11.0399993E-3,5.75999975,,,,,-11.0399993E-3,0.0,
,,,-11.0299997E-3,5.75999975,,,,,-11.0299997E-3,0.0,
,,,-11.0199992E-3,5.75999975,,,,,-11.0199992E-3,0.0,
,,,-11.0099996E-3,5.75999975,,,,,-11.0099996E-3,-39.99999911E-3,
,,,-10.9999999E-3,5.75999975,,,,,-10.9999999E-3,0.0,
,,,-10.9899994E-3,5.75999975,,,,,-10.9899994E-3,0.0,
,,,-10.9799998E-3,5.71999979,,,,,-10.9799998E-3,0.0,
,,,-10.9699992E-3,5.75999975,,,,,-10.9699992E-3,0.0,
,,,-10.9599996E-3,5.75999975,,,,,-10.9599996E-3,39.99999911E-3,
,,,-10.9500000E-3,5.75999975,,,,,-10.9500000E-3,239.99999464E-3,
,,,-10.9399995E-3,5.75999975,,,,,-10.9399995E-3,79.999998212E-3,
,,,-10.9299999E-3,5.71999979,,,,,-10.9299999E-3,39.99999911E-3,
,,,-10.9199993E-3,5.75999975,,,,,-10.9199993E-3,0.0,
,,,-10.9099997E-3,5.71999979,,,,,-10.9099997E-3,0.0,
,,,-10.8999992E-3,5.71999979,,,,,-10.8999992E-3,0.0,
,,,-10.8899996E-3,5.71999979,,,,,-10.8899996E-3,0.0,
,,,-10.8800000E-3,5.71999979,,,,,-10.8800000E-3,0.0,
,,,-10.8699994E-3,5.71999979,,,,,-10.8699994E-3,0.0,
,,,-10.8599998E-3,5.71999979,,,,,-10.8599998E-3,0.0,
,,,-10.8499993E-3,5.71999979,,,,,-10.8499993E-3,0.0,
,,,-10.8399997E-3,5.71999979,,,,,-10.8399997E-3,0.0,
,,,-10.8300000E-3,5.71999979,,,,,-10.8300000E-3,39.99999911E-3,
,,,-10.8199995E-3,5.71999979,,,,,-10.8199995E-3,199.99998808E-3,
,,,-10.8099999E-3,5.71999979,,,,,-10.8099999E-3,159.99999642E-3,
,,,-10.7999993E-3,5.71999979,,,,,-10.7999993E-3,39.99999911E-3,
,,,-10.7899997E-3,5.71999979,,,,,-10.7899997E-3,0.0,
,,,-10.7799992E-3,5.71999979,,,,,-10.7799992E-3,0.0,
,,,-10.7699996E-3,5.67999983,,,,,-10.7699996E-3,0.0,
,,,-10.7600000E-3,5.71999979,,,,,-10.7600000E-3,0.0,
,,,-10.7499994E-3,5.71999979,,,,,-10.7499994E-3,0.0,
,,,-10.7399998E-3,5.67999983,,,,,-10.7399998E-3,0.0,
,,,-10.7299993E-3,5.71999979,,,,,-10.7299993E-3,0.0,
,,,-10.7199997E-3,5.67999983,,,,,-10.7199997E-3,0.0,
,,,-10.7100001E-3,5.71999979,,,,,-10.7100001E-3,0.0,
,,,-10.6999995E-3,5.71999979,,,,,-10.6999995E-3,0.0,
,,,-10.6899999E-3,5.67999983,,,,,-10.6899999E-3,0.0,
,,,-10.6799994E-3,5.71999979,,,,,-10.6799994E-3,39.99999911E-3,
,,,-10.6699998E-3,5.67999983,,,,,-10.6699998E-3,39.99999911E-3,
,,,-10.6599992E-3,5.63999987,,,,,-10.6599992E-3,239.99999464E-3,
,,,-10.6499996E-3,5.67999983,,,,,-10.6499996E-3,239.99999464E-3,
,,,-10.6400000E-3,5.67999983,,,,,-10.6400000E-3,39.99999911E-3,
,,,-10.6299995E-3,5.67999983,,,,,-10.6299995E-3,0.0,
,,,-10.6199998E-3,5.67999983,,,,,-10.6199998E-3,0.0,
,,,-10.6099993E-3,5.67999983,,,,,-10.6099993E-3,0.0,
,,,-10.5999997E-3,5.67999983,,,,,-10.5999997E-3,39.99999911E-3,
,,,-10.5899991E-3,5.63999987,,,,,-10.5899991E-3,0.0,
,,,-10.5799995E-3,5.63999987,,,,,-10.5799995E-3,0.0,
,,,-10.5699999E-3,5.63999987,,,,,-10.5699999E-3,39.99999911E-3,
,,,-10.5599994E-3,5.63999987,,,,,-10.5599994E-3,79.999998212E-3,
,,,-10.5499998E-3,5.63999987,,,,,-10.5499998E-3,759.999990463E-3,
,,,-10.5399992E-3,5.63999987,,,,,-10.5399992E-3,439.999997616E-3,
,,,-10.5299996E-3,5.63999987,,,,,-10.5299996E-3,79.999998212E-3,
,,,-10.5200000E-3,5.67999983,,,,,-10.5200000E-3,39.99999911E-3,
,,,-10.5099995E-3,5.63999987,,,,,-10.5099995E-3,39.99999911E-3,
,,,-10.4999999E-3,5.67999983,,,,,-10.4999999E-3,0.0,
,,,-10.4899993E-3,5.63999987,,,,,-10.4899993E-3,0.0,
,,,-10.4799997E-3,5.63999987,,,,,-10.4799997E-3,0.0,
,,,-10.4699992E-3,5.63999987,,,,,-10.4699992E-3,39.99999911E-3,
,,,-10.4599996E-3,5.63999987,,,,,-10.4599996E-3,39.99999911E-3,
,,,-10.4499999E-3,5.63999987,,,,,-10.4499999E-3,159.99999642E-3,
,,,-10.4399994E-3,5.59999990,,,,,-10.4399994E-3,879.999995232E-3,
,,,-10.4299998E-3,5.63999987,,,,,-10.4299998E-3,239.99999464E-3,
,,,-10.4199992E-3,5.63999987,,,,,-10.4199992E-3,39.99999911E-3,
,,,-10.4099996E-3,5.59999990,,,,,-10.4099996E-3,39.99999911E-3,
,,,-10.4000000E-3,5.63999987,,,,,-10.4000000E-3,199.99998808E-3,
,,,-10.3899995E-3,5.59999990,,,,,-10.3899995E-3,159.99999642E-3,
,,,-10.3799999E-3,5.63999987,,,,,-10.3799999E-3,119.9999973E-3,
,,,-10.3699993E-3,5.59999990,,,,,-10.3699993E-3,39.99999911E-3,
,,,-10.3599997E-3,5.63999987,,,,,-10.3599997E-3,0.0,
,,,-10.3499992E-3,5.59999990,,,,,-10.3499992E-3,0.0,
,,,-10.3399996E-3,5.59999990,,,,,-10.3399996E-3,0.0,
,,,-10.3300000E-3,5.59999990,,,,,-10.3300000E-3,0.0,
,,,-10.3199994E-3,5.59999990,,,,,-10.3199994E-3,-39.99999911E-3,
,,,-10.3099998E-3,5.59999990,,,,,-10.3099998E-3,0.0,
,,,-10.2999993E-3,5.59999990,,,,,-10.2999993E-3,39.99999911E-3,
,,,-10.2899997E-3,5.59999990,,,,,-10.2899997E-3,0.0,
,,,-10.2800000E-3,5.59999990,,,,,-10.2800000E-3,0.0,
,,,-10.2699995E-3,5.59999990,,,,,-10.2699995E-3,79.999998212E-3,
,,,-10.2599999E-3,5.59999990,,,,,-10.2599999E-3,280.00000119E-3,
,,,-10.2499994E-3,5.59999990,,,,,-10.2499994E-3,159.99999642E-3,
,,,-10.2399997E-3,5.55999994,,,,,-10.2399997E-3,39.99999911E-3,
,,,-10.2299992E-3,5.59999990,,,,,-10.2299992E-3,39.99999911E-3,
,,,-10.2199996E-3,5.59999990,,,,,-10.2199996E-3,0.0,
,,,-10.2100000E-3,5.55999994,,,,,-10.2100000E-3,0.0,
,,,-10.1999994E-3,5.55999994,,,,,-10.1999994E-3,-39.99999911E-3,
,,,-10.1899998E-3,5.55999994,,,,,-10.1899998E-3,0.0,
,,,-10.1799993E-3,5.55999994,,,,,-10.1799993E-3,0.0,
,,,-10.1699997E-3,5.55999994,,,,,-10.1699997E-3,0.0,
,,,-10.1600001E-3,5.55999994,,,,,-10.1600001E-3,0.0,
,,,-10.1499995E-3,5.55999994,,,,,-10.1499995E-3,0.0,
,,,-10.1399999E-3,5.59999990,,,,,-10.1399999E-3,79.999998212E-3,
,,,-10.1299994E-3,5.55999994,,,,,-10.1299994E-3,0.0,
,,,-10.1199998E-3,5.55999994,,,,,-10.1199998E-3,0.0,
,,,-10.1099992E-3,5.51999998,,,,,-10.1099992E-3,0.0,
,,,-10.0999996E-3,5.55999994,,,,,-10.0999996E-3,0.0,
,,,-10.0900000E-3,5.55999994,,,,,-10.0900000E-3,0.0,
,,,-10.0799995E-3,5.51999998,,,,,-10.0799995E-3,0.0,
,,,-10.0699998E-3,5.55999994,,,,,-10.0699998E-3,-39.99999911E-3,
,,,-10.0599993E-3,5.55999994,,,,,-10.0599993E-3,0.0,
,,,-10.0499997E-3,5.55999994,,,,,-10.0499997E-3,0.0,
,,,-10.0400001E-3,5.55999994,,,,,-10.0400001E-3,0.0,
,,,-10.0299995E-3,5.55999994,,,,,-10.0299995E-3,0.0,
,,,-10.0199999E-3,5.51999998,,,,,-10.0199999E-3,39.99999911E-3,
,,,-10.0099994E-3,5.51999998,,,,,-10.0099994E-3,39.99999911E-3,
,,,-9.999999776E-3,5.55999994,,,,,-9.999999776E-3,0.0,
,,,-9.989999235E-3,5.51999998,,,,,-9.989999235E-3,-39.99999911E-3,
,,,-9.979999624E-3,5.55999994,,,,,-9.979999624E-3,0.0,
,,,-9.970000014E-3,5.51999998,,,,,-9.970000014E-3,0.0,
,,,-9.959999472E-3,5.51999998,,,,,-9.959999472E-3,0.0,
,,,-9.949999861E-3,5.51999998,,,,,-9.949999861E-3,0.0,
,,,-9.939999320E-3,5.51999998,,,,,-9.939999320E-3,0.0,
,,,-9.929999709E-3,5.51999998,,,,,-9.929999709E-3,39.99999911E-3,
,,,-9.919999167E-3,5.51999998,,,,,-9.919999167E-3,0.0,
,,,-9.909999557E-3,5.51999998,,,,,-9.909999557E-3,39.99999911E-3,
,,,-9.899999946E-3,5.51999998,,,,,-9.899999946E-3,0.0,
,,,-9.889999405E-3,5.51999998,,,,,-9.889999405E-3,0.0,
,,,-9.879999794E-3,5.51999998,,,,,-9.879999794E-3,0.0,
,,,-9.869999252E-3,5.51999998,,,,,-9.869999252E-3,0.0,
,,,-9.859999642E-3,5.51999998,,,,,-9.859999642E-3,0.0,
,,,-9.850000031E-3,5.48000002,,,,,-9.850000031E-3,0.0,
,,,-9.839999489E-3,5.48000002,,,,,-9.839999489E-3,0.0,
,,,-9.829999879E-3,5.48000002,,,,,-9.829999879E-3,0.0,
,,,-9.819999337E-3,5.48000002,,,,,-9.819999337E-3,39.99999911E-3,
,,,-9.809999727E-3,5.48000002,,,,,-9.809999727E-3,39.99999911E-3,
,,,-9.799999185E-3,5.48000002,,,,,-9.799999185E-3,39.99999911E-3,
,,,-9.789999574E-3,5.51999998,,,,,-9.789999574E-3,0.0,
,,,-9.779999964E-3,5.48000002,,,,,-9.779999964E-3,0.0,
,,,-9.769999422E-3,5.48000002,,,,,-9.769999422E-3,0.0,
,,,-9.759999812E-3,5.48000002,,,,,-9.759999812E-3,0.0,
,,,-9.749999270E-3,5.48000002,,,,,-9.749999270E-3,0.0,
,,,-9.739999659E-3,5.48000002,,,,,-9.739999659E-3,0.0,
,,,-9.730000049E-3,5.48000002,,,,,-9.730000049E-3,0.0,
,,,-9.719999507E-3,5.48000002,,,,,-9.719999507E-3,39.99999911E-3,
,,,-9.709999897E-3,5.48000002,,,,,-9.709999897E-3,39.99999911E-3,
,,,-9.699999355E-3,5.48000002,,,,,-9.699999355E-3,79.999998212E-3,
,,,-9.689999744E-3,5.48000002,,,,,-9.689999744E-3,119.9999973E-3,
,,,-9.679999202E-3,5.44000006,,,,,-9.679999202E-3,159.99999642E-3,
,,,-9.669999592E-3,5.44000006,,,,,-9.669999592E-3,39.99999911E-3,
,,,-9.659999982E-3,5.44000006,,,,,-9.659999982E-3,39.99999911E-3,
,,,-9.649999440E-3,5.44000006,,,,,-9.649999440E-3,0.0,
,,,-9.639999829E-3,5.44000006,,,,,-9.639999829E-3,0.0,
,,,-9.629999287E-3,5.44000006,,,,,-9.629999287E-3,0.0,
,,,-9.619999677E-3,5.44000006,,,,,-9.619999677E-3,0.0,
,,,-9.610000066E-3,5.44000006,,,,,-9.610000066E-3,0.0,
,,,-9.599999525E-3,5.44000006,,,,,-9.599999525E-3,0.0,
,,,-9.589999914E-3,5.44000006,,,,,-9.589999914E-3,0.0,
,,,-9.579999372E-3,5.44000006,,,,,-9.579999372E-3,0.0,
,,,-9.569999762E-3,5.44000006,,,,,-9.569999762E-3,39.99999911E-3,
,,,-9.559999220E-3,5.44000006,,,,,-9.559999220E-3,119.9999973E-3,
,,,-9.549999610E-3,5.44000006,,,,,-9.549999610E-3,399.99997616E-3,
,,,-9.539999999E-3,5.44000006,,,,,-9.539999999E-3,280.00000119E-3,
,,,-9.529999457E-3,5.44000006,,,,,-9.529999457E-3,79.999998212E-3,
,,,-9.519999847E-3,5.44000006,,,,,-9.519999847E-3,39.99999911E-3,
,,,-9.509999305E-3,5.44000006,,,,,-9.509999305E-3,0.0,
,,,-9.499999695E-3,5.44000006,,,,,-9.499999695E-3,39.99999911E-3,
,,,-9.490000084E-3,5.40000010,,,,,-9.490000084E-3,39.99999911E-3,
,,,-9.479999542E-3,5.44000006,,,,,-9.479999542E-3,0.0,
,,,-9.469999932E-3,5.40000010,,,,,-9.469999932E-3,0.0,
,,,-9.459999390E-3,5.40000010,,,,,-9.459999390E-3,0.0,
,,,-9.449999779E-3,5.40000010,,,,,-9.449999779E-3,39.99999911E-3,
,,,-9.439999238E-3,5.40000010,,,,,-9.439999238E-3,159.99999642E-3,
,,,-9.429999627E-3,5.40000010,,,,,-9.429999627E-3,439.999997616E-3,
,,,-9.420000017E-3,5.40000010,,,,,-9.420000017E-3,39.99999911E-3,
,,,-9.409999475E-3,5.40000010,,,,,-9.409999475E-3,39.99999911E-3,
,,,-9.399999864E-3,5.40000010,,,,,-9.399999864E-3,39.99999911E-3,
,,,-9.389999323E-3,5.40000010,,,,,-9.389999323E-3,0.0,
,,,-9.379999712E-3,5.40000010,,,,,-9.379999712E-3,0.0,
,,,-9.370000102E-3,5.40000010,,,,,-9.370000102E-3,0.0,
,,,-9.359999560E-3,5.40000010,,,,,-9.359999560E-3,39.99999911E-3,
,,,-9.349999949E-3,5.40000010,,,,,-9.349999949E-3,39.99999911E-3,
,,,-9.339999408E-3,5.40000010,,,,,-9.339999408E-3,79.999998212E-3,
,,,-9.329999797E-3,5.40000010,,,,,-9.329999797E-3,280.00000119E-3,
,,,-9.319999255E-3,5.40000010,,,,,-9.319999255E-3,1.5599999,
,,,-9.309999645E-3,5.40000010,,,,,-9.309999645E-3,359.99998450E-3,
,,,-9.300000034E-3,5.40000010,,,,,-9.300000034E-3,119.9999973E-3,
,,,-9.289999492E-3,5.40000010,,,,,-9.289999492E-3,39.99999911E-3,
,,,-9.279999882E-3,5.40000010,,,,,-9.279999882E-3,39.99999911E-3,
,,,-9.269999340E-3,5.35999966,,,,,-9.269999340E-3,39.99999911E-3,
,,,-9.259999730E-3,5.40000010,,,,,-9.259999730E-3,0.0,
,,,-9.249999188E-3,5.40000010,,,,,-9.249999188E-3,0.0,
,,,-9.239999577E-3,5.35999966,,,,,-9.239999577E-3,0.0,
