Data Piezo Calibration/30cm Cavity/2018-2-13-13.17-26.6+-0.3V-22.41Hz-OC30cm.csv

Record Length,2500,Points,-30.09999916E-3,488.000035286E-3,,Record Length,2500,Points,-30.09999916E-3,79.999998212E-3,
Sample Interval,19.9999995E-6,s,-30.07999994E-3,488.000035286E-3,,Sample Interval,19.9999995E-6,s,-30.07999994E-3,79.999998212E-3,
Trigger Point,1.5050001E3,Samples,-30.05999885E-3,488.000035286E-3,,Trigger Point,1.5050001E3,Samples,-30.05999885E-3,79.999998212E-3,
,,,-30.03999963E-3,488.000035286E-3,,,,,-30.03999963E-3,79.999998212E-3,
,,,-30.01999855E-3,488.000035286E-3,,,,,-30.01999855E-3,0.0,
,,,-29.99999933E-3,488.000035286E-3,,,,,-29.99999933E-3,0.0,
Source,CH1,,-29.97999825E-3,480.000019073E-3,,Source,CH2,,-29.97999825E-3,0.0,
Vertical Units,Volts,,-29.95999902E-3,480.000019073E-3,,Vertical Units,Volts,,-29.95999902E-3,0.0,
Vertical Scale,200.00000950E-3,,-29.93999980E-3,480.000019073E-3,,Vertical Scale,2.0000000,,-29.93999980E-3,0.0,
Vertical Offset,0,,-29.91999872E-3,480.000019073E-3,,Vertical Offset,0,,-29.91999872E-3,0.0,
Horizontal Units,s,,-29.89999950E-3,480.000019073E-3,,Horizontal Units,s,,-29.89999950E-3,0.0,
Horizontal Scale,4.99999987E-3,,-29.87999842E-3,480.000019073E-3,,Horizontal Scale,4.99999987E-3,,-29.87999842E-3,0.0,
Pt Fmt,Y,,-29.85999919E-3,480.000019073E-3,,Pt Fmt,Y,,-29.85999919E-3,0.0,
Yzero,-2.0000000,,-29.83999997E-3,480.000019073E-3,,Yzero,-1.6800000,,-29.83999997E-3,0.0,
Probe Atten,1.000000,,-29.81999889E-3,480.000019073E-3,,Probe Atten,1.000000,,-29.81999889E-3,0.0,
,,,-29.79999967E-3,472.000032663E-3,,,,,-29.79999967E-3,0.0,
Note,TDS 1002B - 1:16:25 PM   2/13/2018,,-29.77999859E-3,472.000032663E-3,,Note,TDS 1002B - 1:16:25 PM   2/13/2018,,-29.77999859E-3,0.0,
,,,-29.75999936E-3,472.000032663E-3,,,,,-29.75999936E-3,0.0,
,,,-29.73999828E-3,472.000032663E-3,,,,,-29.73999828E-3,0.0,
,,,-29.71999906E-3,472.000032663E-3,,,,,-29.71999906E-3,0.0,
,,,-29.69999984E-3,464.000016451E-3,,,,,-29.69999984E-3,0.0,
,,,-29.67999876E-3,464.000016451E-3,,,,,-29.67999876E-3,0.0,
,,,-29.65999953E-3,464.000016451E-3,,,,,-29.65999953E-3,0.0,
,,,-29.63999845E-3,464.000016451E-3,,,,,-29.63999845E-3,0.0,
,,,-29.61999923E-3,464.000016451E-3,,,,,-29.61999923E-3,79.999998212E-3,
,,,-29.60000001E-3,464.000016451E-3,,,,,-29.60000001E-3,0.0,
,,,-29.57999893E-3,464.000016451E-3,,,,,-29.57999893E-3,0.0,
,,,-29.55999970E-3,464.000016451E-3,,,,,-29.55999970E-3,0.0,
,,,-29.53999862E-3,464.000016451E-3,,,,,-29.53999862E-3,0.0,
,,,-29.51999940E-3,456.000030041E-3,,,,,-29.51999940E-3,0.0,
,,,-29.49999832E-3,456.000030041E-3,,,,,-29.49999832E-3,0.0,
,,,-29.47999910E-3,456.000030041E-3,,,,,-29.47999910E-3,79.999998212E-3,
,,,-29.45999987E-3,456.000030041E-3,,,,,-29.45999987E-3,79.999998212E-3,
,,,-29.43999879E-3,456.000030041E-3,,,,,-29.43999879E-3,0.0,
,,,-29.41999957E-3,456.000030041E-3,,,,,-29.41999957E-3,0.0,
,,,-29.39999849E-3,456.000030041E-3,,,,,-29.39999849E-3,0.0,
,,,-29.37999927E-3,448.000013828E-3,,,,,-29.37999927E-3,0.0,
,,,-29.36000004E-3,448.000013828E-3,,,,,-29.36000004E-3,0.0,
,,,-29.33999896E-3,456.000030041E-3,,,,,-29.33999896E-3,0.0,
,,,-29.31999974E-3,448.000013828E-3,,,,,-29.31999974E-3,0.0,
,,,-29.29999866E-3,448.000013828E-3,,,,,-29.29999866E-3,0.0,
,,,-29.27999943E-3,448.000013828E-3,,,,,-29.27999943E-3,0.0,
,,,-29.25999835E-3,448.000013828E-3,,,,,-29.25999835E-3,79.999998212E-3,
,,,-29.23999913E-3,448.000013828E-3,,,,,-29.23999913E-3,0.0,
,,,-29.21999991E-3,448.000013828E-3,,,,,-29.21999991E-3,0.0,
,,,-29.19999883E-3,440.000027418E-3,,,,,-29.19999883E-3,0.0,
,,,-29.17999960E-3,440.000027418E-3,,,,,-29.17999960E-3,0.0,
,,,-29.15999852E-3,440.000027418E-3,,,,,-29.15999852E-3,0.0,
,,,-29.13999930E-3,440.000027418E-3,,,,,-29.13999930E-3,79.999998212E-3,
,,,-29.12000008E-3,440.000027418E-3,,,,,-29.12000008E-3,79.999998212E-3,
,,,-29.09999900E-3,440.000027418E-3,,,,,-29.09999900E-3,0.0,
,,,-29.07999977E-3,440.000027418E-3,,,,,-29.07999977E-3,79.999998212E-3,
,,,-29.05999869E-3,432.000011206E-3,,,,,-29.05999869E-3,79.999998212E-3,
,,,-29.03999947E-3,432.000011206E-3,,,,,-29.03999947E-3,79.999998212E-3,
,,,-29.01999839E-3,440.000027418E-3,,,,,-29.01999839E-3,79.999998212E-3,
,,,-28.99999917E-3,432.000011206E-3,,,,,-28.99999917E-3,79.999998212E-3,
,,,-28.97999994E-3,432.000011206E-3,,,,,-28.97999994E-3,0.0,
,,,-28.95999886E-3,432.000011206E-3,,,,,-28.95999886E-3,0.0,
,,,-28.93999964E-3,432.000011206E-3,,,,,-28.93999964E-3,0.0,
,,,-28.91999856E-3,424.000024796E-3,,,,,-28.91999856E-3,0.0,
,,,-28.89999934E-3,424.000024796E-3,,,,,-28.89999934E-3,0.0,
,,,-28.88000011E-3,424.000024796E-3,,,,,-28.88000011E-3,0.0,
,,,-28.85999903E-3,424.000024796E-3,,,,,-28.85999903E-3,79.999998212E-3,
,,,-28.83999981E-3,424.000024796E-3,,,,,-28.83999981E-3,0.0,
,,,-28.81999873E-3,424.000024796E-3,,,,,-28.81999873E-3,79.999998212E-3,
,,,-28.79999951E-3,424.000024796E-3,,,,,-28.79999951E-3,79.999998212E-3,
,,,-28.77999842E-3,424.000024796E-3,,,,,-28.77999842E-3,0.0,
,,,-28.75999920E-3,416.000008583E-3,,,,,-28.75999920E-3,0.0,
,,,-28.73999998E-3,416.000008583E-3,,,,,-28.73999998E-3,79.999998212E-3,
,,,-28.71999890E-3,416.000008583E-3,,,,,-28.71999890E-3,0.0,
,,,-28.69999968E-3,416.000008583E-3,,,,,-28.69999968E-3,0.0,
,,,-28.67999859E-3,416.000008583E-3,,,,,-28.67999859E-3,0.0,
,,,-28.65999937E-3,416.000008583E-3,,,,,-28.65999937E-3,0.0,
,,,-28.63999829E-3,416.000008583E-3,,,,,-28.63999829E-3,0.0,
,,,-28.61999907E-3,416.000008583E-3,,,,,-28.61999907E-3,0.0,
,,,-28.59999985E-3,416.000008583E-3,,,,,-28.59999985E-3,0.0,
,,,-28.57999876E-3,416.000008583E-3,,,,,-28.57999876E-3,79.999998212E-3,
,,,-28.55999954E-3,408.000022173E-3,,,,,-28.55999954E-3,0.0,
,,,-28.53999846E-3,408.000022173E-3,,,,,-28.53999846E-3,79.999998212E-3,
,,,-28.51999924E-3,408.000022173E-3,,,,,-28.51999924E-3,0.0,
,,,-28.50000001E-3,408.000022173E-3,,,,,-28.50000001E-3,0.0,
,,,-28.47999893E-3,408.000022173E-3,,,,,-28.47999893E-3,0.0,
,,,-28.45999971E-3,408.000022173E-3,,,,,-28.45999971E-3,0.0,
,,,-28.43999863E-3,408.000022173E-3,,,,,-28.43999863E-3,0.0,
,,,-28.41999941E-3,400.00000596E-3,,,,,-28.41999941E-3,0.0,
,,,-28.39999832E-3,400.00000596E-3,,,,,-28.39999832E-3,0.0,
,,,-28.37999910E-3,408.000022173E-3,,,,,-28.37999910E-3,0.0,
,,,-28.35999988E-3,400.00000596E-3,,,,,-28.35999988E-3,0.0,
,,,-28.33999880E-3,400.00000596E-3,,,,,-28.33999880E-3,0.0,
,,,-28.31999958E-3,400.00000596E-3,,,,,-28.31999958E-3,0.0,
,,,-28.29999849E-3,400.00000596E-3,,,,,-28.29999849E-3,0.0,
,,,-28.27999927E-3,400.00000596E-3,,,,,-28.27999927E-3,-79.999998212E-3,
,,,-28.26000005E-3,392.00001955E-3,,,,,-28.26000005E-3,0.0,
,,,-28.23999897E-3,392.00001955E-3,,,,,-28.23999897E-3,0.0,
,,,-28.21999975E-3,392.00001955E-3,,,,,-28.21999975E-3,0.0,
,,,-28.19999866E-3,392.00001955E-3,,,,,-28.19999866E-3,0.0,
,,,-28.17999944E-3,392.00001955E-3,,,,,-28.17999944E-3,0.0,
,,,-28.15999836E-3,392.00001955E-3,,,,,-28.15999836E-3,0.0,
,,,-28.13999914E-3,392.00001955E-3,,,,,-28.13999914E-3,0.0,
,,,-28.11999992E-3,392.00001955E-3,,,,,-28.11999992E-3,0.0,
,,,-28.09999883E-3,384.00000334E-3,,,,,-28.09999883E-3,0.0,
,,,-28.07999961E-3,384.00000334E-3,,,,,-28.07999961E-3,0.0,
,,,-28.05999853E-3,384.00000334E-3,,,,,-28.05999853E-3,0.0,
,,,-28.03999931E-3,384.00000334E-3,,,,,-28.03999931E-3,0.0,
,,,-28.02000009E-3,384.00000334E-3,,,,,-28.02000009E-3,0.0,
,,,-27.99999900E-3,384.00000334E-3,,,,,-27.99999900E-3,79.999998212E-3,
,,,-27.97999978E-3,376.00001693E-3,,,,,-27.97999978E-3,79.999998212E-3,
,,,-27.95999870E-3,384.00000334E-3,,,,,-27.95999870E-3,79.999998212E-3,
,,,-27.93999948E-3,384.00000334E-3,,,,,-27.93999948E-3,0.0,
,,,-27.91999839E-3,376.00001693E-3,,,,,-27.91999839E-3,0.0,
,,,-27.89999917E-3,376.00001693E-3,,,,,-27.89999917E-3,0.0,
,,,-27.87999995E-3,376.00001693E-3,,,,,-27.87999995E-3,0.0,
,,,-27.85999887E-3,376.00001693E-3,,,,,-27.85999887E-3,0.0,
,,,-27.83999965E-3,368.00003052E-3,,,,,-27.83999965E-3,0.0,
,,,-27.81999856E-3,376.00001693E-3,,,,,-27.81999856E-3,79.999998212E-3,
,,,-27.79999934E-3,368.00003052E-3,,,,,-27.79999934E-3,79.999998212E-3,
,,,-27.78000012E-3,368.00003052E-3,,,,,-27.78000012E-3,79.999998212E-3,
,,,-27.75999904E-3,368.00003052E-3,,,,,-27.75999904E-3,79.999998212E-3,
,,,-27.73999982E-3,368.00003052E-3,,,,,-27.73999982E-3,79.999998212E-3,
,,,-27.71999873E-3,368.00003052E-3,,,,,-27.71999873E-3,0.0,
,,,-27.69999951E-3,368.00003052E-3,,,,,-27.69999951E-3,0.0,
,,,-27.67999843E-3,368.00003052E-3,,,,,-27.67999843E-3,79.999998212E-3,
,,,-27.65999921E-3,360.00001431E-3,,,,,-27.65999921E-3,79.999998212E-3,
,,,-27.63999999E-3,360.00001431E-3,,,,,-27.63999999E-3,0.0,
,,,-27.61999890E-3,360.00001431E-3,,,,,-27.61999890E-3,0.0,
,,,-27.59999968E-3,360.00001431E-3,,,,,-27.59999968E-3,0.0,
,,,-27.57999860E-3,360.00001431E-3,,,,,-27.57999860E-3,79.999998212E-3,
,,,-27.55999938E-3,360.00001431E-3,,,,,-27.55999938E-3,79.999998212E-3,
,,,-27.53999829E-3,360.00001431E-3,,,,,-27.53999829E-3,159.99999642E-3,
,,,-27.51999907E-3,360.00001431E-3,,,,,-27.51999907E-3,159.99999642E-3,
,,,-27.49999985E-3,360.00001431E-3,,,,,-27.49999985E-3,159.99999642E-3,
,,,-27.47999877E-3,352.00002789E-3,,,,,-27.47999877E-3,79.999998212E-3,
,,,-27.45999955E-3,352.00002789E-3,,,,,-27.45999955E-3,0.0,
,,,-27.43999846E-3,352.00002789E-3,,,,,-27.43999846E-3,79.999998212E-3,
,,,-27.41999924E-3,352.00002789E-3,,,,,-27.41999924E-3,0.0,
,,,-27.40000002E-3,352.00002789E-3,,,,,-27.40000002E-3,0.0,
,,,-27.37999894E-3,352.00002789E-3,,,,,-27.37999894E-3,79.999998212E-3,
,,,-27.35999972E-3,352.00002789E-3,,,,,-27.35999972E-3,159.99999642E-3,
,,,-27.33999863E-3,352.00002789E-3,,,,,-27.33999863E-3,159.99999642E-3,
,,,-27.31999941E-3,352.00002789E-3,,,,,-27.31999941E-3,239.99999464E-3,
,,,-27.29999833E-3,352.00002789E-3,,,,,-27.29999833E-3,239.99999464E-3,
,,,-27.27999911E-3,344.00001168E-3,,,,,-27.27999911E-3,159.99999642E-3,
,,,-27.25999989E-3,344.00001168E-3,,,,,-27.25999989E-3,79.999998212E-3,
,,,-27.23999880E-3,344.00001168E-3,,,,,-27.23999880E-3,79.999998212E-3,
,,,-27.21999958E-3,344.00001168E-3,,,,,-27.21999958E-3,159.99999642E-3,
,,,-27.19999850E-3,344.00001168E-3,,,,,-27.19999850E-3,159.99999642E-3,
,,,-27.17999928E-3,344.00001168E-3,,,,,-27.17999928E-3,159.99999642E-3,
,,,-27.16000006E-3,344.00001168E-3,,,,,-27.16000006E-3,79.999998212E-3,
,,,-27.13999897E-3,336.00002527E-3,,,,,-27.13999897E-3,239.99999464E-3,
,,,-27.11999975E-3,336.00002527E-3,,,,,-27.11999975E-3,399.99997616E-3,
,,,-27.09999867E-3,344.00001168E-3,,,,,-27.09999867E-3,479.999989271E-3,
,,,-27.07999945E-3,336.00002527E-3,,,,,-27.07999945E-3,159.99999642E-3,
,,,-27.05999836E-3,336.00002527E-3,,,,,-27.05999836E-3,79.999998212E-3,
,,,-27.03999914E-3,336.00002527E-3,,,,,-27.03999914E-3,79.999998212E-3,
,,,-27.01999992E-3,336.00002527E-3,,,,,-27.01999992E-3,79.999998212E-3,
,,,-26.99999884E-3,336.00002527E-3,,,,,-26.99999884E-3,159.99999642E-3,
,,,-26.97999962E-3,336.00002527E-3,,,,,-26.97999962E-3,159.99999642E-3,
,,,-26.95999853E-3,328.00000906E-3,,,,,-26.95999853E-3,239.99999464E-3,
,,,-26.93999931E-3,328.00000906E-3,,,,,-26.93999931E-3,239.99999464E-3,
,,,-26.92000009E-3,328.00000906E-3,,,,,-26.92000009E-3,399.99997616E-3,
,,,-26.89999901E-3,328.00000906E-3,,,,,-26.89999901E-3,799.999952316E-3,
,,,-26.87999979E-3,328.00000906E-3,,,,,-26.87999979E-3,319.99999285E-3,
,,,-26.85999870E-3,328.00000906E-3,,,,,-26.85999870E-3,319.99999285E-3,
,,,-26.83999948E-3,320.00002265E-3,,,,,-26.83999948E-3,239.99999464E-3,
,,,-26.81999840E-3,328.00000906E-3,,,,,-26.81999840E-3,239.99999464E-3,
,,,-26.79999918E-3,320.00002265E-3,,,,,-26.79999918E-3,79.999998212E-3,
,,,-26.77999996E-3,320.00002265E-3,,,,,-26.77999996E-3,159.99999642E-3,
,,,-26.75999887E-3,320.00002265E-3,,,,,-26.75999887E-3,239.99999464E-3,
,,,-26.73999965E-3,320.00002265E-3,,,,,-26.73999965E-3,159.99999642E-3,
,,,-26.71999857E-3,320.00002265E-3,,,,,-26.71999857E-3,79.999998212E-3,
,,,-26.69999935E-3,320.00002265E-3,,,,,-26.69999935E-3,79.999998212E-3,
,,,-26.68000013E-3,320.00002265E-3,,,,,-26.68000013E-3,79.999998212E-3,
,,,-26.65999904E-3,320.00002265E-3,,,,,-26.65999904E-3,79.999998212E-3,
,,,-26.63999982E-3,312.00000644E-3,,,,,-26.63999982E-3,79.999998212E-3,
,,,-26.61999874E-3,312.00000644E-3,,,,,-26.61999874E-3,0.0,
,,,-26.59999952E-3,312.00000644E-3,,,,,-26.59999952E-3,0.0,
,,,-26.57999843E-3,312.00000644E-3,,,,,-26.57999843E-3,79.999998212E-3,
,,,-26.55999921E-3,312.00000644E-3,,,,,-26.55999921E-3,0.0,
,,,-26.53999999E-3,312.00000644E-3,,,,,-26.53999999E-3,159.99999642E-3,
,,,-26.51999891E-3,312.00000644E-3,,,,,-26.51999891E-3,159.99999642E-3,
,,,-26.49999969E-3,312.00000644E-3,,,,,-26.49999969E-3,159.99999642E-3,
,,,-26.47999860E-3,304.00002003E-3,,,,,-26.47999860E-3,79.999998212E-3,
,,,-26.45999938E-3,304.00002003E-3,,,,,-26.45999938E-3,79.999998212E-3,
,,,-26.44000016E-3,304.00002003E-3,,,,,-26.44000016E-3,0.0,
,,,-26.41999908E-3,304.00002003E-3,,,,,-26.41999908E-3,0.0,
,,,-26.39999986E-3,304.00002003E-3,,,,,-26.39999986E-3,0.0,
,,,-26.37999877E-3,304.00002003E-3,,,,,-26.37999877E-3,0.0,
,,,-26.35999955E-3,296.00000381E-3,,,,,-26.35999955E-3,0.0,
,,,-26.33999847E-3,296.00000381E-3,,,,,-26.33999847E-3,0.0,
,,,-26.31999925E-3,304.00002003E-3,,,,,-26.31999925E-3,0.0,
,,,-26.30000003E-3,296.00000381E-3,,,,,-26.30000003E-3,0.0,
,,,-26.27999894E-3,296.00000381E-3,,,,,-26.27999894E-3,0.0,
,,,-26.25999972E-3,296.00000381E-3,,,,,-26.25999972E-3,0.0,
,,,-26.23999864E-3,296.00000381E-3,,,,,-26.23999864E-3,0.0,
,,,-26.21999942E-3,296.00000381E-3,,,,,-26.21999942E-3,0.0,
,,,-26.19999833E-3,288.00001740E-3,,,,,-26.19999833E-3,0.0,
,,,-26.17999911E-3,288.00001740E-3,,,,,-26.17999911E-3,0.0,
,,,-26.15999989E-3,288.00001740E-3,,,,,-26.15999989E-3,0.0,
,,,-26.13999881E-3,288.00001740E-3,,,,,-26.13999881E-3,0.0,
,,,-26.11999959E-3,288.00001740E-3,,,,,-26.11999959E-3,0.0,
,,,-26.09999850E-3,288.00001740E-3,,,,,-26.09999850E-3,0.0,
,,,-26.07999928E-3,288.00001740E-3,,,,,-26.07999928E-3,0.0,
,,,-26.06000006E-3,280.00000119E-3,,,,,-26.06000006E-3,0.0,
,,,-26.03999898E-3,288.00001740E-3,,,,,-26.03999898E-3,0.0,
,,,-26.01999976E-3,280.00000119E-3,,,,,-26.01999976E-3,-79.999998212E-3,
,,,-25.99999867E-3,280.00000119E-3,,,,,-25.99999867E-3,0.0,
,,,-25.97999945E-3,280.00000119E-3,,,,,-25.97999945E-3,0.0,
,,,-25.95999837E-3,280.00000119E-3,,,,,-25.95999837E-3,0.0,
,,,-25.93999915E-3,280.00000119E-3,,,,,-25.93999915E-3,0.0,
,,,-25.91999993E-3,280.00000119E-3,,,,,-25.91999993E-3,0.0,
,,,-25.89999884E-3,280.00000119E-3,,,,,-25.89999884E-3,0.0,
,,,-25.87999962E-3,280.00000119E-3,,,,,-25.87999962E-3,0.0,
,,,-25.85999854E-3,280.00000119E-3,,,,,-25.85999854E-3,0.0,
,,,-25.83999932E-3,272.00001478E-3,,,,,-25.83999932E-3,0.0,
,,,-25.82000010E-3,272.00001478E-3,,,,,-25.82000010E-3,0.0,
,,,-25.79999901E-3,272.00001478E-3,,,,,-25.79999901E-3,0.0,
,,,-25.77999979E-3,272.00001478E-3,,,,,-25.77999979E-3,0.0,
,,,-25.75999871E-3,272.00001478E-3,,,,,-25.75999871E-3,0.0,
,,,-25.73999949E-3,272.00001478E-3,,,,,-25.73999949E-3,0.0,
,,,-25.71999840E-3,272.00001478E-3,,,,,-25.71999840E-3,0.0,
,,,-25.69999918E-3,263.99999857E-3,,,,,-25.69999918E-3,0.0,
,,,-25.67999996E-3,263.99999857E-3,,,,,-25.67999996E-3,0.0,
,,,-25.65999888E-3,263.99999857E-3,,,,,-25.65999888E-3,0.0,
,,,-25.63999966E-3,263.99999857E-3,,,,,-25.63999966E-3,0.0,
,,,-25.61999857E-3,263.99999857E-3,,,,,-25.61999857E-3,-79.999998212E-3,
,,,-25.59999935E-3,263.99999857E-3,,,,,-25.59999935E-3,0.0,
,,,-25.58000013E-3,263.99999857E-3,,,,,-25.58000013E-3,0.0,
,,,-25.55999905E-3,263.99999857E-3,,,,,-25.55999905E-3,0.0,
,,,-25.53999983E-3,256.00001216E-3,,,,,-25.53999983E-3,0.0,
,,,-25.51999874E-3,256.00001216E-3,,,,,-25.51999874E-3,0.0,
,,,-25.49999952E-3,256.00001216E-3,,,,,-25.49999952E-3,0.0,
,,,-25.47999844E-3,256.00001216E-3,,,,,-25.47999844E-3,0.0,
,,,-25.45999922E-3,256.00001216E-3,,,,,-25.45999922E-3,0.0,
,,,-25.44000000E-3,256.00001216E-3,,,,,-25.44000000E-3,0.0,
,,,-25.41999891E-3,248.00001085E-3,,,,,-25.41999891E-3,79.999998212E-3,
,,,-25.39999969E-3,248.00001085E-3,,,,,-25.39999969E-3,0.0,
,,,-25.37999861E-3,248.00001085E-3,,,,,-25.37999861E-3,0.0,
,,,-25.35999939E-3,248.00001085E-3,,,,,-25.35999939E-3,0.0,
,,,-25.34000017E-3,248.00001085E-3,,,,,-25.34000017E-3,0.0,
,,,-25.31999908E-3,248.00001085E-3,,,,,-25.31999908E-3,0.0,
,,,-25.29999986E-3,248.00001085E-3,,,,,-25.29999986E-3,0.0,
,,,-25.27999878E-3,248.00001085E-3,,,,,-25.27999878E-3,0.0,
,,,-25.25999956E-3,248.00001085E-3,,,,,-25.25999956E-3,0.0,
,,,-25.23999847E-3,248.00001085E-3,,,,,-25.23999847E-3,0.0,
,,,-25.21999925E-3,248.00001085E-3,,,,,-25.21999925E-3,0.0,
,,,-25.20000003E-3,248.00001085E-3,,,,,-25.20000003E-3,0.0,
,,,-25.17999895E-3,240.00000954E-3,,,,,-25.17999895E-3,0.0,
,,,-25.15999973E-3,240.00000954E-3,,,,,-25.15999973E-3,0.0,
,,,-25.13999864E-3,240.00000954E-3,,,,,-25.13999864E-3,0.0,
,,,-25.11999942E-3,240.00000954E-3,,,,,-25.11999942E-3,0.0,
,,,-25.10000020E-3,240.00000954E-3,,,,,-25.10000020E-3,-79.999998212E-3,
,,,-25.07999912E-3,240.00000954E-3,,,,,-25.07999912E-3,0.0,
,,,-25.05999990E-3,232.00000823E-3,,,,,-25.05999990E-3,0.0,
,,,-25.03999881E-3,232.00000823E-3,,,,,-25.03999881E-3,0.0,
,,,-25.01999959E-3,232.00000823E-3,,,,,-25.01999959E-3,0.0,
,,,-24.99999851E-3,232.00000823E-3,,,,,-24.99999851E-3,0.0,
,,,-24.97999929E-3,232.00000823E-3,,,,,-24.97999929E-3,-79.999998212E-3,
,,,-24.96000007E-3,232.00000823E-3,,,,,-24.96000007E-3,0.0,
,,,-24.93999898E-3,224.00000691E-3,,,,,-24.93999898E-3,0.0,
,,,-24.91999976E-3,224.00000691E-3,,,,,-24.91999976E-3,0.0,
,,,-24.89999868E-3,224.00000691E-3,,,,,-24.89999868E-3,0.0,
,,,-24.87999946E-3,224.00000691E-3,,,,,-24.87999946E-3,0.0,
,,,-24.85999838E-3,224.00000691E-3,,,,,-24.85999838E-3,0.0,
,,,-24.83999915E-3,224.00000691E-3,,,,,-24.83999915E-3,79.999998212E-3,
,,,-24.81999993E-3,224.00000691E-3,,,,,-24.81999993E-3,0.0,
,,,-24.79999885E-3,224.00000691E-3,,,,,-24.79999885E-3,0.0,
,,,-24.77999963E-3,224.00000691E-3,,,,,-24.77999963E-3,0.0,
,,,-24.75999855E-3,224.00000691E-3,,,,,-24.75999855E-3,79.999998212E-3,
,,,-24.73999932E-3,224.00000691E-3,,,,,-24.73999932E-3,0.0,
,,,-24.72000010E-3,224.00000691E-3,,,,,-24.72000010E-3,0.0,
,,,-24.69999902E-3,216.00000560E-3,,,,,-24.69999902E-3,0.0,
,,,-24.67999980E-3,216.00000560E-3,,,,,-24.67999980E-3,0.0,
,,,-24.65999871E-3,216.00000560E-3,,,,,-24.65999871E-3,0.0,
,,,-24.63999949E-3,216.00000560E-3,,,,,-24.63999949E-3,0.0,
,,,-24.61999841E-3,216.00000560E-3,,,,,-24.61999841E-3,0.0,
,,,-24.59999919E-3,216.00000560E-3,,,,,-24.59999919E-3,0.0,
,,,-24.57999997E-3,216.00000560E-3,,,,,-24.57999997E-3,0.0,
,,,-24.55999888E-3,216.00000560E-3,,,,,-24.55999888E-3,0.0,
,,,-24.53999966E-3,208.00000429E-3,,,,,-24.53999966E-3,79.999998212E-3,
,,,-24.51999858E-3,208.00000429E-3,,,,,-24.51999858E-3,0.0,
,,,-24.49999936E-3,208.00000429E-3,,,,,-24.49999936E-3,79.999998212E-3,
,,,-24.48000014E-3,208.00000429E-3,,,,,-24.48000014E-3,79.999998212E-3,
,,,-24.45999905E-3,208.00000429E-3,,,,,-24.45999905E-3,0.0,
,,,-24.43999983E-3,208.00000429E-3,,,,,-24.43999983E-3,0.0,
,,,-24.41999875E-3,208.00000429E-3,,,,,-24.41999875E-3,0.0,
,,,-24.39999953E-3,208.00000429E-3,,,,,-24.39999953E-3,0.0,
,,,-24.37999845E-3,200.00000298E-3,,,,,-24.37999845E-3,0.0,
,,,-24.35999922E-3,208.00000429E-3,,,,,-24.35999922E-3,0.0,
,,,-24.34000000E-3,200.00000298E-3,,,,,-24.34000000E-3,79.999998212E-3,
,,,-24.31999892E-3,200.00000298E-3,,,,,-24.31999892E-3,79.999998212E-3,
,,,-24.29999970E-3,200.00000298E-3,,,,,-24.29999970E-3,0.0,
,,,-24.27999862E-3,200.00000298E-3,,,,,-24.27999862E-3,79.999998212E-3,
,,,-24.25999939E-3,200.00000298E-3,,,,,-24.25999939E-3,0.0,
,,,-24.24000017E-3,192.00000167E-3,,,,,-24.24000017E-3,79.999998212E-3,
,,,-24.21999909E-3,192.00000167E-3,,,,,-24.21999909E-3,79.999998212E-3,
,,,-24.19999987E-3,192.00000167E-3,,,,,-24.19999987E-3,79.999998212E-3,
,,,-24.17999879E-3,192.00000167E-3,,,,,-24.17999879E-3,0.0,
,,,-24.15999956E-3,192.00000167E-3,,,,,-24.15999956E-3,0.0,
,,,-24.13999848E-3,192.00000167E-3,,,,,-24.13999848E-3,0.0,
,,,-24.11999926E-3,192.00000167E-3,,,,,-24.11999926E-3,79.999998212E-3,
,,,-24.10000004E-3,192.00000167E-3,,,,,-24.10000004E-3,0.0,
,,,-24.07999896E-3,192.00000167E-3,,,,,-24.07999896E-3,79.999998212E-3,
