Data Piezo Calibration Files/20cm/2018-2-13-13.35-22.51Hz-48V-OC20cm.csv

Record Length,2500,Points,-35.39999947E-3,776.000022888E-3,,Record Length,2500,Points,-35.39999947E-3,0.0,
Sample Interval,19.9999995E-6,s,-35.37999839E-3,776.000022888E-3,,Sample Interval,19.9999995E-6,s,-35.37999839E-3,0.0,
Trigger Point,1.7700001E3,Samples,-35.36000103E-3,776.000022888E-3,,Trigger Point,1.7700001E3,Samples,-35.36000103E-3,0.0,
,,,-35.33999994E-3,776.000022888E-3,,,,,-35.33999994E-3,0.0,
,,,-35.31999886E-3,784.000039101E-3,,,,,-35.31999886E-3,0.0,
,,,-35.29999778E-3,776.000022888E-3,,,,,-35.29999778E-3,0.0,
Source,CH1,,-35.28000042E-3,784.000039101E-3,,Source,CH2,,-35.28000042E-3,0.0,
Vertical Units,Volts,,-35.25999933E-3,784.000039101E-3,,Vertical Units,Volts,,-35.25999933E-3,0.0,
Vertical Scale,200.00000950E-3,,-35.23999825E-3,784.000039101E-3,,Vertical Scale,2.0000000,,-35.23999825E-3,-79.999998212E-3,
Vertical Offset,0,,-35.22000089E-3,784.000039101E-3,,Vertical Offset,0,,-35.22000089E-3,0.0,
Horizontal Units,s,,-35.19999981E-3,784.000039101E-3,,Horizontal Units,s,,-35.19999981E-3,0.0,
Horizontal Scale,4.99999987E-3,,-35.17999873E-3,784.000039101E-3,,Horizontal Scale,4.99999987E-3,,-35.17999873E-3,0.0,
Pt Fmt,Y,,-35.15999764E-3,792.000055313E-3,,Pt Fmt,Y,,-35.15999764E-3,0.0,
Yzero,-2.0000000,,-35.14000028E-3,784.000039101E-3,,Yzero,-1.6800000,,-35.14000028E-3,0.0,
Probe Atten,1.000000,,-35.11999920E-3,792.000055313E-3,,Probe Atten,1.000000,,-35.11999920E-3,-79.999998212E-3,
,,,-35.09999812E-3,792.000055313E-3,,,,,-35.09999812E-3,0.0,
Note,TDS 1002B - 1:35:04 PM   2/13/2018,,-35.08000076E-3,792.000055313E-3,,Note,TDS 1002B - 1:35:04 PM   2/13/2018,,-35.08000076E-3,0.0,
,,,-35.05999967E-3,792.000055313E-3,,,,,-35.05999967E-3,0.0,
,,,-35.03999859E-3,792.000055313E-3,,,,,-35.03999859E-3,0.0,
,,,-35.02000123E-3,792.000055313E-3,,,,,-35.02000123E-3,0.0,
,,,-35.00000015E-3,792.000055313E-3,,,,,-35.00000015E-3,0.0,
,,,-34.97999907E-3,792.000055313E-3,,,,,-34.97999907E-3,0.0,
,,,-34.95999798E-3,792.000055313E-3,,,,,-34.95999798E-3,0.0,
,,,-34.94000062E-3,792.000055313E-3,,,,,-34.94000062E-3,0.0,
,,,-34.91999954E-3,800.000011921E-3,,,,,-34.91999954E-3,0.0,
,,,-34.89999846E-3,800.000011921E-3,,,,,-34.89999846E-3,0.0,
,,,-34.88000110E-3,800.000011921E-3,,,,,-34.88000110E-3,0.0,
,,,-34.86000001E-3,800.000011921E-3,,,,,-34.86000001E-3,0.0,
,,,-34.83999893E-3,800.000011921E-3,,,,,-34.83999893E-3,0.0,
,,,-34.81999785E-3,800.000011921E-3,,,,,-34.81999785E-3,0.0,
,,,-34.80000049E-3,808.000028133E-3,,,,,-34.80000049E-3,0.0,
,,,-34.77999941E-3,808.000028133E-3,,,,,-34.77999941E-3,-79.999998212E-3,
,,,-34.75999832E-3,808.000028133E-3,,,,,-34.75999832E-3,-79.999998212E-3,
,,,-34.74000096E-3,808.000028133E-3,,,,,-34.74000096E-3,0.0,
,,,-34.71999988E-3,808.000028133E-3,,,,,-34.71999988E-3,0.0,
,,,-34.69999880E-3,808.000028133E-3,,,,,-34.69999880E-3,0.0,
,,,-34.67999771E-3,808.000028133E-3,,,,,-34.67999771E-3,-79.999998212E-3,
,,,-34.66000035E-3,808.000028133E-3,,,,,-34.66000035E-3,0.0,
,,,-34.63999927E-3,816.000044346E-3,,,,,-34.63999927E-3,0.0,
,,,-34.61999819E-3,816.000044346E-3,,,,,-34.61999819E-3,0.0,
,,,-34.60000083E-3,808.000028133E-3,,,,,-34.60000083E-3,0.0,
,,,-34.57999974E-3,816.000044346E-3,,,,,-34.57999974E-3,0.0,
,,,-34.55999866E-3,816.000044346E-3,,,,,-34.55999866E-3,-79.999998212E-3,
,,,-34.54000130E-3,816.000044346E-3,,,,,-34.54000130E-3,0.0,
,,,-34.52000022E-3,816.000044346E-3,,,,,-34.52000022E-3,0.0,
,,,-34.49999914E-3,824.000060558E-3,,,,,-34.49999914E-3,0.0,
,,,-34.47999805E-3,824.000060558E-3,,,,,-34.47999805E-3,0.0,
,,,-34.46000069E-3,824.000060558E-3,,,,,-34.46000069E-3,0.0,
,,,-34.43999961E-3,824.000060558E-3,,,,,-34.43999961E-3,0.0,
,,,-34.41999853E-3,824.000060558E-3,,,,,-34.41999853E-3,0.0,
,,,-34.40000117E-3,824.000060558E-3,,,,,-34.40000117E-3,0.0,
,,,-34.38000008E-3,824.000060558E-3,,,,,-34.38000008E-3,0.0,
,,,-34.35999900E-3,832.000017166E-3,,,,,-34.35999900E-3,0.0,
,,,-34.33999792E-3,824.000060558E-3,,,,,-34.33999792E-3,0.0,
,,,-34.32000056E-3,832.000017166E-3,,,,,-34.32000056E-3,1.5200000,
,,,-34.29999948E-3,832.000017166E-3,,,,,-34.29999948E-3,2.72000003,
,,,-34.27999839E-3,832.000017166E-3,,,,,-34.27999839E-3,4.63999987,
,,,-34.26000103E-3,832.000017166E-3,,,,,-34.26000103E-3,7.19999981,
,,,-34.23999995E-3,832.000017166E-3,,,,,-34.23999995E-3,0.0,
,,,-34.21999887E-3,832.000017166E-3,,,,,-34.21999887E-3,79.999998212E-3,
,,,-34.19999778E-3,832.000017166E-3,,,,,-34.19999778E-3,79.999998212E-3,
,,,-34.18000042E-3,832.000017166E-3,,,,,-34.18000042E-3,79.999998212E-3,
,,,-34.15999934E-3,840.000033379E-3,,,,,-34.15999934E-3,79.999998212E-3,
,,,-34.13999826E-3,840.000033379E-3,,,,,-34.13999826E-3,159.99999642E-3,
,,,-34.12000090E-3,840.000033379E-3,,,,,-34.12000090E-3,239.99999464E-3,
,,,-34.09999982E-3,840.000033379E-3,,,,,-34.09999982E-3,239.99999464E-3,
,,,-34.07999873E-3,840.000033379E-3,,,,,-34.07999873E-3,479.999989271E-3,
,,,-34.05999765E-3,840.000033379E-3,,,,,-34.05999765E-3,1.2800000,
,,,-34.04000029E-3,840.000033379E-3,,,,,-34.04000029E-3,1.9200000,
,,,-34.01999921E-3,848.000049591E-3,,,,,-34.01999921E-3,1.6799999,
,,,-33.99999812E-3,848.000049591E-3,,,,,-33.99999812E-3,2.0799999,
,,,-33.98000076E-3,848.000049591E-3,,,,,-33.98000076E-3,1.1200000,
,,,-33.95999968E-3,848.000049591E-3,,,,,-33.95999968E-3,479.999989271E-3,
,,,-33.93999860E-3,848.000049591E-3,,,,,-33.93999860E-3,239.99999464E-3,
,,,-33.92000124E-3,848.000049591E-3,,,,,-33.92000124E-3,159.99999642E-3,
,,,-33.90000015E-3,848.000049591E-3,,,,,-33.90000015E-3,79.999998212E-3,
,,,-33.87999907E-3,856.000065804E-3,,,,,-33.87999907E-3,79.999998212E-3,
,,,-33.85999799E-3,856.000065804E-3,,,,,-33.85999799E-3,79.999998212E-3,
,,,-33.84000063E-3,856.000065804E-3,,,,,-33.84000063E-3,79.999998212E-3,
,,,-33.81999955E-3,856.000065804E-3,,,,,-33.81999955E-3,0.0,
,,,-33.79999846E-3,856.000065804E-3,,,,,-33.79999846E-3,0.0,
,,,-33.78000110E-3,856.000065804E-3,,,,,-33.78000110E-3,0.0,
,,,-33.76000002E-3,856.000065804E-3,,,,,-33.76000002E-3,79.999998212E-3,
,,,-33.73999894E-3,856.000065804E-3,,,,,-33.73999894E-3,0.0,
,,,-33.71999785E-3,864.000022411E-3,,,,,-33.71999785E-3,0.0,
,,,-33.70000049E-3,864.000022411E-3,,,,,-33.70000049E-3,79.999998212E-3,
,,,-33.67999941E-3,864.000022411E-3,,,,,-33.67999941E-3,79.999998212E-3,
,,,-33.65999833E-3,864.000022411E-3,,,,,-33.65999833E-3,239.99999464E-3,
,,,-33.64000097E-3,864.000022411E-3,,,,,-33.64000097E-3,719.999969006E-3,
,,,-33.61999989E-3,864.000022411E-3,,,,,-33.61999989E-3,1.5200000,
,,,-33.59999880E-3,864.000022411E-3,,,,,-33.59999880E-3,719.999969006E-3,
,,,-33.57999772E-3,864.000022411E-3,,,,,-33.57999772E-3,319.99999285E-3,
,,,-33.56000036E-3,864.000022411E-3,,,,,-33.56000036E-3,159.99999642E-3,
,,,-33.53999928E-3,864.000022411E-3,,,,,-33.53999928E-3,79.999998212E-3,
,,,-33.51999819E-3,864.000022411E-3,,,,,-33.51999819E-3,79.999998212E-3,
,,,-33.50000083E-3,872.000038624E-3,,,,,-33.50000083E-3,79.999998212E-3,
,,,-33.47999975E-3,880.000054836E-3,,,,,-33.47999975E-3,79.999998212E-3,
,,,-33.45999867E-3,872.000038624E-3,,,,,-33.45999867E-3,79.999998212E-3,
,,,-33.44000131E-3,880.000054836E-3,,,,,-33.44000131E-3,79.999998212E-3,
,,,-33.42000023E-3,872.000038624E-3,,,,,-33.42000023E-3,79.999998212E-3,
,,,-33.39999914E-3,872.000038624E-3,,,,,-33.39999914E-3,0.0,
,,,-33.37999806E-3,880.000054836E-3,,,,,-33.37999806E-3,0.0,
,,,-33.36000070E-3,872.000038624E-3,,,,,-33.36000070E-3,0.0,
,,,-33.33999962E-3,880.000054836E-3,,,,,-33.33999962E-3,0.0,
,,,-33.31999853E-3,880.000054836E-3,,,,,-33.31999853E-3,0.0,
,,,-33.30000117E-3,880.000054836E-3,,,,,-33.30000117E-3,79.999998212E-3,
,,,-33.28000009E-3,880.000054836E-3,,,,,-33.28000009E-3,159.99999642E-3,
,,,-33.25999901E-3,888.000071049E-3,,,,,-33.25999901E-3,239.99999464E-3,
,,,-33.23999792E-3,888.000071049E-3,,,,,-33.23999792E-3,79.999998212E-3,
,,,-33.22000057E-3,888.000071049E-3,,,,,-33.22000057E-3,79.999998212E-3,
,,,-33.19999948E-3,888.000071049E-3,,,,,-33.19999948E-3,-79.999998212E-3,
,,,-33.17999840E-3,888.000071049E-3,,,,,-33.17999840E-3,0.0,
,,,-33.16000104E-3,888.000071049E-3,,,,,-33.16000104E-3,0.0,
,,,-33.13999996E-3,888.000071049E-3,,,,,-33.13999996E-3,0.0,
,,,-33.11999887E-3,888.000071049E-3,,,,,-33.11999887E-3,0.0,
,,,-33.09999779E-3,888.000071049E-3,,,,,-33.09999779E-3,-79.999998212E-3,
,,,-33.08000043E-3,888.000071049E-3,,,,,-33.08000043E-3,0.0,
,,,-33.05999935E-3,888.000071049E-3,,,,,-33.05999935E-3,0.0,
,,,-33.03999826E-3,888.000071049E-3,,,,,-33.03999826E-3,0.0,
,,,-33.02000090E-3,888.000071049E-3,,,,,-33.02000090E-3,-79.999998212E-3,
,,,-32.99999982E-3,896.000027657E-3,,,,,-32.99999982E-3,0.0,
,,,-32.97999874E-3,896.000027657E-3,,,,,-32.97999874E-3,0.0,
,,,-32.96000138E-3,896.000027657E-3,,,,,-32.96000138E-3,0.0,
,,,-32.94000030E-3,896.000027657E-3,,,,,-32.94000030E-3,0.0,
,,,-32.91999921E-3,896.000027657E-3,,,,,-32.91999921E-3,0.0,
,,,-32.89999813E-3,896.000027657E-3,,,,,-32.89999813E-3,79.999998212E-3,
,,,-32.88000077E-3,904.000043869E-3,,,,,-32.88000077E-3,79.999998212E-3,
,,,-32.85999969E-3,904.000043869E-3,,,,,-32.85999969E-3,0.0,
,,,-32.83999860E-3,904.000043869E-3,,,,,-32.83999860E-3,0.0,
,,,-32.82000124E-3,904.000043869E-3,,,,,-32.82000124E-3,0.0,
,,,-32.80000016E-3,896.000027657E-3,,,,,-32.80000016E-3,0.0,
,,,-32.77999908E-3,904.000043869E-3,,,,,-32.77999908E-3,0.0,
,,,-32.75999799E-3,904.000043869E-3,,,,,-32.75999799E-3,0.0,
,,,-32.74000064E-3,904.000043869E-3,,,,,-32.74000064E-3,0.0,
,,,-32.71999955E-3,912.000060081E-3,,,,,-32.71999955E-3,-79.999998212E-3,
,,,-32.69999847E-3,904.000043869E-3,,,,,-32.69999847E-3,-79.999998212E-3,
,,,-32.68000111E-3,904.000043869E-3,,,,,-32.68000111E-3,0.0,
,,,-32.66000003E-3,904.000043869E-3,,,,,-32.66000003E-3,-79.999998212E-3,
,,,-32.63999894E-3,904.000043869E-3,,,,,-32.63999894E-3,0.0,
,,,-32.61999786E-3,904.000043869E-3,,,,,-32.61999786E-3,0.0,
,,,-32.60000050E-3,904.000043869E-3,,,,,-32.60000050E-3,0.0,
,,,-32.57999942E-3,904.000043869E-3,,,,,-32.57999942E-3,0.0,
,,,-32.55999833E-3,904.000043869E-3,,,,,-32.55999833E-3,0.0,
,,,-32.54000098E-3,904.000043869E-3,,,,,-32.54000098E-3,-79.999998212E-3,
,,,-32.51999989E-3,896.000027657E-3,,,,,-32.51999989E-3,0.0,
,,,-32.49999881E-3,896.000027657E-3,,,,,-32.49999881E-3,-79.999998212E-3,
,,,-32.47999772E-3,896.000027657E-3,,,,,-32.47999772E-3,0.0,
,,,-32.46000037E-3,896.000027657E-3,,,,,-32.46000037E-3,-79.999998212E-3,
,,,-32.43999928E-3,896.000027657E-3,,,,,-32.43999928E-3,-79.999998212E-3,
,,,-32.41999820E-3,888.000071049E-3,,,,,-32.41999820E-3,-79.999998212E-3,
,,,-32.40000084E-3,888.000071049E-3,,,,,-32.40000084E-3,0.0,
,,,-32.37999976E-3,888.000071049E-3,,,,,-32.37999976E-3,0.0,
,,,-32.35999867E-3,888.000071049E-3,,,,,-32.35999867E-3,0.0,
,,,-32.34000131E-3,888.000071049E-3,,,,,-32.34000131E-3,0.0,
,,,-32.32000023E-3,888.000071049E-3,,,,,-32.32000023E-3,0.0,
,,,-32.29999915E-3,888.000071049E-3,,,,,-32.29999915E-3,0.0,
,,,-32.27999806E-3,888.000071049E-3,,,,,-32.27999806E-3,79.999998212E-3,
,,,-32.26000071E-3,888.000071049E-3,,,,,-32.26000071E-3,159.99999642E-3,
,,,-32.23999962E-3,888.000071049E-3,,,,,-32.23999962E-3,159.99999642E-3,
,,,-32.21999854E-3,888.000071049E-3,,,,,-32.21999854E-3,79.999998212E-3,
,,,-32.20000118E-3,880.000054836E-3,,,,,-32.20000118E-3,79.999998212E-3,
,,,-32.18000010E-3,888.000071049E-3,,,,,-32.18000010E-3,0.0,
,,,-32.15999901E-3,880.000054836E-3,,,,,-32.15999901E-3,0.0,
,,,-32.13999793E-3,880.000054836E-3,,,,,-32.13999793E-3,0.0,
,,,-32.12000057E-3,880.000054836E-3,,,,,-32.12000057E-3,0.0,
,,,-32.09999949E-3,880.000054836E-3,,,,,-32.09999949E-3,0.0,
,,,-32.07999840E-3,880.000054836E-3,,,,,-32.07999840E-3,0.0,
,,,-32.06000105E-3,880.000054836E-3,,,,,-32.06000105E-3,0.0,
,,,-32.03999996E-3,880.000054836E-3,,,,,-32.03999996E-3,0.0,
,,,-32.01999888E-3,880.000054836E-3,,,,,-32.01999888E-3,0.0,
,,,-31.99999779E-3,872.000038624E-3,,,,,-31.99999779E-3,0.0,
,,,-31.98000044E-3,872.000038624E-3,,,,,-31.98000044E-3,0.0,
,,,-31.95999935E-3,872.000038624E-3,,,,,-31.95999935E-3,0.0,
,,,-31.93999827E-3,872.000038624E-3,,,,,-31.93999827E-3,0.0,
,,,-31.92000091E-3,872.000038624E-3,,,,,-31.92000091E-3,0.0,
,,,-31.89999983E-3,872.000038624E-3,,,,,-31.89999983E-3,0.0,
,,,-31.87999874E-3,864.000022411E-3,,,,,-31.87999874E-3,0.0,
,,,-31.86000139E-3,864.000022411E-3,,,,,-31.86000139E-3,0.0,
,,,-31.84000030E-3,864.000022411E-3,,,,,-31.84000030E-3,0.0,
,,,-31.81999922E-3,864.000022411E-3,,,,,-31.81999922E-3,0.0,
,,,-31.79999813E-3,864.000022411E-3,,,,,-31.79999813E-3,0.0,
,,,-31.78000078E-3,864.000022411E-3,,,,,-31.78000078E-3,0.0,
,,,-31.75999969E-3,856.000065804E-3,,,,,-31.75999969E-3,239.99999464E-3,
,,,-31.73999861E-3,864.000022411E-3,,,,,-31.73999861E-3,399.99997616E-3,
,,,-31.72000125E-3,864.000022411E-3,,,,,-31.72000125E-3,159.99999642E-3,
,,,-31.70000017E-3,856.000065804E-3,,,,,-31.70000017E-3,79.999998212E-3,
,,,-31.67999908E-3,856.000065804E-3,,,,,-31.67999908E-3,79.999998212E-3,
,,,-31.65999800E-3,856.000065804E-3,,,,,-31.65999800E-3,0.0,
,,,-31.64000064E-3,856.000065804E-3,,,,,-31.64000064E-3,79.999998212E-3,
,,,-31.61999956E-3,856.000065804E-3,,,,,-31.61999956E-3,0.0,
,,,-31.59999847E-3,856.000065804E-3,,,,,-31.59999847E-3,0.0,
,,,-31.58000112E-3,848.000049591E-3,,,,,-31.58000112E-3,0.0,
,,,-31.56000003E-3,848.000049591E-3,,,,,-31.56000003E-3,0.0,
,,,-31.53999895E-3,848.000049591E-3,,,,,-31.53999895E-3,0.0,
,,,-31.51999786E-3,848.000049591E-3,,,,,-31.51999786E-3,79.999998212E-3,
,,,-31.50000051E-3,848.000049591E-3,,,,,-31.50000051E-3,0.0,
,,,-31.47999942E-3,848.000049591E-3,,,,,-31.47999942E-3,0.0,
,,,-31.45999834E-3,848.000049591E-3,,,,,-31.45999834E-3,0.0,
,,,-31.44000098E-3,848.000049591E-3,,,,,-31.44000098E-3,0.0,
,,,-31.41999990E-3,848.000049591E-3,,,,,-31.41999990E-3,79.999998212E-3,
,,,-31.39999881E-3,848.000049591E-3,,,,,-31.39999881E-3,79.999998212E-3,
,,,-31.37999773E-3,840.000033379E-3,,,,,-31.37999773E-3,239.99999464E-3,
,,,-31.36000037E-3,840.000033379E-3,,,,,-31.36000037E-3,319.99999285E-3,
,,,-31.33999929E-3,840.000033379E-3,,,,,-31.33999929E-3,719.999969006E-3,
,,,-31.31999820E-3,840.000033379E-3,,,,,-31.31999820E-3,1.1999999,
,,,-31.30000085E-3,840.000033379E-3,,,,,-31.30000085E-3,879.999995232E-3,
,,,-31.27999976E-3,840.000033379E-3,,,,,-31.27999976E-3,399.99997616E-3,
,,,-31.25999868E-3,832.000017166E-3,,,,,-31.25999868E-3,239.99999464E-3,
,,,-31.23999946E-3,832.000017166E-3,,,,,-31.23999946E-3,159.99999642E-3,
,,,-31.22000024E-3,840.000033379E-3,,,,,-31.22000024E-3,79.999998212E-3,
,,,-31.19999915E-3,832.000017166E-3,,,,,-31.19999915E-3,79.999998212E-3,
,,,-31.17999993E-3,832.000017166E-3,,,,,-31.17999993E-3,0.0,
,,,-31.15999885E-3,832.000017166E-3,,,,,-31.15999885E-3,0.0,
,,,-31.13999963E-3,832.000017166E-3,,,,,-31.13999963E-3,79.999998212E-3,
,,,-31.12000041E-3,832.000017166E-3,,,,,-31.12000041E-3,0.0,
,,,-31.09999932E-3,832.000017166E-3,,,,,-31.09999932E-3,79.999998212E-3,
,,,-31.08000010E-3,824.000060558E-3,,,,,-31.08000010E-3,0.0,
,,,-31.05999902E-3,824.000060558E-3,,,,,-31.05999902E-3,0.0,
,,,-31.03999980E-3,832.000017166E-3,,,,,-31.03999980E-3,0.0,
,,,-31.01999871E-3,824.000060558E-3,,,,,-31.01999871E-3,79.999998212E-3,
,,,-30.99999949E-3,824.000060558E-3,,,,,-30.99999949E-3,0.0,
,,,-30.98000027E-3,824.000060558E-3,,,,,-30.98000027E-3,79.999998212E-3,
,,,-30.95999919E-3,824.000060558E-3,,,,,-30.95999919E-3,79.999998212E-3,
,,,-30.93999997E-3,824.000060558E-3,,,,,-30.93999997E-3,159.99999642E-3,
,,,-30.91999888E-3,824.000060558E-3,,,,,-30.91999888E-3,239.99999464E-3,
,,,-30.89999966E-3,816.000044346E-3,,,,,-30.89999966E-3,319.99999285E-3,
,,,-30.88000044E-3,824.000060558E-3,,,,,-30.88000044E-3,639.999985695E-3,
,,,-30.85999936E-3,816.000044346E-3,,,,,-30.85999936E-3,1.1999999,
,,,-30.84000014E-3,816.000044346E-3,,,,,-30.84000014E-3,2.2400000,
,,,-30.81999905E-3,816.000044346E-3,,,,,-30.81999905E-3,2.3199999,
,,,-30.79999983E-3,816.000044346E-3,,,,,-30.79999983E-3,319.99999285E-3,
,,,-30.77999875E-3,808.000028133E-3,,,,,-30.77999875E-3,2.2400000,
,,,-30.75999953E-3,808.000028133E-3,,,,,-30.75999953E-3,1.4399999,
,,,-30.74000031E-3,808.000028133E-3,,,,,-30.74000031E-3,959.999978542E-3,
,,,-30.71999922E-3,808.000028133E-3,,,,,-30.71999922E-3,719.999969006E-3,
,,,-30.70000000E-3,808.000028133E-3,,,,,-30.70000000E-3,799.999952316E-3,
,,,-30.67999892E-3,808.000028133E-3,,,,,-30.67999892E-3,879.999995232E-3,
,,,-30.65999970E-3,808.000028133E-3,,,,,-30.65999970E-3,479.999989271E-3,
,,,-30.64000048E-3,808.000028133E-3,,,,,-30.64000048E-3,239.99999464E-3,
,,,-30.61999939E-3,800.000011921E-3,,,,,-30.61999939E-3,79.999998212E-3,
,,,-30.60000017E-3,800.000011921E-3,,,,,-30.60000017E-3,79.999998212E-3,
,,,-30.57999909E-3,800.000011921E-3,,,,,-30.57999909E-3,0.0,
,,,-30.55999987E-3,800.000011921E-3,,,,,-30.55999987E-3,79.999998212E-3,
,,,-30.53999878E-3,800.000011921E-3,,,,,-30.53999878E-3,79.999998212E-3,
,,,-30.51999956E-3,800.000011921E-3,,,,,-30.51999956E-3,79.999998212E-3,
,,,-30.50000034E-3,792.000055313E-3,,,,,-30.50000034E-3,159.99999642E-3,
,,,-30.47999926E-3,800.000011921E-3,,,,,-30.47999926E-3,319.99999285E-3,
,,,-30.46000004E-3,792.000055313E-3,,,,,-30.46000004E-3,399.99997616E-3,
,,,-30.43999895E-3,800.000011921E-3,,,,,-30.43999895E-3,399.99997616E-3,
,,,-30.41999973E-3,792.000055313E-3,,,,,-30.41999973E-3,319.99999285E-3,
,,,-30.40000051E-3,792.000055313E-3,,,,,-30.40000051E-3,319.99999285E-3,
,,,-30.37999943E-3,792.000055313E-3,,,,,-30.37999943E-3,159.99999642E-3,
,,,-30.36000021E-3,792.000055313E-3,,,,,-30.36000021E-3,79.999998212E-3,
,,,-30.33999912E-3,792.000055313E-3,,,,,-30.33999912E-3,79.999998212E-3,
,,,-30.31999990E-3,792.000055313E-3,,,,,-30.31999990E-3,0.0,
,,,-30.29999882E-3,784.000039101E-3,,,,,-30.29999882E-3,0.0,
,,,-30.27999960E-3,792.000055313E-3,,,,,-30.27999960E-3,79.999998212E-3,
,,,-30.26000038E-3,784.000039101E-3,,,,,-30.26000038E-3,0.0,
,,,-30.23999929E-3,784.000039101E-3,,,,,-30.23999929E-3,79.999998212E-3,
,,,-30.22000007E-3,784.000039101E-3,,,,,-30.22000007E-3,79.999998212E-3,
,,,-30.19999899E-3,784.000039101E-3,,,,,-30.19999899E-3,79.999998212E-3,
,,,-30.17999977E-3,784.000039101E-3,,,,,-30.17999977E-3,0.0,
,,,-30.15999869E-3,784.000039101E-3,,,,,-30.15999869E-3,0.0,
,,,-30.13999946E-3,784.000039101E-3,,,,,-30.13999946E-3,0.0,
,,,-30.12000024E-3,776.000022888E-3,,,,,-30.12000024E-3,0.0,
,,,-30.09999916E-3,776.000022888E-3,,,,,-30.09999916E-3,0.0,
,,,-30.07999994E-3,776.000022888E-3,,,,,-30.07999994E-3,0.0,
,,,-30.05999885E-3,784.000039101E-3,,,,,-30.05999885E-3,0.0,
,,,-30.03999963E-3,776.000022888E-3,,,,,-30.03999963E-3,0.0,
,,,-30.02000041E-3,776.000022888E-3,,,,,-30.02000041E-3,0.0,
,,,-29.99999933E-3,776.000022888E-3,,,,,-29.99999933E-3,0.0,
,,,-29.98000011E-3,768.000006676E-3,,,,,-29.98000011E-3,0.0,
,,,-29.95999902E-3,768.000006676E-3,,,,,-29.95999902E-3,0.0,
,,,-29.93999980E-3,768.000006676E-3,,,,,-29.93999980E-3,-79.999998212E-3,
,,,-29.91999872E-3,768.000006676E-3,,,,,-29.91999872E-3,0.0,
,,,-29.89999950E-3,768.000006676E-3,,,,,-29.89999950E-3,0.0,
,,,-29.88000028E-3,768.000006676E-3,,,,,-29.88000028E-3,0.0,
,,,-29.85999919E-3,768.000006676E-3,,,,,-29.85999919E-3,0.0,
,,,-29.83999997E-3,760.000050068E-3,,,,,-29.83999997E-3,0.0,
,,,-29.81999889E-3,768.000006676E-3,,,,,-29.81999889E-3,0.0,
,,,-29.79999967E-3,768.000006676E-3,,,,,-29.79999967E-3,0.0,
,,,-29.78000045E-3,760.000050068E-3,,,,,-29.78000045E-3,0.0,
,,,-29.75999936E-3,760.000050068E-3,,,,,-29.75999936E-3,0.0,
,,,-29.74000014E-3,760.000050068E-3,,,,,-29.74000014E-3,0.0,
,,,-29.71999906E-3,760.000050068E-3,,,,,-29.71999906E-3,0.0,
,,,-29.69999984E-3,760.000050068E-3,,,,,-29.69999984E-3,0.0,
,,,-29.67999876E-3,760.000050068E-3,,,,,-29.67999876E-3,0.0,
,,,-29.65999953E-3,760.000050068E-3,,,,,-29.65999953E-3,0.0,
,,,-29.64000031E-3,760.000050068E-3,,,,,-29.64000031E-3,0.0,
,,,-29.61999923E-3,752.000033855E-3,,,,,-29.61999923E-3,0.0,
,,,-29.60000001E-3,752.000033855E-3,,,,,-29.60000001E-3,0.0,
,,,-29.57999893E-3,752.000033855E-3,,,,,-29.57999893E-3,0.0,
,,,-29.55999970E-3,752.000033855E-3,,,,,-29.55999970E-3,0.0,
,,,-29.54000048E-3,760.000050068E-3,,,,,-29.54000048E-3,-79.999998212E-3,
